%TF.GenerationSoftware,KiCad,Pcbnew,7.0.1*%
%TF.CreationDate,2023-06-30T13:17:27+02:00*%
%TF.ProjectId,COMBINER,434f4d42-494e-4455-922e-6b696361645f,rev?*%
%TF.SameCoordinates,Original*%
%TF.FileFunction,Copper,L1,Top*%
%TF.FilePolarity,Positive*%
%FSLAX46Y46*%
G04 Gerber Fmt 4.6, Leading zero omitted, Abs format (unit mm)*
G04 Created by KiCad (PCBNEW 7.0.1) date 2023-06-30 13:17:27*
%MOMM*%
%LPD*%
G01*
G04 APERTURE LIST*
G04 Aperture macros list*
%AMRoundRect*
0 Rectangle with rounded corners*
0 $1 Rounding radius*
0 $2 $3 $4 $5 $6 $7 $8 $9 X,Y pos of 4 corners*
0 Add a 4 corners polygon primitive as box body*
4,1,4,$2,$3,$4,$5,$6,$7,$8,$9,$2,$3,0*
0 Add four circle primitives for the rounded corners*
1,1,$1+$1,$2,$3*
1,1,$1+$1,$4,$5*
1,1,$1+$1,$6,$7*
1,1,$1+$1,$8,$9*
0 Add four rect primitives between the rounded corners*
20,1,$1+$1,$2,$3,$4,$5,0*
20,1,$1+$1,$4,$5,$6,$7,0*
20,1,$1+$1,$6,$7,$8,$9,0*
20,1,$1+$1,$8,$9,$2,$3,0*%
G04 Aperture macros list end*
%TA.AperFunction,SMDPad,CuDef*%
%ADD10RoundRect,0.250000X-0.337500X-0.475000X0.337500X-0.475000X0.337500X0.475000X-0.337500X0.475000X0*%
%TD*%
%TA.AperFunction,SMDPad,CuDef*%
%ADD11RoundRect,0.250000X1.000000X0.650000X-1.000000X0.650000X-1.000000X-0.650000X1.000000X-0.650000X0*%
%TD*%
%TA.AperFunction,ComponentPad*%
%ADD12R,1.700000X1.700000*%
%TD*%
%TA.AperFunction,ComponentPad*%
%ADD13O,1.700000X1.700000*%
%TD*%
%TA.AperFunction,SMDPad,CuDef*%
%ADD14RoundRect,0.150000X-0.825000X-0.150000X0.825000X-0.150000X0.825000X0.150000X-0.825000X0.150000X0*%
%TD*%
%TA.AperFunction,SMDPad,CuDef*%
%ADD15RoundRect,0.250000X-0.425000X0.537500X-0.425000X-0.537500X0.425000X-0.537500X0.425000X0.537500X0*%
%TD*%
%TA.AperFunction,SMDPad,CuDef*%
%ADD16RoundRect,0.250000X0.450000X-0.350000X0.450000X0.350000X-0.450000X0.350000X-0.450000X-0.350000X0*%
%TD*%
%TA.AperFunction,SMDPad,CuDef*%
%ADD17RoundRect,0.250000X0.350000X0.450000X-0.350000X0.450000X-0.350000X-0.450000X0.350000X-0.450000X0*%
%TD*%
%TA.AperFunction,SMDPad,CuDef*%
%ADD18RoundRect,0.250000X0.475000X-0.337500X0.475000X0.337500X-0.475000X0.337500X-0.475000X-0.337500X0*%
%TD*%
%TA.AperFunction,SMDPad,CuDef*%
%ADD19RoundRect,0.250000X0.537500X0.425000X-0.537500X0.425000X-0.537500X-0.425000X0.537500X-0.425000X0*%
%TD*%
%TA.AperFunction,SMDPad,CuDef*%
%ADD20RoundRect,0.250000X0.650000X-1.000000X0.650000X1.000000X-0.650000X1.000000X-0.650000X-1.000000X0*%
%TD*%
%TA.AperFunction,ComponentPad*%
%ADD21R,1.930000X1.830000*%
%TD*%
%TA.AperFunction,ComponentPad*%
%ADD22C,2.130000*%
%TD*%
%TA.AperFunction,ComponentPad*%
%ADD23O,2.720000X3.240000*%
%TD*%
%TA.AperFunction,ComponentPad*%
%ADD24R,1.800000X1.800000*%
%TD*%
%TA.AperFunction,ComponentPad*%
%ADD25C,1.800000*%
%TD*%
%TA.AperFunction,ViaPad*%
%ADD26C,0.700000*%
%TD*%
%TA.AperFunction,Conductor*%
%ADD27C,0.500000*%
%TD*%
%TA.AperFunction,Conductor*%
%ADD28C,0.250000*%
%TD*%
G04 APERTURE END LIST*
D10*
%TO.P,C1,1*%
%TO.N,+12V*%
X54762500Y-138600000D03*
%TO.P,C1,2*%
%TO.N,GND*%
X56837500Y-138600000D03*
%TD*%
D11*
%TO.P,D1,1,K*%
%TO.N,+12V*%
X53050000Y-151950000D03*
%TO.P,D1,2,A*%
%TO.N,/+12_RAW*%
X49050000Y-151950000D03*
%TD*%
D12*
%TO.P,J5,1,Pin_1*%
%TO.N,/+12_RAW*%
X46925000Y-158525000D03*
D13*
%TO.P,J5,2,Pin_2*%
X46925000Y-155985000D03*
%TO.P,J5,3,Pin_3*%
%TO.N,GND*%
X49465000Y-158525000D03*
%TO.P,J5,4,Pin_4*%
X49465000Y-155985000D03*
%TO.P,J5,5,Pin_5*%
X52005000Y-158525000D03*
%TO.P,J5,6,Pin_6*%
X52005000Y-155985000D03*
%TO.P,J5,7,Pin_7*%
X54545000Y-158525000D03*
%TO.P,J5,8,Pin_8*%
X54545000Y-155985000D03*
%TO.P,J5,9,Pin_9*%
%TO.N,/-12_RAW*%
X57085000Y-158525000D03*
%TO.P,J5,10,Pin_10*%
X57085000Y-155985000D03*
%TD*%
D14*
%TO.P,U1,1*%
%TO.N,Net-(R4-Pad1)*%
X46825000Y-142595000D03*
%TO.P,U1,2,-*%
%TO.N,Net-(U1A--)*%
X46825000Y-143865000D03*
%TO.P,U1,3,+*%
%TO.N,GND*%
X46825000Y-145135000D03*
%TO.P,U1,4,V-*%
%TO.N,-12V*%
X46825000Y-146405000D03*
%TO.P,U1,5,+*%
%TO.N,GND*%
X51775000Y-146405000D03*
%TO.P,U1,6,-*%
%TO.N,Net-(U1B--)*%
X51775000Y-145135000D03*
%TO.P,U1,7*%
%TO.N,Net-(J4-PadT)*%
X51775000Y-143865000D03*
%TO.P,U1,8,V+*%
%TO.N,+12V*%
X51775000Y-142595000D03*
%TD*%
D15*
%TO.P,C4,1*%
%TO.N,GND*%
X58000000Y-142262500D03*
%TO.P,C4,2*%
%TO.N,-12V*%
X58000000Y-145137500D03*
%TD*%
D16*
%TO.P,R5,1*%
%TO.N,Net-(U1B--)*%
X57750000Y-90300000D03*
%TO.P,R5,2*%
%TO.N,Net-(R4-Pad1)*%
X57750000Y-88300000D03*
%TD*%
D17*
%TO.P,R3,1*%
%TO.N,Net-(U1A--)*%
X53500000Y-87100000D03*
%TO.P,R3,2*%
%TO.N,Net-(R3-Pad2)*%
X51500000Y-87100000D03*
%TD*%
%TO.P,R1,1*%
%TO.N,Net-(U1A--)*%
X53500000Y-65800000D03*
%TO.P,R1,2*%
%TO.N,Net-(R1-Pad2)*%
X51500000Y-65800000D03*
%TD*%
D18*
%TO.P,C2,1*%
%TO.N,-12V*%
X54850000Y-144737500D03*
%TO.P,C2,2*%
%TO.N,GND*%
X54850000Y-142662500D03*
%TD*%
D19*
%TO.P,C3,1*%
%TO.N,+12V*%
X52587500Y-148850000D03*
%TO.P,C3,2*%
%TO.N,GND*%
X49712500Y-148850000D03*
%TD*%
D20*
%TO.P,D2,1,K*%
%TO.N,/-12_RAW*%
X57100000Y-152400000D03*
%TO.P,D2,2,A*%
%TO.N,-12V*%
X57100000Y-148400000D03*
%TD*%
D16*
%TO.P,R6,1*%
%TO.N,Net-(J4-PadT)*%
X57600000Y-99300000D03*
%TO.P,R6,2*%
%TO.N,Net-(U1B--)*%
X57600000Y-97300000D03*
%TD*%
D17*
%TO.P,R2,1*%
%TO.N,Net-(U1A--)*%
X53450000Y-79700000D03*
%TO.P,R2,2*%
%TO.N,Net-(R2-Pad2)*%
X51450000Y-79700000D03*
%TD*%
%TO.P,R4,1*%
%TO.N,Net-(R4-Pad1)*%
X57800000Y-85700000D03*
%TO.P,R4,2*%
%TO.N,Net-(U1A--)*%
X55800000Y-85700000D03*
%TD*%
D21*
%TO.P,J2,S*%
%TO.N,GND*%
X52350000Y-104300000D03*
D22*
%TO.P,J2,T*%
%TO.N,Net-(J2-PadT)*%
X52350000Y-115100000D03*
%TO.P,J2,TN*%
%TO.N,unconnected-(J2-PadTN)*%
X52350000Y-106800000D03*
%TD*%
D23*
%TO.P,RV1,*%
%TO.N,*%
X47600000Y-55150000D03*
X57200000Y-55150000D03*
D24*
%TO.P,RV1,1,1*%
%TO.N,GND*%
X54900000Y-62650000D03*
D25*
%TO.P,RV1,2,2*%
%TO.N,Net-(R1-Pad2)*%
X52400000Y-62650000D03*
%TO.P,RV1,3,3*%
%TO.N,Net-(J1-PadT)*%
X49900000Y-62650000D03*
%TD*%
D21*
%TO.P,J1,S*%
%TO.N,GND*%
X52350000Y-104300000D03*
D22*
%TO.P,J1,T*%
%TO.N,Net-(J1-PadT)*%
X52350000Y-93500000D03*
%TO.P,J1,TN*%
%TO.N,unconnected-(J1-PadTN)*%
X52350000Y-101800000D03*
%TD*%
D21*
%TO.P,J4,S*%
%TO.N,GND*%
X52350000Y-128650000D03*
D22*
%TO.P,J4,T*%
%TO.N,Net-(J4-PadT)*%
X52350000Y-139450000D03*
%TO.P,J4,TN*%
%TO.N,unconnected-(J4-PadTN)*%
X52350000Y-131150000D03*
%TD*%
D23*
%TO.P,RV2,*%
%TO.N,*%
X47600000Y-69000000D03*
X57200000Y-69000000D03*
D24*
%TO.P,RV2,1,1*%
%TO.N,GND*%
X54900000Y-76500000D03*
D25*
%TO.P,RV2,2,2*%
%TO.N,Net-(R2-Pad2)*%
X52400000Y-76500000D03*
%TO.P,RV2,3,3*%
%TO.N,Net-(J2-PadT)*%
X49900000Y-76500000D03*
%TD*%
D21*
%TO.P,J3,S*%
%TO.N,GND*%
X52350000Y-128650000D03*
D22*
%TO.P,J3,T*%
%TO.N,Net-(J3-PadT)*%
X52350000Y-117850000D03*
%TO.P,J3,TN*%
%TO.N,unconnected-(J3-PadTN)*%
X52350000Y-126150000D03*
%TD*%
D23*
%TO.P,RV3,*%
%TO.N,*%
X47600000Y-82925000D03*
X57200000Y-82925000D03*
D24*
%TO.P,RV3,1,1*%
%TO.N,GND*%
X54900000Y-90425000D03*
D25*
%TO.P,RV3,2,2*%
%TO.N,Net-(R3-Pad2)*%
X52400000Y-90425000D03*
%TO.P,RV3,3,3*%
%TO.N,Net-(J3-PadT)*%
X49900000Y-90425000D03*
%TD*%
D26*
%TO.N,GND*%
X48900000Y-147800000D03*
X49950000Y-146150000D03*
X58200000Y-138300000D03*
X48500000Y-145850000D03*
%TO.N,Net-(J2-PadT)*%
X48450000Y-94250000D03*
X48350000Y-92250000D03*
%TO.N,Net-(J3-PadT)*%
X49850000Y-94350000D03*
X49900000Y-92550000D03*
%TO.N,-12V*%
X54650000Y-149050000D03*
X47900000Y-148800000D03*
%TO.N,Net-(R4-Pad1)*%
X58600000Y-93800000D03*
X53750000Y-95550000D03*
X50950000Y-96050000D03*
X48250000Y-119950000D03*
X57025500Y-94100000D03*
X47550000Y-96450000D03*
X48250000Y-121750000D03*
X55350000Y-95250000D03*
%TD*%
D27*
%TO.N,GND*%
X57900000Y-138600000D02*
X58200000Y-138300000D01*
X57475000Y-142662500D02*
X58000000Y-142137500D01*
X46825000Y-145135000D02*
X47785000Y-145135000D01*
X51775000Y-146405000D02*
X50205000Y-146405000D01*
X58000000Y-139762500D02*
X56837500Y-138600000D01*
X49712500Y-148850000D02*
X49712500Y-148612500D01*
X47785000Y-145135000D02*
X48500000Y-145850000D01*
X54850000Y-142662500D02*
X57475000Y-142662500D01*
X50205000Y-146405000D02*
X49950000Y-146150000D01*
X58000000Y-142137500D02*
X58000000Y-139762500D01*
X49712500Y-148612500D02*
X48900000Y-147800000D01*
X56837500Y-138600000D02*
X57900000Y-138600000D01*
D28*
%TO.N,Net-(J1-PadT)*%
X49900000Y-69550000D02*
X49900000Y-62650000D01*
X47950000Y-93500000D02*
X46800000Y-92350000D01*
X46600000Y-72850000D02*
X49900000Y-69550000D01*
X48500000Y-80450000D02*
X47650000Y-80450000D01*
X49350000Y-84650000D02*
X49300000Y-84600000D01*
X49300000Y-81250000D02*
X48500000Y-80450000D01*
X49300000Y-84600000D02*
X49300000Y-81250000D01*
X52350000Y-93500000D02*
X47950000Y-93500000D01*
X46800000Y-92350000D02*
X46800000Y-87200000D01*
X47650000Y-80450000D02*
X46600000Y-79400000D01*
X46800000Y-87200000D02*
X49350000Y-84650000D01*
X46600000Y-79400000D02*
X46600000Y-72850000D01*
%TO.N,Net-(J2-PadT)*%
X49450000Y-111900000D02*
X49450000Y-112210000D01*
X48150000Y-89950000D02*
X48150000Y-92050000D01*
X49900000Y-88200000D02*
X48150000Y-89950000D01*
X49450000Y-112210000D02*
X52350000Y-115110000D01*
X48150000Y-92050000D02*
X48350000Y-92250000D01*
X49900000Y-76500000D02*
X49900000Y-88200000D01*
X48450000Y-110900000D02*
X49450000Y-111900000D01*
X48450000Y-94250000D02*
X48450000Y-110900000D01*
%TO.N,Net-(J3-PadT)*%
X53950000Y-116400000D02*
X53900000Y-116450000D01*
X53950000Y-113850000D02*
X53950000Y-116400000D01*
X49900000Y-90425000D02*
X49900000Y-92550000D01*
X50100000Y-112050000D02*
X51500000Y-113450000D01*
X53740000Y-116450000D02*
X52350000Y-117840000D01*
X50100000Y-94600000D02*
X50100000Y-112050000D01*
X49850000Y-94350000D02*
X50100000Y-94600000D01*
X51500000Y-113450000D02*
X53550000Y-113450000D01*
X53900000Y-116450000D02*
X53740000Y-116450000D01*
X53550000Y-113450000D02*
X53950000Y-113850000D01*
%TO.N,Net-(U1A--)*%
X46350000Y-120950000D02*
X46350000Y-139550000D01*
X46660000Y-143700000D02*
X46825000Y-143865000D01*
X54550000Y-78600000D02*
X53450000Y-79700000D01*
X53450000Y-87050000D02*
X53500000Y-87100000D01*
X54500000Y-118100000D02*
X51650000Y-120950000D01*
X55100000Y-87100000D02*
X55300000Y-87100000D01*
X56400000Y-78500000D02*
X56300000Y-78600000D01*
X53500000Y-72000000D02*
X56400000Y-74900000D01*
X56400000Y-74900000D02*
X56400000Y-78500000D01*
X53450000Y-79700000D02*
X53450000Y-87050000D01*
X53500000Y-87100000D02*
X55100000Y-87100000D01*
X45325000Y-143575000D02*
X45450000Y-143700000D01*
X53500000Y-65800000D02*
X53500000Y-72000000D01*
X56350000Y-91550000D02*
X54500000Y-93400000D01*
X56350000Y-91550000D02*
X56350000Y-88350000D01*
X51650000Y-120950000D02*
X46350000Y-120950000D01*
X56300000Y-78600000D02*
X54550000Y-78600000D01*
X55300000Y-86200000D02*
X55300000Y-87100000D01*
X54500000Y-93400000D02*
X54500000Y-118100000D01*
X56350000Y-88350000D02*
X55100000Y-87100000D01*
X45325000Y-140575000D02*
X45325000Y-143575000D01*
X55800000Y-85700000D02*
X55300000Y-86200000D01*
X45450000Y-143700000D02*
X46660000Y-143700000D01*
X46350000Y-139550000D02*
X45325000Y-140575000D01*
%TO.N,Net-(R1-Pad2)*%
X52400000Y-62650000D02*
X52400000Y-64900000D01*
X52400000Y-64900000D02*
X51500000Y-65800000D01*
%TO.N,Net-(R2-Pad2)*%
X51450000Y-77450000D02*
X51450000Y-79700000D01*
X52400000Y-76500000D02*
X51450000Y-77450000D01*
%TO.N,Net-(R3-Pad2)*%
X51500000Y-87100000D02*
X51500000Y-89525000D01*
X51500000Y-89525000D02*
X52400000Y-90425000D01*
%TO.N,Net-(U1B--)*%
X52700000Y-136350000D02*
X54750000Y-136350000D01*
X57500000Y-97350000D02*
X57550000Y-97350000D01*
X57700000Y-97200000D02*
X57600000Y-97300000D01*
X49250000Y-143800000D02*
X49250000Y-139800000D01*
X50585000Y-145135000D02*
X49250000Y-143800000D01*
X51775000Y-145135000D02*
X50585000Y-145135000D01*
X57600000Y-97300000D02*
X57550000Y-97350000D01*
X54750000Y-136350000D02*
X54750000Y-126850000D01*
X54750000Y-126850000D02*
X56050000Y-125550000D01*
X57700000Y-90150000D02*
X57700000Y-97200000D01*
X56050000Y-98800000D02*
X57500000Y-97350000D01*
X56050000Y-125550000D02*
X56050000Y-98800000D01*
X49250000Y-139800000D02*
X52700000Y-136350000D01*
D27*
%TO.N,-12V*%
X47900000Y-148800000D02*
X47900000Y-147480000D01*
X47900000Y-147480000D02*
X46825000Y-146405000D01*
X57100000Y-148400000D02*
X57100000Y-146162500D01*
X55300000Y-148400000D02*
X54650000Y-149050000D01*
X57100000Y-146162500D02*
X58000000Y-145262500D01*
X57100000Y-148400000D02*
X55300000Y-148400000D01*
X55375000Y-145262500D02*
X54850000Y-144737500D01*
X58000000Y-145262500D02*
X55375000Y-145262500D01*
%TO.N,+12V*%
X53050000Y-151950000D02*
X53050000Y-149187500D01*
X52712500Y-148850000D02*
X53550000Y-148012500D01*
X52850000Y-142595000D02*
X54762500Y-140682500D01*
X52850000Y-142595000D02*
X51775000Y-142595000D01*
X53550000Y-143000000D02*
X53145000Y-142595000D01*
X53145000Y-142595000D02*
X52850000Y-142595000D01*
X53050000Y-149187500D02*
X52712500Y-148850000D01*
X54762500Y-140682500D02*
X54762500Y-138600000D01*
X53550000Y-148012500D02*
X53550000Y-143000000D01*
%TO.N,/+12_RAW*%
X46980000Y-158640000D02*
X46980000Y-156100000D01*
X46980000Y-154020000D02*
X49050000Y-151950000D01*
X46980000Y-156100000D02*
X46980000Y-154020000D01*
%TO.N,/-12_RAW*%
X57100000Y-152400000D02*
X57100000Y-156060000D01*
X57100000Y-156060000D02*
X57140000Y-156100000D01*
X57140000Y-158640000D02*
X57140000Y-156100000D01*
D28*
%TO.N,Net-(J4-PadT)*%
X53900000Y-137100000D02*
X52350000Y-138650000D01*
X52350000Y-138650000D02*
X52350000Y-139450000D01*
X51775000Y-143865000D02*
X50765000Y-143865000D01*
X57550000Y-119200000D02*
X57700000Y-119350000D01*
X50765000Y-143865000D02*
X50250000Y-143350000D01*
X57700000Y-119350000D02*
X57700000Y-135200000D01*
X50450000Y-141350000D02*
X52350000Y-139450000D01*
X50250000Y-143350000D02*
X50250000Y-141850000D01*
X55800000Y-137100000D02*
X53900000Y-137100000D01*
X57700000Y-135200000D02*
X55800000Y-137100000D01*
X50250000Y-141850000D02*
X50450000Y-141650000D01*
X50450000Y-141650000D02*
X50450000Y-141350000D01*
X57550000Y-99350000D02*
X57550000Y-119200000D01*
%TO.N,Net-(R4-Pad1)*%
X58950000Y-88950000D02*
X59100000Y-89100000D01*
X47550000Y-96450000D02*
X47550000Y-119250000D01*
X58300000Y-88300000D02*
X58950000Y-88950000D01*
X48250000Y-141170000D02*
X46825000Y-142595000D01*
X48250000Y-121750000D02*
X48250000Y-141170000D01*
X51450000Y-95550000D02*
X50950000Y-96050000D01*
X56500000Y-94100000D02*
X55350000Y-95250000D01*
X59100000Y-93300000D02*
X58600000Y-93800000D01*
X57750000Y-88300000D02*
X58300000Y-88300000D01*
X59100000Y-89100000D02*
X59100000Y-92950000D01*
X59100000Y-92950000D02*
X59100000Y-93300000D01*
X57800000Y-85700000D02*
X57800000Y-88250000D01*
X57025500Y-94100000D02*
X56500000Y-94100000D01*
X47550000Y-119250000D02*
X48250000Y-119950000D01*
X53750000Y-95550000D02*
X51450000Y-95550000D01*
X57800000Y-88250000D02*
X57750000Y-88300000D01*
%TD*%
M02*
