M48
; DRILL file {KiCad 7.0.1} date Tue Jul  4 18:32:21 2023
; FORMAT={-:-/ absolute / metric / decimal}
; #@! TF.CreationDate,2023-07-04T18:32:21+02:00
; #@! TF.GenerationSoftware,Kicad,Pcbnew,7.0.1
; #@! TF.FileFunction,NonPlated,1,2,NPTH
FMAT,2
METRIC
; #@! TA.AperFunction,NonPlated,NPTH,ComponentDrill
T1C3.200
%
G90
G05
T1
X80.7Y-101.2
X84.9Y-118.4
X85.3Y-85.3
X95.4Y-73.5
X98.45Y-119.35
X105.25Y-45.7
X107.6Y-61.2
X118.4Y-114.4
X122.5Y-77.9
X126.0Y-92.0
X132.2Y-54.7
X133.3Y-103.0
T0
M30
