M48
; DRILL file {KiCad 7.0.1} date Tue Jul  4 18:45:53 2023
; FORMAT={-:-/ absolute / metric / decimal}
; #@! TF.CreationDate,2023-07-04T18:45:53+02:00
; #@! TF.GenerationSoftware,Kicad,Pcbnew,7.0.1
; #@! TF.FileFunction,Plated,1,2,PTH
FMAT,2
METRIC
; #@! TA.AperFunction,Plated,PTH,ViaDrill
T1C0.300
; #@! TA.AperFunction,Plated,PTH,ComponentDrill
T2C1.220
; #@! TA.AperFunction,Plated,PTH,ComponentDrill
T3C1.420
; #@! TA.AperFunction,Plated,PTH,ComponentDrill
T4C1.430
%
G90
G05
T1
X111.2Y-105.9
X111.3Y-141.3
X111.9Y-76.3
X117.7Y-76.2
X117.9Y-106.2
X118.0Y-141.6
T2
X100.4Y-101.6
X100.8Y-138.0
X100.9Y-71.0
X128.2Y-138.0
X128.3Y-71.0
X128.7Y-101.6
T3
X100.4Y-104.1
X100.8Y-140.5
X100.9Y-73.5
X128.2Y-140.5
X128.3Y-73.5
X128.7Y-104.1
T4
X100.4Y-112.4
X100.8Y-148.8
X100.9Y-81.8
X128.2Y-148.8
X128.3Y-81.8
X128.7Y-112.4
T0
M30
