%TF.GenerationSoftware,KiCad,Pcbnew,7.0.1*%
%TF.CreationDate,2023-07-05T00:20:41+02:00*%
%TF.ProjectId,MULTIPLIER+_panel,4d554c54-4950-44c4-9945-522b5f70616e,v0_1*%
%TF.SameCoordinates,Original*%
%TF.FileFunction,Profile,NP*%
%FSLAX46Y46*%
G04 Gerber Fmt 4.6, Leading zero omitted, Abs format (unit mm)*
G04 Created by KiCad (PCBNEW 7.0.1) date 2023-07-05 00:20:41*
%MOMM*%
%LPD*%
G01*
G04 APERTURE LIST*
%TA.AperFunction,Profile*%
%ADD10C,0.100000*%
%TD*%
G04 APERTURE END LIST*
D10*
X97900000Y-80000000D02*
G75*
G03*
X97900000Y-80000000I-3050000J0D01*
G01*
X97900000Y-91750000D02*
G75*
G03*
X97900000Y-91750000I-3050000J0D01*
G01*
X89000000Y-41300000D02*
X96000000Y-41300000D01*
X96000000Y-167050000D02*
G75*
G03*
X96000000Y-163750000I0J1650000D01*
G01*
X89000000Y-44600000D02*
X96000000Y-44600000D01*
X89000000Y-167050000D02*
X96000000Y-167050000D01*
X97900000Y-67400000D02*
G75*
G03*
X97900000Y-67400000I-3050000J0D01*
G01*
X97900000Y-152900000D02*
G75*
G03*
X97900000Y-152900000I-3050000J0D01*
G01*
X89000000Y-41300000D02*
G75*
G03*
X89000000Y-44600000I0J-1650000D01*
G01*
X85000000Y-40007400D02*
X99900000Y-40007400D01*
X99900000Y-168507400D01*
X85000000Y-168507400D01*
X85000000Y-40007400D01*
X97900000Y-141150000D02*
G75*
G03*
X97900000Y-141150000I-3050000J0D01*
G01*
X97900000Y-55700000D02*
G75*
G03*
X97900000Y-55700000I-3050000J0D01*
G01*
X96000000Y-44600000D02*
G75*
G03*
X96000000Y-41300000I0J1650000D01*
G01*
X89000000Y-163750000D02*
X96000000Y-163750000D01*
X97900000Y-128650000D02*
G75*
G03*
X97900000Y-128650000I-3050000J0D01*
G01*
X97900000Y-116950000D02*
G75*
G03*
X97900000Y-116950000I-3050000J0D01*
G01*
X89000000Y-163750000D02*
G75*
G03*
X89000000Y-167050000I0J-1650000D01*
G01*
M02*
