M48
; DRILL file {KiCad 7.0.1} date Wed Jul  5 00:20:39 2023
; FORMAT={-:-/ absolute / metric / decimal}
; #@! TF.CreationDate,2023-07-05T00:20:39+02:00
; #@! TF.GenerationSoftware,Kicad,Pcbnew,7.0.1
; #@! TF.FileFunction,Plated,1,2,PTH
FMAT,2
METRIC
%
G90
G05
T0
M30
