58120848000000,1E-10,0,Weerdinge Men
76096368000000,1E-10,0,Tollund Man
60959088000000,1E-10,0,Yde girl
79249968000000,1E-10,0,Haraldskær Woman
85872528000000,1E-10,0,Borremose bodies
82718928000000,1E-10,0,Girl of the Uchter Moor
61589808000000,1E-10,0,Windeby I
73258128000000,1E-10,0,Clonycavan Man
