(kicad_sch (version 20230121) (generator eeschema)

  (uuid 9770e7c3-bd19-4d95-9d9e-7272de4b4f81)

  (paper "A4")

  (lib_symbols
    (symbol "Amplifier_Operational:MCP6002-xSN" (pin_names (offset 0.127)) (in_bom yes) (on_board yes)
      (property "Reference" "U" (at 0 5.08 0)
        (effects (font (size 1.27 1.27)) (justify left))
      )
      (property "Value" "MCP6002-xSN" (at 0 -5.08 0)
        (effects (font (size 1.27 1.27)) (justify left))
      )
      (property "Footprint" "" (at 0 0 0)
        (effects (font (size 1.27 1.27)) hide)
      )
      (property "Datasheet" "http://ww1.microchip.com/downloads/en/DeviceDoc/21733j.pdf" (at 0 0 0)
        (effects (font (size 1.27 1.27)) hide)
      )
      (property "ki_locked" "" (at 0 0 0)
        (effects (font (size 1.27 1.27)))
      )
      (property "ki_keywords" "dual opamp" (at 0 0 0)
        (effects (font (size 1.27 1.27)) hide)
      )
      (property "ki_description" "1MHz, Low-Power Op Amp, SOIC-8" (at 0 0 0)
        (effects (font (size 1.27 1.27)) hide)
      )
      (property "ki_fp_filters" "SOIC*3.9x4.9mm*P1.27mm* DIP*W7.62mm* TO*99* OnSemi*Micro8* TSSOP*3x3mm*P0.65mm* TSSOP*4.4x3mm*P0.65mm* MSOP*3x3mm*P0.65mm* SSOP*3.9x4.9mm*P0.635mm* LFCSP*2x2mm*P0.5mm* *SIP* SOIC*5.3x6.2mm*P1.27mm*" (at 0 0 0)
        (effects (font (size 1.27 1.27)) hide)
      )
      (symbol "MCP6002-xSN_1_1"
        (polyline
          (pts
            (xy -5.08 5.08)
            (xy 5.08 0)
            (xy -5.08 -5.08)
            (xy -5.08 5.08)
          )
          (stroke (width 0.254) (type default))
          (fill (type background))
        )
        (pin output line (at 7.62 0 180) (length 2.54)
          (name "~" (effects (font (size 1.27 1.27))))
          (number "1" (effects (font (size 1.27 1.27))))
        )
        (pin input line (at -7.62 -2.54 0) (length 2.54)
          (name "-" (effects (font (size 1.27 1.27))))
          (number "2" (effects (font (size 1.27 1.27))))
        )
        (pin input line (at -7.62 2.54 0) (length 2.54)
          (name "+" (effects (font (size 1.27 1.27))))
          (number "3" (effects (font (size 1.27 1.27))))
        )
      )
      (symbol "MCP6002-xSN_2_1"
        (polyline
          (pts
            (xy -5.08 5.08)
            (xy 5.08 0)
            (xy -5.08 -5.08)
            (xy -5.08 5.08)
          )
          (stroke (width 0.254) (type default))
          (fill (type background))
        )
        (pin input line (at -7.62 2.54 0) (length 2.54)
          (name "+" (effects (font (size 1.27 1.27))))
          (number "5" (effects (font (size 1.27 1.27))))
        )
        (pin input line (at -7.62 -2.54 0) (length 2.54)
          (name "-" (effects (font (size 1.27 1.27))))
          (number "6" (effects (font (size 1.27 1.27))))
        )
        (pin output line (at 7.62 0 180) (length 2.54)
          (name "~" (effects (font (size 1.27 1.27))))
          (number "7" (effects (font (size 1.27 1.27))))
        )
      )
      (symbol "MCP6002-xSN_3_1"
        (pin power_in line (at -2.54 -7.62 90) (length 3.81)
          (name "V-" (effects (font (size 1.27 1.27))))
          (number "4" (effects (font (size 1.27 1.27))))
        )
        (pin power_in line (at -2.54 7.62 270) (length 3.81)
          (name "V+" (effects (font (size 1.27 1.27))))
          (number "8" (effects (font (size 1.27 1.27))))
        )
      )
    )
    (symbol "Amplifier_Operational:MCP6004" (pin_names (offset 0.127)) (in_bom yes) (on_board yes)
      (property "Reference" "U" (at 0 5.08 0)
        (effects (font (size 1.27 1.27)) (justify left))
      )
      (property "Value" "MCP6004" (at 0 -5.08 0)
        (effects (font (size 1.27 1.27)) (justify left))
      )
      (property "Footprint" "" (at -1.27 2.54 0)
        (effects (font (size 1.27 1.27)) hide)
      )
      (property "Datasheet" "http://ww1.microchip.com/downloads/en/DeviceDoc/21733j.pdf" (at 1.27 5.08 0)
        (effects (font (size 1.27 1.27)) hide)
      )
      (property "ki_locked" "" (at 0 0 0)
        (effects (font (size 1.27 1.27)))
      )
      (property "ki_keywords" "quad opamp" (at 0 0 0)
        (effects (font (size 1.27 1.27)) hide)
      )
      (property "ki_description" "1MHz, Low-Power Op Amp, DIP-14/SOIC-14/TSSOP-14" (at 0 0 0)
        (effects (font (size 1.27 1.27)) hide)
      )
      (property "ki_fp_filters" "SOIC*3.9x8.7mm*P1.27mm* DIP*W7.62mm* TSSOP*4.4x5mm*P0.65mm* SSOP*5.3x6.2mm*P0.65mm* MSOP*3x3mm*P0.5mm*" (at 0 0 0)
        (effects (font (size 1.27 1.27)) hide)
      )
      (symbol "MCP6004_1_1"
        (polyline
          (pts
            (xy -5.08 5.08)
            (xy 5.08 0)
            (xy -5.08 -5.08)
            (xy -5.08 5.08)
          )
          (stroke (width 0.254) (type default))
          (fill (type background))
        )
        (pin output line (at 7.62 0 180) (length 2.54)
          (name "~" (effects (font (size 1.27 1.27))))
          (number "1" (effects (font (size 1.27 1.27))))
        )
        (pin input line (at -7.62 -2.54 0) (length 2.54)
          (name "-" (effects (font (size 1.27 1.27))))
          (number "2" (effects (font (size 1.27 1.27))))
        )
        (pin input line (at -7.62 2.54 0) (length 2.54)
          (name "+" (effects (font (size 1.27 1.27))))
          (number "3" (effects (font (size 1.27 1.27))))
        )
      )
      (symbol "MCP6004_2_1"
        (polyline
          (pts
            (xy -5.08 5.08)
            (xy 5.08 0)
            (xy -5.08 -5.08)
            (xy -5.08 5.08)
          )
          (stroke (width 0.254) (type default))
          (fill (type background))
        )
        (pin input line (at -7.62 2.54 0) (length 2.54)
          (name "+" (effects (font (size 1.27 1.27))))
          (number "5" (effects (font (size 1.27 1.27))))
        )
        (pin input line (at -7.62 -2.54 0) (length 2.54)
          (name "-" (effects (font (size 1.27 1.27))))
          (number "6" (effects (font (size 1.27 1.27))))
        )
        (pin output line (at 7.62 0 180) (length 2.54)
          (name "~" (effects (font (size 1.27 1.27))))
          (number "7" (effects (font (size 1.27 1.27))))
        )
      )
      (symbol "MCP6004_3_1"
        (polyline
          (pts
            (xy -5.08 5.08)
            (xy 5.08 0)
            (xy -5.08 -5.08)
            (xy -5.08 5.08)
          )
          (stroke (width 0.254) (type default))
          (fill (type background))
        )
        (pin input line (at -7.62 2.54 0) (length 2.54)
          (name "+" (effects (font (size 1.27 1.27))))
          (number "10" (effects (font (size 1.27 1.27))))
        )
        (pin output line (at 7.62 0 180) (length 2.54)
          (name "~" (effects (font (size 1.27 1.27))))
          (number "8" (effects (font (size 1.27 1.27))))
        )
        (pin input line (at -7.62 -2.54 0) (length 2.54)
          (name "-" (effects (font (size 1.27 1.27))))
          (number "9" (effects (font (size 1.27 1.27))))
        )
      )
      (symbol "MCP6004_4_1"
        (polyline
          (pts
            (xy -5.08 5.08)
            (xy 5.08 0)
            (xy -5.08 -5.08)
            (xy -5.08 5.08)
          )
          (stroke (width 0.254) (type default))
          (fill (type background))
        )
        (pin input line (at -7.62 2.54 0) (length 2.54)
          (name "+" (effects (font (size 1.27 1.27))))
          (number "12" (effects (font (size 1.27 1.27))))
        )
        (pin input line (at -7.62 -2.54 0) (length 2.54)
          (name "-" (effects (font (size 1.27 1.27))))
          (number "13" (effects (font (size 1.27 1.27))))
        )
        (pin output line (at 7.62 0 180) (length 2.54)
          (name "~" (effects (font (size 1.27 1.27))))
          (number "14" (effects (font (size 1.27 1.27))))
        )
      )
      (symbol "MCP6004_5_1"
        (pin power_in line (at -2.54 -7.62 90) (length 3.81)
          (name "V-" (effects (font (size 1.27 1.27))))
          (number "11" (effects (font (size 1.27 1.27))))
        )
        (pin power_in line (at -2.54 7.62 270) (length 3.81)
          (name "V+" (effects (font (size 1.27 1.27))))
          (number "4" (effects (font (size 1.27 1.27))))
        )
      )
    )
    (symbol "Device:C" (pin_numbers hide) (pin_names (offset 0.254)) (in_bom yes) (on_board yes)
      (property "Reference" "C" (at 0.635 2.54 0)
        (effects (font (size 1.27 1.27)) (justify left))
      )
      (property "Value" "C" (at 0.635 -2.54 0)
        (effects (font (size 1.27 1.27)) (justify left))
      )
      (property "Footprint" "" (at 0.9652 -3.81 0)
        (effects (font (size 1.27 1.27)) hide)
      )
      (property "Datasheet" "~" (at 0 0 0)
        (effects (font (size 1.27 1.27)) hide)
      )
      (property "ki_keywords" "cap capacitor" (at 0 0 0)
        (effects (font (size 1.27 1.27)) hide)
      )
      (property "ki_description" "Unpolarized capacitor" (at 0 0 0)
        (effects (font (size 1.27 1.27)) hide)
      )
      (property "ki_fp_filters" "C_*" (at 0 0 0)
        (effects (font (size 1.27 1.27)) hide)
      )
      (symbol "C_0_1"
        (polyline
          (pts
            (xy -2.032 -0.762)
            (xy 2.032 -0.762)
          )
          (stroke (width 0.508) (type default))
          (fill (type none))
        )
        (polyline
          (pts
            (xy -2.032 0.762)
            (xy 2.032 0.762)
          )
          (stroke (width 0.508) (type default))
          (fill (type none))
        )
      )
      (symbol "C_1_1"
        (pin passive line (at 0 3.81 270) (length 2.794)
          (name "~" (effects (font (size 1.27 1.27))))
          (number "1" (effects (font (size 1.27 1.27))))
        )
        (pin passive line (at 0 -3.81 90) (length 2.794)
          (name "~" (effects (font (size 1.27 1.27))))
          (number "2" (effects (font (size 1.27 1.27))))
        )
      )
    )
    (symbol "Device:R" (pin_numbers hide) (pin_names (offset 0)) (in_bom yes) (on_board yes)
      (property "Reference" "R" (at 2.032 0 90)
        (effects (font (size 1.27 1.27)))
      )
      (property "Value" "R" (at 0 0 90)
        (effects (font (size 1.27 1.27)))
      )
      (property "Footprint" "" (at -1.778 0 90)
        (effects (font (size 1.27 1.27)) hide)
      )
      (property "Datasheet" "~" (at 0 0 0)
        (effects (font (size 1.27 1.27)) hide)
      )
      (property "ki_keywords" "R res resistor" (at 0 0 0)
        (effects (font (size 1.27 1.27)) hide)
      )
      (property "ki_description" "Resistor" (at 0 0 0)
        (effects (font (size 1.27 1.27)) hide)
      )
      (property "ki_fp_filters" "R_*" (at 0 0 0)
        (effects (font (size 1.27 1.27)) hide)
      )
      (symbol "R_0_1"
        (rectangle (start -1.016 -2.54) (end 1.016 2.54)
          (stroke (width 0.254) (type default))
          (fill (type none))
        )
      )
      (symbol "R_1_1"
        (pin passive line (at 0 3.81 270) (length 1.27)
          (name "~" (effects (font (size 1.27 1.27))))
          (number "1" (effects (font (size 1.27 1.27))))
        )
        (pin passive line (at 0 -3.81 90) (length 1.27)
          (name "~" (effects (font (size 1.27 1.27))))
          (number "2" (effects (font (size 1.27 1.27))))
        )
      )
    )
    (symbol "power:GND" (power) (pin_names (offset 0)) (in_bom yes) (on_board yes)
      (property "Reference" "#PWR" (at 0 -6.35 0)
        (effects (font (size 1.27 1.27)) hide)
      )
      (property "Value" "GND" (at 0 -3.81 0)
        (effects (font (size 1.27 1.27)))
      )
      (property "Footprint" "" (at 0 0 0)
        (effects (font (size 1.27 1.27)) hide)
      )
      (property "Datasheet" "" (at 0 0 0)
        (effects (font (size 1.27 1.27)) hide)
      )
      (property "ki_keywords" "global power" (at 0 0 0)
        (effects (font (size 1.27 1.27)) hide)
      )
      (property "ki_description" "Power symbol creates a global label with name \"GND\" , ground" (at 0 0 0)
        (effects (font (size 1.27 1.27)) hide)
      )
      (symbol "GND_0_1"
        (polyline
          (pts
            (xy 0 0)
            (xy 0 -1.27)
            (xy 1.27 -1.27)
            (xy 0 -2.54)
            (xy -1.27 -1.27)
            (xy 0 -1.27)
          )
          (stroke (width 0) (type default))
          (fill (type none))
        )
      )
      (symbol "GND_1_1"
        (pin power_in line (at 0 0 270) (length 0) hide
          (name "GND" (effects (font (size 1.27 1.27))))
          (number "1" (effects (font (size 1.27 1.27))))
        )
      )
    )
  )

  (junction (at 237.49 67.31) (diameter 0) (color 0 0 0 0)
    (uuid 058c939a-df66-40c6-afdf-9ec54d4e35fa)
  )
  (junction (at 144.78 55.88) (diameter 0) (color 0 0 0 0)
    (uuid 0c6c1c08-8498-4286-b52d-f5270a2f222e)
  )
  (junction (at 144.78 109.22) (diameter 0) (color 0 0 0 0)
    (uuid 0f3c3781-51e5-4cec-91f2-37bec353f7ab)
  )
  (junction (at 59.69 115.57) (diameter 0) (color 0 0 0 0)
    (uuid 1619742b-7a62-4540-9208-775b9bf9af88)
  )
  (junction (at 59.69 53.34) (diameter 0) (color 0 0 0 0)
    (uuid 191d21e8-d470-4b6a-85b4-b59d4ba58bfe)
  )
  (junction (at 256.54 69.85) (diameter 0) (color 0 0 0 0)
    (uuid 22a59352-2833-4db0-b9dc-dc799a4821e4)
  )
  (junction (at 59.69 64.77) (diameter 0) (color 0 0 0 0)
    (uuid 41697f97-b20d-4bd1-9ac1-45ce945cb9f0)
  )
  (junction (at 163.83 132.08) (diameter 0) (color 0 0 0 0)
    (uuid 5bc28165-3ab4-4458-9042-a58ac3fdceae)
  )
  (junction (at 59.69 106.68) (diameter 0) (color 0 0 0 0)
    (uuid 5de855fc-19b7-4a53-bd88-5b379de291be)
  )
  (junction (at 236.22 111.76) (diameter 0) (color 0 0 0 0)
    (uuid 5ef817fe-092a-49ba-ab2e-2fdaaa4dd965)
  )
  (junction (at 77.47 53.34) (diameter 0) (color 0 0 0 0)
    (uuid 73ab8baf-391e-4d6e-b513-6a12ad545238)
  )
  (junction (at 144.78 118.11) (diameter 0) (color 0 0 0 0)
    (uuid 7988eee2-b1d1-4340-aef4-6d9e5db46a81)
  )
  (junction (at 237.49 55.88) (diameter 0) (color 0 0 0 0)
    (uuid 82dad97e-8fac-4445-a0d9-2f7fcde60f41)
  )
  (junction (at 144.78 129.54) (diameter 0) (color 0 0 0 0)
    (uuid 850390a5-1348-47e1-9aea-eb5be638c62a)
  )
  (junction (at 255.27 120.65) (diameter 0) (color 0 0 0 0)
    (uuid 8e21e125-0a1d-490b-8fa6-c47ac96a5538)
  )
  (junction (at 237.49 46.99) (diameter 0) (color 0 0 0 0)
    (uuid 9a5afed4-668f-4b03-b541-a5d94202b188)
  )
  (junction (at 163.83 118.11) (diameter 0) (color 0 0 0 0)
    (uuid 9abc95a4-3801-4aea-948d-2baa040d8a6f)
  )
  (junction (at 59.69 44.45) (diameter 0) (color 0 0 0 0)
    (uuid b43f5d97-af78-4b6e-b5b3-b187cbe58b9b)
  )
  (junction (at 163.83 69.85) (diameter 0) (color 0 0 0 0)
    (uuid b5a25777-26f0-48ec-976c-a9b5c3783317)
  )
  (junction (at 144.78 46.99) (diameter 0) (color 0 0 0 0)
    (uuid bb9563d0-a6eb-4ae2-9046-069187537b87)
  )
  (junction (at 256.54 55.88) (diameter 0) (color 0 0 0 0)
    (uuid be2b0009-bab4-47df-9173-77c1ef56edd4)
  )
  (junction (at 163.83 55.88) (diameter 0) (color 0 0 0 0)
    (uuid c2121f0c-c369-49cf-b436-b8a247b71d7f)
  )
  (junction (at 255.27 134.62) (diameter 0) (color 0 0 0 0)
    (uuid c3e27ef5-8dd1-456d-9c9e-8e6ddf0809e3)
  )
  (junction (at 236.22 132.08) (diameter 0) (color 0 0 0 0)
    (uuid d1ececad-b8ea-4a34-802f-9daddad9be50)
  )
  (junction (at 77.47 115.57) (diameter 0) (color 0 0 0 0)
    (uuid d3017d51-d70c-4c12-8663-6ff49cbd8df1)
  )
  (junction (at 144.78 67.31) (diameter 0) (color 0 0 0 0)
    (uuid d6e5b283-353e-476f-8e27-314fa91c7e15)
  )
  (junction (at 77.47 129.54) (diameter 0) (color 0 0 0 0)
    (uuid d81d7233-b76a-44e7-a331-39ab2e0543e2)
  )
  (junction (at 77.47 67.31) (diameter 0) (color 0 0 0 0)
    (uuid e8977bf8-3d65-42b0-96ce-33269d2e1282)
  )
  (junction (at 236.22 120.65) (diameter 0) (color 0 0 0 0)
    (uuid f020e1cd-c0c0-4f6c-9797-ec0297989acd)
  )
  (junction (at 59.69 127) (diameter 0) (color 0 0 0 0)
    (uuid f275b7c0-e914-4fdb-8d7b-03efa67c9cf8)
  )

  (wire (pts (xy 77.47 53.34) (xy 77.47 67.31))
    (stroke (width 0) (type default))
    (uuid 001cf829-bd51-4070-9126-dccebcf1fbc0)
  )
  (wire (pts (xy 60.96 132.08) (xy 55.88 132.08))
    (stroke (width 0) (type default))
    (uuid 009f5a70-10a6-484f-b699-4b3d101d9fe1)
  )
  (wire (pts (xy 41.91 31.75) (xy 41.91 44.45))
    (stroke (width 0) (type default))
    (uuid 02b74a5f-9cb8-4d24-a40d-9d9694c60d73)
  )
  (wire (pts (xy 55.88 64.77) (xy 59.69 64.77))
    (stroke (width 0) (type default))
    (uuid 03b1fa34-416a-48c9-ac57-f5da7173014e)
  )
  (wire (pts (xy 73.66 115.57) (xy 77.47 115.57))
    (stroke (width 0) (type default))
    (uuid 03e3ad70-a2e4-4467-b5dd-dfdec7be34ff)
  )
  (wire (pts (xy 59.69 106.68) (xy 59.69 115.57))
    (stroke (width 0) (type default))
    (uuid 0482777b-33ef-4a1c-b28e-f6479c47326d)
  )
  (wire (pts (xy 59.69 64.77) (xy 60.96 64.77))
    (stroke (width 0) (type default))
    (uuid 052586b9-8e4a-4e12-b8c5-6ccd78b4bfc3)
  )
  (wire (pts (xy 140.97 67.31) (xy 144.78 67.31))
    (stroke (width 0) (type default))
    (uuid 0b51b745-9d84-400f-a731-0c199bf2483b)
  )
  (wire (pts (xy 217.17 67.31) (xy 226.06 67.31))
    (stroke (width 0) (type default))
    (uuid 0bfb1fcf-573f-4924-9f73-93d48faabe3b)
  )
  (wire (pts (xy 38.1 127) (xy 48.26 127))
    (stroke (width 0) (type default))
    (uuid 0cd9e1fe-8795-4101-9d55-04f038a907d5)
  )
  (wire (pts (xy 158.75 45.72) (xy 163.83 45.72))
    (stroke (width 0) (type default))
    (uuid 18de71c2-3108-4fd1-8ded-3db18be55721)
  )
  (wire (pts (xy 151.13 45.72) (xy 144.78 45.72))
    (stroke (width 0) (type default))
    (uuid 1a48347a-0478-4cbc-b0e1-6a43520735a1)
  )
  (wire (pts (xy 48.26 44.45) (xy 41.91 44.45))
    (stroke (width 0) (type default))
    (uuid 1a77efb4-3754-4a05-958c-f6c06a935f96)
  )
  (wire (pts (xy 236.22 120.65) (xy 236.22 132.08))
    (stroke (width 0) (type default))
    (uuid 1cffca7f-9984-4435-871e-5b5381bca6cf)
  )
  (wire (pts (xy 142.24 72.39) (xy 142.24 76.2))
    (stroke (width 0) (type default))
    (uuid 1e6ab277-8daf-42c5-8df4-8b40f46fd5f7)
  )
  (wire (pts (xy 256.54 55.88) (xy 256.54 69.85))
    (stroke (width 0) (type default))
    (uuid 1f32fe69-c634-482a-85f3-bde1ac14a4e0)
  )
  (wire (pts (xy 233.68 67.31) (xy 237.49 67.31))
    (stroke (width 0) (type default))
    (uuid 1fd48abc-77e5-49a0-b8a3-452afc6b2485)
  )
  (wire (pts (xy 242.57 120.65) (xy 236.22 120.65))
    (stroke (width 0) (type default))
    (uuid 20289f16-e578-4d10-bfad-1b28e98a75d4)
  )
  (wire (pts (xy 158.75 55.88) (xy 163.83 55.88))
    (stroke (width 0) (type default))
    (uuid 205a6988-fb87-4c72-9b6d-22322c3626a7)
  )
  (wire (pts (xy 66.04 53.34) (xy 59.69 53.34))
    (stroke (width 0) (type default))
    (uuid 21ab4ac0-7940-40d0-a855-a428fa5ebd61)
  )
  (wire (pts (xy 237.49 55.88) (xy 237.49 67.31))
    (stroke (width 0) (type default))
    (uuid 21e1e222-8d11-4b1e-a4ab-279f565860b8)
  )
  (wire (pts (xy 255.27 134.62) (xy 254 134.62))
    (stroke (width 0) (type default))
    (uuid 274bfe58-f2ad-4771-a477-5754c17d7e37)
  )
  (wire (pts (xy 163.83 132.08) (xy 168.91 132.08))
    (stroke (width 0) (type default))
    (uuid 27ba9e2d-b42c-4463-8e98-1065c014dfa0)
  )
  (wire (pts (xy 66.04 105.41) (xy 59.69 105.41))
    (stroke (width 0) (type default))
    (uuid 27e2db81-414e-4500-8709-53659d812f1e)
  )
  (wire (pts (xy 255.27 134.62) (xy 260.35 134.62))
    (stroke (width 0) (type default))
    (uuid 28e15da7-647f-4632-8d58-75d5c0ff6d09)
  )
  (wire (pts (xy 147.32 72.39) (xy 142.24 72.39))
    (stroke (width 0) (type default))
    (uuid 2c348b67-edd7-4d68-93c3-b13aa92c6c66)
  )
  (wire (pts (xy 77.47 105.41) (xy 77.47 115.57))
    (stroke (width 0) (type default))
    (uuid 2de8b45e-ad2e-4edc-910b-15dee4d7b653)
  )
  (wire (pts (xy 59.69 115.57) (xy 59.69 127))
    (stroke (width 0) (type default))
    (uuid 392b8075-69e1-4727-902f-5aedd2a9a250)
  )
  (wire (pts (xy 128.27 34.29) (xy 128.27 46.99))
    (stroke (width 0) (type default))
    (uuid 3a7e0fe0-7673-49fa-9e19-3fe1c2d08a1b)
  )
  (wire (pts (xy 77.47 43.18) (xy 77.47 53.34))
    (stroke (width 0) (type default))
    (uuid 3aafdcb2-a697-4410-b802-1dbf0fcdad8a)
  )
  (wire (pts (xy 236.22 132.08) (xy 238.76 132.08))
    (stroke (width 0) (type default))
    (uuid 3c4a3f25-7d17-4832-8c15-63c6234675d9)
  )
  (wire (pts (xy 73.66 43.18) (xy 77.47 43.18))
    (stroke (width 0) (type default))
    (uuid 3d0ed196-de3c-4c04-9272-597688b4cd33)
  )
  (wire (pts (xy 140.97 109.22) (xy 144.78 109.22))
    (stroke (width 0) (type default))
    (uuid 3d3012a4-6f9a-4680-ad7d-5f116f81ebc2)
  )
  (wire (pts (xy 237.49 46.99) (xy 237.49 55.88))
    (stroke (width 0) (type default))
    (uuid 3ee02817-a12d-4648-804e-242d6b00e1a1)
  )
  (wire (pts (xy 220.98 34.29) (xy 220.98 46.99))
    (stroke (width 0) (type default))
    (uuid 42958576-6749-4187-a96d-6dacf2a0e27f)
  )
  (wire (pts (xy 151.13 118.11) (xy 144.78 118.11))
    (stroke (width 0) (type default))
    (uuid 465f2ab0-0d26-4302-b508-62b3dae0ed1b)
  )
  (wire (pts (xy 219.71 99.06) (xy 219.71 111.76))
    (stroke (width 0) (type default))
    (uuid 474c73f4-41e4-4f76-b671-f06cd7f44374)
  )
  (wire (pts (xy 233.68 46.99) (xy 237.49 46.99))
    (stroke (width 0) (type default))
    (uuid 47ec15c3-00b9-4e8b-8272-2959e029ec9a)
  )
  (wire (pts (xy 256.54 45.72) (xy 256.54 55.88))
    (stroke (width 0) (type default))
    (uuid 49729c3c-b735-4266-be44-6c048fc7a834)
  )
  (wire (pts (xy 251.46 55.88) (xy 256.54 55.88))
    (stroke (width 0) (type default))
    (uuid 4a99e52f-dacb-4711-b429-aa8d4115cb3a)
  )
  (wire (pts (xy 55.88 69.85) (xy 55.88 73.66))
    (stroke (width 0) (type default))
    (uuid 4dff73b4-6e06-4e19-816d-2c358eca7c4b)
  )
  (wire (pts (xy 77.47 129.54) (xy 83.82 129.54))
    (stroke (width 0) (type default))
    (uuid 4e375ee2-8443-4c15-b53e-dca2ddc2c731)
  )
  (wire (pts (xy 243.84 45.72) (xy 237.49 45.72))
    (stroke (width 0) (type default))
    (uuid 4e63190b-ddf4-46d0-a618-8b33a49ef35f)
  )
  (wire (pts (xy 128.27 67.31) (xy 133.35 67.31))
    (stroke (width 0) (type default))
    (uuid 4f94a92b-84e3-4798-9575-ef44acc671b6)
  )
  (wire (pts (xy 243.84 55.88) (xy 237.49 55.88))
    (stroke (width 0) (type default))
    (uuid 52cfdcb7-7e22-42c2-a9b2-bfcd7c515260)
  )
  (wire (pts (xy 77.47 129.54) (xy 76.2 129.54))
    (stroke (width 0) (type default))
    (uuid 55c6fdbb-09c1-404b-8001-06c84c1c463d)
  )
  (wire (pts (xy 250.19 109.22) (xy 255.27 109.22))
    (stroke (width 0) (type default))
    (uuid 560d0289-cf9c-4bd6-b963-10de9431ed3a)
  )
  (wire (pts (xy 151.13 107.95) (xy 144.78 107.95))
    (stroke (width 0) (type default))
    (uuid 5a49c98c-edf7-4c14-a689-669ea9519a53)
  )
  (wire (pts (xy 242.57 109.22) (xy 236.22 109.22))
    (stroke (width 0) (type default))
    (uuid 5c8c7fa4-4617-4c52-a464-5d375760f34b)
  )
  (wire (pts (xy 59.69 105.41) (xy 59.69 106.68))
    (stroke (width 0) (type default))
    (uuid 5d546819-9a5b-4f43-88ba-6fe712c547e1)
  )
  (wire (pts (xy 163.83 69.85) (xy 162.56 69.85))
    (stroke (width 0) (type default))
    (uuid 5dc65855-d586-4ace-b1da-14752ff4f0fd)
  )
  (wire (pts (xy 233.68 137.16) (xy 233.68 140.97))
    (stroke (width 0) (type default))
    (uuid 5eec733f-7063-4c9d-aa3d-b706cb449ff3)
  )
  (wire (pts (xy 55.88 127) (xy 59.69 127))
    (stroke (width 0) (type default))
    (uuid 63c6ce77-1a9d-45e3-a4d5-6efc369f1c27)
  )
  (wire (pts (xy 144.78 129.54) (xy 147.32 129.54))
    (stroke (width 0) (type default))
    (uuid 6549874c-4ee3-4635-a460-2f33a1e061d2)
  )
  (wire (pts (xy 144.78 107.95) (xy 144.78 109.22))
    (stroke (width 0) (type default))
    (uuid 66c8c8d8-79f9-49a8-ad23-13f430fc4f52)
  )
  (wire (pts (xy 144.78 55.88) (xy 144.78 67.31))
    (stroke (width 0) (type default))
    (uuid 68479b40-1beb-4fab-adaa-3d878782886f)
  )
  (wire (pts (xy 237.49 67.31) (xy 240.03 67.31))
    (stroke (width 0) (type default))
    (uuid 6c60281e-c0c9-47c4-b895-1f41eb343db6)
  )
  (wire (pts (xy 144.78 45.72) (xy 144.78 46.99))
    (stroke (width 0) (type default))
    (uuid 6c87336f-04be-4551-ac77-5ada31331113)
  )
  (wire (pts (xy 144.78 109.22) (xy 144.78 118.11))
    (stroke (width 0) (type default))
    (uuid 6d37786a-6eb2-45c2-b8d2-80d26f646c52)
  )
  (wire (pts (xy 158.75 118.11) (xy 163.83 118.11))
    (stroke (width 0) (type default))
    (uuid 73d21991-5912-4573-b21d-dd04e7d5188a)
  )
  (wire (pts (xy 163.83 107.95) (xy 163.83 118.11))
    (stroke (width 0) (type default))
    (uuid 75965874-eb96-4d1f-aa0f-02db769cbb29)
  )
  (wire (pts (xy 59.69 44.45) (xy 59.69 53.34))
    (stroke (width 0) (type default))
    (uuid 77d3a5c4-4eb7-44cf-97a4-872ea6c33181)
  )
  (wire (pts (xy 226.06 46.99) (xy 220.98 46.99))
    (stroke (width 0) (type default))
    (uuid 7a704c7c-875b-4824-bd6c-7fc932dc503f)
  )
  (wire (pts (xy 73.66 105.41) (xy 77.47 105.41))
    (stroke (width 0) (type default))
    (uuid 7f3777c9-7e12-4236-b8b9-1c1f55b214e9)
  )
  (wire (pts (xy 151.13 55.88) (xy 144.78 55.88))
    (stroke (width 0) (type default))
    (uuid 82a3df19-1a99-4bbf-a269-be10e6d0d3ff)
  )
  (wire (pts (xy 55.88 132.08) (xy 55.88 135.89))
    (stroke (width 0) (type default))
    (uuid 84918011-daa8-4857-af43-8ac8bf616b92)
  )
  (wire (pts (xy 163.83 69.85) (xy 168.91 69.85))
    (stroke (width 0) (type default))
    (uuid 85ddd439-1e48-4b59-95ca-57b998d02029)
  )
  (wire (pts (xy 144.78 46.99) (xy 144.78 55.88))
    (stroke (width 0) (type default))
    (uuid 89e2d199-e659-47cd-b92c-0e915d0e67c9)
  )
  (wire (pts (xy 60.96 69.85) (xy 55.88 69.85))
    (stroke (width 0) (type default))
    (uuid 8b218155-b438-469a-98e9-9f72049a99e1)
  )
  (wire (pts (xy 55.88 106.68) (xy 59.69 106.68))
    (stroke (width 0) (type default))
    (uuid 8fd32e72-d68e-4f35-accf-e9b6113da0b9)
  )
  (wire (pts (xy 41.91 93.98) (xy 41.91 106.68))
    (stroke (width 0) (type default))
    (uuid 910985f5-d0cb-4496-8b84-b7b9bc776e9a)
  )
  (wire (pts (xy 133.35 109.22) (xy 128.27 109.22))
    (stroke (width 0) (type default))
    (uuid 9153a535-c419-421c-9d43-182ac9361b31)
  )
  (wire (pts (xy 158.75 107.95) (xy 163.83 107.95))
    (stroke (width 0) (type default))
    (uuid 9325b714-9a14-4cfb-a1e1-c1ae66fccfa5)
  )
  (wire (pts (xy 240.03 72.39) (xy 234.95 72.39))
    (stroke (width 0) (type default))
    (uuid 95da2b48-6a52-4522-b904-c4f68a05494d)
  )
  (wire (pts (xy 232.41 111.76) (xy 236.22 111.76))
    (stroke (width 0) (type default))
    (uuid 9a935b54-0d58-4d56-aa58-c6689b655b4f)
  )
  (wire (pts (xy 77.47 67.31) (xy 76.2 67.31))
    (stroke (width 0) (type default))
    (uuid 9cd53530-7d47-460e-b215-6953ee4141fa)
  )
  (wire (pts (xy 255.27 120.65) (xy 255.27 134.62))
    (stroke (width 0) (type default))
    (uuid a09475b5-795c-4495-8bfb-c6926049bbb0)
  )
  (wire (pts (xy 215.9 132.08) (xy 224.79 132.08))
    (stroke (width 0) (type default))
    (uuid a1521ca8-ec4f-492d-9549-fc84ef124922)
  )
  (wire (pts (xy 142.24 134.62) (xy 142.24 138.43))
    (stroke (width 0) (type default))
    (uuid a229b9f6-ba60-4e18-b391-486d8fc1986f)
  )
  (wire (pts (xy 163.83 118.11) (xy 163.83 132.08))
    (stroke (width 0) (type default))
    (uuid a6cb6c8a-3a11-46fd-87a0-d2f8087a375f)
  )
  (wire (pts (xy 48.26 106.68) (xy 41.91 106.68))
    (stroke (width 0) (type default))
    (uuid a6fc32cf-fd99-451a-95b8-68db83ed99c7)
  )
  (wire (pts (xy 140.97 129.54) (xy 144.78 129.54))
    (stroke (width 0) (type default))
    (uuid a8e3b321-d96f-4620-8450-f555c213d4f4)
  )
  (wire (pts (xy 238.76 137.16) (xy 233.68 137.16))
    (stroke (width 0) (type default))
    (uuid a9063325-eb2c-463c-818b-2d3dc3ae95ba)
  )
  (wire (pts (xy 232.41 132.08) (xy 236.22 132.08))
    (stroke (width 0) (type default))
    (uuid aae9370b-c615-4ddf-bd5b-dedb9dfb2980)
  )
  (wire (pts (xy 128.27 96.52) (xy 128.27 109.22))
    (stroke (width 0) (type default))
    (uuid b582d68b-4554-4b18-81ae-ae22643453f4)
  )
  (wire (pts (xy 237.49 45.72) (xy 237.49 46.99))
    (stroke (width 0) (type default))
    (uuid b910775a-2ab9-4bbf-8f91-02167ef86256)
  )
  (wire (pts (xy 40.64 64.77) (xy 48.26 64.77))
    (stroke (width 0) (type default))
    (uuid bea593a7-22e3-4bdd-9544-c99fed645a59)
  )
  (wire (pts (xy 144.78 118.11) (xy 144.78 129.54))
    (stroke (width 0) (type default))
    (uuid c5893dba-75f6-479c-aaa8-e2c50221b867)
  )
  (wire (pts (xy 77.47 115.57) (xy 77.47 129.54))
    (stroke (width 0) (type default))
    (uuid c63a8e59-9d8b-4cbd-af6e-e6f20903ef86)
  )
  (wire (pts (xy 66.04 115.57) (xy 59.69 115.57))
    (stroke (width 0) (type default))
    (uuid c7932d25-537d-4091-b9c2-a7ea6bcb8ef7)
  )
  (wire (pts (xy 73.66 53.34) (xy 77.47 53.34))
    (stroke (width 0) (type default))
    (uuid cbb6176d-fd1c-44ea-8448-15e75ed6a789)
  )
  (wire (pts (xy 256.54 69.85) (xy 261.62 69.85))
    (stroke (width 0) (type default))
    (uuid cccd2867-1435-42ff-91fd-da4698f91502)
  )
  (wire (pts (xy 255.27 109.22) (xy 255.27 120.65))
    (stroke (width 0) (type default))
    (uuid cdf5be86-a9a0-4995-a8ef-4ad6dd445e85)
  )
  (wire (pts (xy 77.47 67.31) (xy 83.82 67.31))
    (stroke (width 0) (type default))
    (uuid d483cc91-98e7-4bc3-a7b7-66807e27c8bf)
  )
  (wire (pts (xy 163.83 45.72) (xy 163.83 55.88))
    (stroke (width 0) (type default))
    (uuid d5999bcb-0b05-42cb-9558-6bc89055794e)
  )
  (wire (pts (xy 163.83 55.88) (xy 163.83 69.85))
    (stroke (width 0) (type default))
    (uuid d82247d7-a70c-4f06-be9a-be02c9b3801c)
  )
  (wire (pts (xy 163.83 132.08) (xy 162.56 132.08))
    (stroke (width 0) (type default))
    (uuid dbc2af19-c55a-4678-9ae2-04cbb5f43e57)
  )
  (wire (pts (xy 55.88 44.45) (xy 59.69 44.45))
    (stroke (width 0) (type default))
    (uuid e0781858-ca96-4fb7-be0d-4fc00656c1ec)
  )
  (wire (pts (xy 59.69 127) (xy 60.96 127))
    (stroke (width 0) (type default))
    (uuid e140590e-d21e-4e47-9f3a-f35a5028b347)
  )
  (wire (pts (xy 236.22 111.76) (xy 236.22 120.65))
    (stroke (width 0) (type default))
    (uuid edf79f68-5869-4778-85ac-eff7bddc4365)
  )
  (wire (pts (xy 224.79 111.76) (xy 219.71 111.76))
    (stroke (width 0) (type default))
    (uuid eec5c68d-6e01-4445-bcd1-b2402a56b52f)
  )
  (wire (pts (xy 256.54 69.85) (xy 255.27 69.85))
    (stroke (width 0) (type default))
    (uuid eec61d47-9726-4d17-85dd-ffb63afdb86a)
  )
  (wire (pts (xy 66.04 43.18) (xy 59.69 43.18))
    (stroke (width 0) (type default))
    (uuid f042b326-dab8-4b9c-95e6-91b3f019d6cd)
  )
  (wire (pts (xy 236.22 109.22) (xy 236.22 111.76))
    (stroke (width 0) (type default))
    (uuid f0d9956c-a6eb-42fe-8d84-26e630e57e69)
  )
  (wire (pts (xy 251.46 45.72) (xy 256.54 45.72))
    (stroke (width 0) (type default))
    (uuid f0e83eb4-0862-4d4c-bb76-e1161d350bc7)
  )
  (wire (pts (xy 147.32 134.62) (xy 142.24 134.62))
    (stroke (width 0) (type default))
    (uuid f30d8be4-54cd-4fa3-973e-fe56b3a88b99)
  )
  (wire (pts (xy 59.69 53.34) (xy 59.69 64.77))
    (stroke (width 0) (type default))
    (uuid f39fba90-604b-4a09-9ce8-c5aec0b73e3f)
  )
  (wire (pts (xy 140.97 46.99) (xy 144.78 46.99))
    (stroke (width 0) (type default))
    (uuid f64c19e8-2e07-498d-ae8c-18b32d53751a)
  )
  (wire (pts (xy 128.27 129.54) (xy 133.35 129.54))
    (stroke (width 0) (type default))
    (uuid f8f327fc-dec3-4576-9c5d-f3366ac11e14)
  )
  (wire (pts (xy 250.19 120.65) (xy 255.27 120.65))
    (stroke (width 0) (type default))
    (uuid f96763f4-3953-4177-81c5-778114cc5d87)
  )
  (wire (pts (xy 144.78 67.31) (xy 147.32 67.31))
    (stroke (width 0) (type default))
    (uuid fa96bfa8-f676-4913-9794-d12e00ce5cb6)
  )
  (wire (pts (xy 234.95 72.39) (xy 234.95 76.2))
    (stroke (width 0) (type default))
    (uuid fb8e9682-b599-4037-9da1-341b6f0471a9)
  )
  (wire (pts (xy 59.69 43.18) (xy 59.69 44.45))
    (stroke (width 0) (type default))
    (uuid fc1ff48c-c536-4f63-a9db-45b9a7bd9e22)
  )
  (wire (pts (xy 133.35 46.99) (xy 128.27 46.99))
    (stroke (width 0) (type default))
    (uuid fc25580b-d102-4392-ba3f-20d91a0d2714)
  )

  (text "while we could just do all of the scaling and \nsumming using one opamp, we might not have the input\nimpedance we would want, so we actually need to have\none TL07x for scale, with 100k input impedance,\nand then the MCP600x (connected to 3.3v and GND)\nto do the summing...gahhh"
    (at 306.705 20.955 0)
    (effects (font (size 1.27 1.27)) (justify left bottom))
    (uuid 02cc3103-f352-462d-97d0-1aded8e10554)
  )
  (text "Assume -5V to 5V range for CV" (at 108.585 73.025 0)
    (effects (font (size 1.27 1.27)) (justify left bottom))
    (uuid 215465ac-f154-4cd6-8d61-ea7cd0565c9c)
  )
  (text "if we assume unipolar LFOs, and 0-5V\nrange, then we don't need any of these opamps,\nwe just need a voltage divider and lots of\nschottky diodes"
    (at 15.875 7.62 0)
    (effects (font (size 1.27 1.27)) (justify left bottom))
    (uuid 2ae15144-812c-42ad-8f9e-961cc3921bc0)
  )
  (text "Make it so that you have an MCP6004\nand a MCP6002 for each pair of waveforms,\nthat way we don't have so long of traces across the board."
    (at 264.16 50.8 0)
    (effects (font (size 1.27 1.27)) (justify left bottom))
    (uuid 341a96b8-e89c-4958-82e8-704ca47819ab)
  )
  (text "but wait a minute, let's say V/oct is going to be\nfrom 0 to say 8, for 8 octave range, so then we need a different\nvoltage divider setup. but then for the WF and MOD inputs\nwe maybe want -5 to 5? Then that also requires some adjustments."
    (at 95.885 5.08 0)
    (effects (font (size 1.27 1.27)) (justify left bottom))
    (uuid 36efc5f4-142f-408a-96e0-3caea755b79b)
  )
  (text "Assume -5V to 5V range for CV" (at 198.755 71.755 0)
    (effects (font (size 1.27 1.27)) (justify left bottom))
    (uuid 3dd6b52c-e550-4733-94ca-990c230912d7)
  )
  (text "Assume -5V to 5V range for CV" (at 195.961 135.89 0)
    (effects (font (size 1.27 1.27)) (justify left bottom))
    (uuid 3e932178-19ca-48cf-a2c2-c799b8be275f)
  )
  (text "okay, hmm, i need to think about this more.\nalso look at the braids schematic. use an\nMCP6004 at certain stages? and have the pot be there\nas a summing offset as well? that seems to be\nwhat she does."
    (at 232.41 6.985 0)
    (effects (font (size 1.27 1.27)) (justify left bottom))
    (uuid 4642d4a7-f765-4103-8936-3f1efda17cee)
  )
  (text "and then, if we want the pots to be attenuators as well,\nwe need to readjust the circuits as well."
    (at 171.45 1.27 0)
    (effects (font (size 1.27 1.27)) (justify left bottom))
    (uuid 8c40d7f0-1d88-4091-a125-0ec6e5f655db)
  )
  (text "Assume -5V to 5V range for CV" (at 20.32 131.445 0)
    (effects (font (size 1.27 1.27)) (justify left bottom))
    (uuid c2f0b3c5-0486-4f3a-a722-07d731f399bf)
  )
  (text "can test this a bit with 68k and 220k\nand 68k and 470k...not perfect, but might\nbe enough on wednesday to see if the idea\nworks until i get the 33k resistors\n"
    (at 308.61 122.682 0)
    (effects (font (size 1.27 1.27)) (justify left bottom))
    (uuid e9b05b56-48f5-4565-9c4b-b3083d90dbfb)
  )
  (text "-1.5V to 5.5V" (at 35.052 71.374 0)
    (effects (font (size 1.27 1.27)) (justify left bottom))
    (uuid ea54330e-b734-4812-b954-a6f51e9feba2)
  )
  (text "-1.5V to 5.5V" (at 114.808 136.144 0)
    (effects (font (size 1.27 1.27)) (justify left bottom))
    (uuid f663f41f-cfda-4578-8563-511b6177912f)
  )

  (global_label "AREF-10" (shape input) (at 128.27 96.52 90) (fields_autoplaced)
    (effects (font (size 1.27 1.27)) (justify left))
    (uuid 011263ad-e1ae-4069-85d3-c2387ef9adaf)
    (property "Intersheetrefs" "${INTERSHEET_REFS}" (at 128.27 85.0266 90)
      (effects (font (size 1.27 1.27)) (justify left) hide)
    )
  )
  (global_label "AREF-10" (shape input) (at 128.27 34.29 90) (fields_autoplaced)
    (effects (font (size 1.27 1.27)) (justify left))
    (uuid 0726e8ff-183f-4b45-a2e3-fcd09b93f755)
    (property "Intersheetrefs" "${INTERSHEET_REFS}" (at 128.27 22.7966 90)
      (effects (font (size 1.27 1.27)) (justify left) hide)
    )
  )
  (global_label "WAVE001_WF_CV_ADC" (shape input) (at 83.82 129.54 0) (fields_autoplaced)
    (effects (font (size 1.27 1.27)) (justify left))
    (uuid 0c6b46b8-36c1-4e24-a8b4-833dd3fac650)
    (property "Intersheetrefs" "${INTERSHEET_REFS}" (at 106.5619 129.54 0)
      (effects (font (size 1.27 1.27)) (justify left) hide)
    )
  )
  (global_label "AREF-10" (shape input) (at 219.71 99.06 90) (fields_autoplaced)
    (effects (font (size 1.27 1.27)) (justify left))
    (uuid 3206d717-b4e7-45cd-a2a9-e74b585db717)
    (property "Intersheetrefs" "${INTERSHEET_REFS}" (at 219.71 87.5666 90)
      (effects (font (size 1.27 1.27)) (justify left) hide)
    )
  )
  (global_label "WAVE002_WF_CV_ADC" (shape input) (at 261.62 69.85 0) (fields_autoplaced)
    (effects (font (size 1.27 1.27)) (justify left))
    (uuid 57de2f42-5b69-46ae-a401-31a3101d75ed)
    (property "Intersheetrefs" "${INTERSHEET_REFS}" (at 284.3619 69.85 0)
      (effects (font (size 1.27 1.27)) (justify left) hide)
    )
  )
  (global_label "WAVE002_MOD_CV" (shape input) (at 215.9 132.08 180) (fields_autoplaced)
    (effects (font (size 1.27 1.27)) (justify right))
    (uuid 5debc688-a6d3-4bbc-9aca-2643ac1d2906)
    (property "Intersheetrefs" "${INTERSHEET_REFS}" (at 196.2424 132.08 0)
      (effects (font (size 1.27 1.27)) (justify right) hide)
    )
  )
  (global_label "WAVE001_MOD_CV" (shape input) (at 128.27 67.31 180) (fields_autoplaced)
    (effects (font (size 1.27 1.27)) (justify right))
    (uuid 6196fa85-48f2-4cb3-8199-98f5c7acb18f)
    (property "Intersheetrefs" "${INTERSHEET_REFS}" (at 108.6124 67.31 0)
      (effects (font (size 1.27 1.27)) (justify right) hide)
    )
  )
  (global_label "AREF-10" (shape input) (at 220.98 34.29 90) (fields_autoplaced)
    (effects (font (size 1.27 1.27)) (justify left))
    (uuid 77a69f42-1ac2-41f0-92d3-f70a14f2987a)
    (property "Intersheetrefs" "${INTERSHEET_REFS}" (at 220.98 22.7966 90)
      (effects (font (size 1.27 1.27)) (justify left) hide)
    )
  )
  (global_label "WAVE001_WF_CV" (shape input) (at 38.1 127 180) (fields_autoplaced)
    (effects (font (size 1.27 1.27)) (justify right))
    (uuid 7b80211b-9e3a-449e-b840-e975c662c4b3)
    (property "Intersheetrefs" "${INTERSHEET_REFS}" (at 19.9543 127 0)
      (effects (font (size 1.27 1.27)) (justify right) hide)
    )
  )
  (global_label "WAVE002_WF_CV" (shape input) (at 217.17 67.31 180) (fields_autoplaced)
    (effects (font (size 1.27 1.27)) (justify right))
    (uuid aa7acb51-2479-4adc-8099-5ae5c86768b8)
    (property "Intersheetrefs" "${INTERSHEET_REFS}" (at 199.0243 67.31 0)
      (effects (font (size 1.27 1.27)) (justify right) hide)
    )
  )
  (global_label "WAVE002_VOCT_CV" (shape input) (at 128.27 129.54 180) (fields_autoplaced)
    (effects (font (size 1.27 1.27)) (justify right))
    (uuid ba65bf5b-411f-4ddc-9b6c-9de3e09e02ad)
    (property "Intersheetrefs" "${INTERSHEET_REFS}" (at 108.0076 129.54 0)
      (effects (font (size 1.27 1.27)) (justify right) hide)
    )
  )
  (global_label "WAVE001_VOCT_CV_ADC" (shape input) (at 83.82 67.31 0) (fields_autoplaced)
    (effects (font (size 1.27 1.27)) (justify left))
    (uuid c6d2b7ab-6000-4712-b711-ca952a8a1fc6)
    (property "Intersheetrefs" "${INTERSHEET_REFS}" (at 108.6786 67.31 0)
      (effects (font (size 1.27 1.27)) (justify left) hide)
    )
  )
  (global_label "WAVE002_VOCT_CV_ADC" (shape input) (at 168.91 132.08 0) (fields_autoplaced)
    (effects (font (size 1.27 1.27)) (justify left))
    (uuid d1b8a2ef-7e3d-4339-8944-6498a805ace8)
    (property "Intersheetrefs" "${INTERSHEET_REFS}" (at 193.7686 132.08 0)
      (effects (font (size 1.27 1.27)) (justify left) hide)
    )
  )
  (global_label "WAVE002_MOD_CV_ADC" (shape input) (at 260.35 134.62 0) (fields_autoplaced)
    (effects (font (size 1.27 1.27)) (justify left))
    (uuid e4a2ba40-7cd1-4d1e-a595-3bd9b2e9982f)
    (property "Intersheetrefs" "${INTERSHEET_REFS}" (at 284.6038 134.62 0)
      (effects (font (size 1.27 1.27)) (justify left) hide)
    )
  )
  (global_label "AREF-10" (shape input) (at 41.91 93.98 90) (fields_autoplaced)
    (effects (font (size 1.27 1.27)) (justify left))
    (uuid e80565ab-8279-41db-b3a4-c735f7fbdd66)
    (property "Intersheetrefs" "${INTERSHEET_REFS}" (at 41.91 82.4866 90)
      (effects (font (size 1.27 1.27)) (justify left) hide)
    )
  )
  (global_label "WAVE001_MOD_CV_ADC" (shape input) (at 168.91 69.85 0) (fields_autoplaced)
    (effects (font (size 1.27 1.27)) (justify left))
    (uuid ecc78f2f-9cb7-4255-9cfc-24baa131243a)
    (property "Intersheetrefs" "${INTERSHEET_REFS}" (at 193.1638 69.85 0)
      (effects (font (size 1.27 1.27)) (justify left) hide)
    )
  )
  (global_label "AREF-10" (shape input) (at 41.91 31.75 90) (fields_autoplaced)
    (effects (font (size 1.27 1.27)) (justify left))
    (uuid efe19c01-9e39-41e7-9604-dbd436de8e39)
    (property "Intersheetrefs" "${INTERSHEET_REFS}" (at 41.91 20.2566 90)
      (effects (font (size 1.27 1.27)) (justify left) hide)
    )
  )
  (global_label "WAVE001_VOCT_CV" (shape input) (at 40.64 64.77 180) (fields_autoplaced)
    (effects (font (size 1.27 1.27)) (justify right))
    (uuid ff2cfa8c-708f-4ad9-b839-65943ae4c938)
    (property "Intersheetrefs" "${INTERSHEET_REFS}" (at 20.3776 64.77 0)
      (effects (font (size 1.27 1.27)) (justify right) hide)
    )
  )

  (symbol (lib_id "power:GND") (at 142.24 138.43 0) (unit 1)
    (in_bom yes) (on_board yes) (dnp no) (fields_autoplaced)
    (uuid 0179d7a5-d781-4822-89ed-b369c5aadec2)
    (property "Reference" "#PWR038" (at 142.24 144.78 0)
      (effects (font (size 1.27 1.27)) hide)
    )
    (property "Value" "GND" (at 142.24 142.875 0)
      (effects (font (size 1.27 1.27)))
    )
    (property "Footprint" "" (at 142.24 138.43 0)
      (effects (font (size 1.27 1.27)) hide)
    )
    (property "Datasheet" "" (at 142.24 138.43 0)
      (effects (font (size 1.27 1.27)) hide)
    )
    (pin "1" (uuid 8f8c2e24-1ec3-40d1-ae72-54dd363dfdc1))
    (instances
      (project "W4VES"
        (path "/dad1536b-7795-4ed1-9570-288544778227/19362143-b198-419a-b9f3-98a7f5be8f5e"
          (reference "#PWR038") (unit 1)
        )
      )
    )
  )

  (symbol (lib_id "Device:R") (at 247.65 55.88 90) (unit 1)
    (in_bom yes) (on_board yes) (dnp no) (fields_autoplaced)
    (uuid 060f4897-329b-42df-adde-df69d89a2c25)
    (property "Reference" "R19" (at 247.65 50.8 90)
      (effects (font (size 1.27 1.27)))
    )
    (property "Value" "33k" (at 247.65 53.34 90)
      (effects (font (size 1.27 1.27)))
    )
    (property "Footprint" "Resistor_SMD:R_0805_2012Metric_Pad1.20x1.40mm_HandSolder" (at 247.65 57.658 90)
      (effects (font (size 1.27 1.27)) hide)
    )
    (property "Datasheet" "~" (at 247.65 55.88 0)
      (effects (font (size 1.27 1.27)) hide)
    )
    (pin "1" (uuid 7bd47e08-7104-4e00-b11f-2e1d66cccf9f))
    (pin "2" (uuid 83a97dc6-f793-4f87-bb25-a2f1e8944a1b))
    (instances
      (project "W4VES"
        (path "/dad1536b-7795-4ed1-9570-288544778227/19362143-b198-419a-b9f3-98a7f5be8f5e"
          (reference "R19") (unit 1)
        )
      )
    )
  )

  (symbol (lib_id "power:GND") (at 55.88 135.89 0) (unit 1)
    (in_bom yes) (on_board yes) (dnp no) (fields_autoplaced)
    (uuid 1043382e-d041-4642-be4e-a9d89273bdeb)
    (property "Reference" "#PWR036" (at 55.88 142.24 0)
      (effects (font (size 1.27 1.27)) hide)
    )
    (property "Value" "GND" (at 55.88 140.335 0)
      (effects (font (size 1.27 1.27)))
    )
    (property "Footprint" "" (at 55.88 135.89 0)
      (effects (font (size 1.27 1.27)) hide)
    )
    (property "Datasheet" "" (at 55.88 135.89 0)
      (effects (font (size 1.27 1.27)) hide)
    )
    (pin "1" (uuid 588e1f7f-3bcd-41c2-ad39-603e20a90f08))
    (instances
      (project "W4VES"
        (path "/dad1536b-7795-4ed1-9570-288544778227/19362143-b198-419a-b9f3-98a7f5be8f5e"
          (reference "#PWR036") (unit 1)
        )
      )
    )
  )

  (symbol (lib_id "Device:R") (at 52.07 127 90) (unit 1)
    (in_bom yes) (on_board yes) (dnp no) (fields_autoplaced)
    (uuid 20b33d7b-0d7c-4607-80ca-930dd12ef9f3)
    (property "Reference" "R5" (at 52.07 121.92 90)
      (effects (font (size 1.27 1.27)))
    )
    (property "Value" "100k" (at 52.07 124.46 90)
      (effects (font (size 1.27 1.27)))
    )
    (property "Footprint" "Resistor_SMD:R_0805_2012Metric_Pad1.20x1.40mm_HandSolder" (at 52.07 128.778 90)
      (effects (font (size 1.27 1.27)) hide)
    )
    (property "Datasheet" "~" (at 52.07 127 0)
      (effects (font (size 1.27 1.27)) hide)
    )
    (pin "1" (uuid 28d00935-ce64-44ab-88a6-32e3f9aadf17))
    (pin "2" (uuid 02b65369-3b74-49ef-8e32-e82564160195))
    (instances
      (project "W4VES"
        (path "/dad1536b-7795-4ed1-9570-288544778227/19362143-b198-419a-b9f3-98a7f5be8f5e"
          (reference "R5") (unit 1)
        )
      )
    )
  )

  (symbol (lib_id "Device:R") (at 228.6 132.08 90) (unit 1)
    (in_bom yes) (on_board yes) (dnp no) (fields_autoplaced)
    (uuid 22d2b9d7-9946-4ea3-8540-569a09330593)
    (property "Reference" "R15" (at 228.6 127 90)
      (effects (font (size 1.27 1.27)))
    )
    (property "Value" "100k" (at 228.6 129.54 90)
      (effects (font (size 1.27 1.27)))
    )
    (property "Footprint" "Resistor_SMD:R_0805_2012Metric_Pad1.20x1.40mm_HandSolder" (at 228.6 133.858 90)
      (effects (font (size 1.27 1.27)) hide)
    )
    (property "Datasheet" "~" (at 228.6 132.08 0)
      (effects (font (size 1.27 1.27)) hide)
    )
    (pin "1" (uuid e40ad8ae-6042-4ace-a0ba-a7fad1ee3f88))
    (pin "2" (uuid 5e31e682-d37e-4ce7-b9c1-ef589a1b29dc))
    (instances
      (project "W4VES"
        (path "/dad1536b-7795-4ed1-9570-288544778227/19362143-b198-419a-b9f3-98a7f5be8f5e"
          (reference "R15") (unit 1)
        )
      )
    )
  )

  (symbol (lib_id "Device:R") (at 137.16 46.99 90) (unit 1)
    (in_bom yes) (on_board yes) (dnp no) (fields_autoplaced)
    (uuid 2eb807e2-ebe8-47a1-823e-c2e818bc8e5b)
    (property "Reference" "R8" (at 137.16 41.91 90)
      (effects (font (size 1.27 1.27)))
    )
    (property "Value" "200k" (at 137.16 44.45 90)
      (effects (font (size 1.27 1.27)))
    )
    (property "Footprint" "Resistor_SMD:R_0805_2012Metric_Pad1.20x1.40mm_HandSolder" (at 137.16 48.768 90)
      (effects (font (size 1.27 1.27)) hide)
    )
    (property "Datasheet" "~" (at 137.16 46.99 0)
      (effects (font (size 1.27 1.27)) hide)
    )
    (pin "1" (uuid f89b2fc1-8253-4263-8765-c439189e8240))
    (pin "2" (uuid 6fd1d5d7-180a-4f81-8330-5d797329f710))
    (instances
      (project "W4VES"
        (path "/dad1536b-7795-4ed1-9570-288544778227/19362143-b198-419a-b9f3-98a7f5be8f5e"
          (reference "R8") (unit 1)
        )
      )
    )
  )

  (symbol (lib_id "Device:R") (at 52.07 44.45 90) (unit 1)
    (in_bom yes) (on_board yes) (dnp no) (fields_autoplaced)
    (uuid 30401514-1559-478b-85f7-c6cf8b95e2a6)
    (property "Reference" "R2" (at 52.07 39.37 90)
      (effects (font (size 1.27 1.27)))
    )
    (property "Value" "180k" (at 52.07 41.91 90)
      (effects (font (size 1.27 1.27)))
    )
    (property "Footprint" "Resistor_SMD:R_0805_2012Metric_Pad1.20x1.40mm_HandSolder" (at 52.07 46.228 90)
      (effects (font (size 1.27 1.27)) hide)
    )
    (property "Datasheet" "~" (at 52.07 44.45 0)
      (effects (font (size 1.27 1.27)) hide)
    )
    (pin "1" (uuid 438062d2-aa89-4ace-8895-4fd4b2cea466))
    (pin "2" (uuid ef08cec7-b459-4dfc-aee8-d5c2d36ea742))
    (instances
      (project "W4VES"
        (path "/dad1536b-7795-4ed1-9570-288544778227/19362143-b198-419a-b9f3-98a7f5be8f5e"
          (reference "R2") (unit 1)
        )
      )
    )
  )

  (symbol (lib_id "Device:R") (at 69.85 115.57 90) (unit 1)
    (in_bom yes) (on_board yes) (dnp no) (fields_autoplaced)
    (uuid 314c8b49-077e-4846-8949-98eee208fc9f)
    (property "Reference" "R7" (at 69.85 110.49 90)
      (effects (font (size 1.27 1.27)))
    )
    (property "Value" "33k" (at 69.85 113.03 90)
      (effects (font (size 1.27 1.27)))
    )
    (property "Footprint" "Resistor_SMD:R_0805_2012Metric_Pad1.20x1.40mm_HandSolder" (at 69.85 117.348 90)
      (effects (font (size 1.27 1.27)) hide)
    )
    (property "Datasheet" "~" (at 69.85 115.57 0)
      (effects (font (size 1.27 1.27)) hide)
    )
    (pin "1" (uuid 13e4a24c-5757-4d26-93fa-34e0df7e0453))
    (pin "2" (uuid b47fcc31-9fbe-42f0-8a38-6c2aeb5367bb))
    (instances
      (project "W4VES"
        (path "/dad1536b-7795-4ed1-9570-288544778227/19362143-b198-419a-b9f3-98a7f5be8f5e"
          (reference "R7") (unit 1)
        )
      )
    )
  )

  (symbol (lib_id "Amplifier_Operational:MCP6002-xSN") (at 246.38 134.62 0) (mirror x) (unit 2)
    (in_bom yes) (on_board yes) (dnp no) (fields_autoplaced)
    (uuid 32beb3de-7503-4015-9726-307018106304)
    (property "Reference" "U15" (at 246.38 125.73 0)
      (effects (font (size 1.27 1.27)))
    )
    (property "Value" "MCP6002-xSN" (at 246.38 128.27 0)
      (effects (font (size 1.27 1.27)))
    )
    (property "Footprint" "Package_SO:SOIC-8_3.9x4.9mm_P1.27mm" (at 246.38 134.62 0)
      (effects (font (size 1.27 1.27)) hide)
    )
    (property "Datasheet" "http://ww1.microchip.com/downloads/en/DeviceDoc/21733j.pdf" (at 246.38 134.62 0)
      (effects (font (size 1.27 1.27)) hide)
    )
    (pin "1" (uuid cf0aac4d-e67a-4444-828e-359e7f1d8e53))
    (pin "2" (uuid f493d6a9-83cc-4ff4-b4f1-0cc78868dc77))
    (pin "3" (uuid fa0989af-50f3-4ee9-8a14-7fce9c09b411))
    (pin "5" (uuid 9f9f7079-cfdf-44e4-9b9d-a1aeb2f9e68b))
    (pin "6" (uuid eb8eab80-d80e-445b-b3a1-19d79c8082d8))
    (pin "7" (uuid 17e1d6e7-e1dc-4fb9-98f5-20518866eca6))
    (pin "4" (uuid b788abba-2fd6-4144-986f-5a04ea865ff7))
    (pin "8" (uuid 90cf0acc-0333-4ec9-a527-7a892cd6c3b9))
    (instances
      (project "W4VES"
        (path "/dad1536b-7795-4ed1-9570-288544778227/19362143-b198-419a-b9f3-98a7f5be8f5e"
          (reference "U15") (unit 2)
        )
      )
    )
  )

  (symbol (lib_id "Amplifier_Operational:MCP6004") (at 68.58 67.31 0) (mirror x) (unit 1)
    (in_bom yes) (on_board yes) (dnp no) (fields_autoplaced)
    (uuid 4111d283-c9f4-4466-baaf-e74f6982cf5b)
    (property "Reference" "U4" (at 68.58 58.42 0)
      (effects (font (size 1.27 1.27)))
    )
    (property "Value" "MCP6004" (at 68.58 60.96 0)
      (effects (font (size 1.27 1.27)))
    )
    (property "Footprint" "Package_SO:SOIC-14_3.9x8.7mm_P1.27mm" (at 67.31 69.85 0)
      (effects (font (size 1.27 1.27)) hide)
    )
    (property "Datasheet" "http://ww1.microchip.com/downloads/en/DeviceDoc/21733j.pdf" (at 69.85 72.39 0)
      (effects (font (size 1.27 1.27)) hide)
    )
    (pin "1" (uuid 590677af-175c-4a09-b892-4cd9716ccb44))
    (pin "2" (uuid 54dfc510-ffde-4ccf-8d58-b8b1b644036c))
    (pin "3" (uuid 664d0f4b-4238-4452-a2c1-e0293820f025))
    (pin "5" (uuid fd46d4aa-2022-4dc9-a07c-44b2b4afb26c))
    (pin "6" (uuid 7bda48f4-64a0-40fd-922d-dfb2cd702ae2))
    (pin "7" (uuid 9162aa99-2033-4eb3-8633-2690d0a54629))
    (pin "10" (uuid 0bff90b2-30fe-44bb-a2f5-579ada9aa561))
    (pin "8" (uuid 9b1564f2-0e86-4237-88e1-66097c306aa7))
    (pin "9" (uuid 0b3653ec-fd5d-44f0-9a1b-324d915c3e3f))
    (pin "12" (uuid 286d929a-7538-4032-8188-f34beb41ac03))
    (pin "13" (uuid 92d3087c-d14b-4faf-838b-2194b76a7d4b))
    (pin "14" (uuid 385d5d73-5f6c-48b1-ac65-61dcdadac971))
    (pin "11" (uuid b8a65c96-56fb-4227-9939-8ced1608e77a))
    (pin "4" (uuid 7922377d-e0bb-44d2-a06d-1bbf28def4f1))
    (instances
      (project "W4VES"
        (path "/dad1536b-7795-4ed1-9570-288544778227/19362143-b198-419a-b9f3-98a7f5be8f5e"
          (reference "U4") (unit 1)
        )
      )
    )
  )

  (symbol (lib_id "Device:C") (at 154.94 107.95 90) (unit 1)
    (in_bom yes) (on_board yes) (dnp no) (fields_autoplaced)
    (uuid 43483bcd-491f-46d6-a104-fc923fe4dea9)
    (property "Reference" "C22" (at 154.94 101.6 90)
      (effects (font (size 1.27 1.27)))
    )
    (property "Value" "1n" (at 154.94 104.14 90)
      (effects (font (size 1.27 1.27)))
    )
    (property "Footprint" "Capacitor_SMD:C_0805_2012Metric_Pad1.18x1.45mm_HandSolder" (at 158.75 106.9848 0)
      (effects (font (size 1.27 1.27)) hide)
    )
    (property "Datasheet" "~" (at 154.94 107.95 0)
      (effects (font (size 1.27 1.27)) hide)
    )
    (pin "1" (uuid 95403a2d-f85c-4147-b7ae-1ae3ce653ca6))
    (pin "2" (uuid 9341c84d-e113-4151-ad75-277b50959cf5))
    (instances
      (project "W4VES"
        (path "/dad1536b-7795-4ed1-9570-288544778227/19362143-b198-419a-b9f3-98a7f5be8f5e"
          (reference "C22") (unit 1)
        )
      )
    )
  )

  (symbol (lib_id "Device:R") (at 137.16 67.31 90) (unit 1)
    (in_bom yes) (on_board yes) (dnp no) (fields_autoplaced)
    (uuid 4be58e1b-1000-40c6-945c-d17e49656c27)
    (property "Reference" "R9" (at 137.16 62.23 90)
      (effects (font (size 1.27 1.27)))
    )
    (property "Value" "100k" (at 137.16 64.77 90)
      (effects (font (size 1.27 1.27)))
    )
    (property "Footprint" "Resistor_SMD:R_0805_2012Metric_Pad1.20x1.40mm_HandSolder" (at 137.16 69.088 90)
      (effects (font (size 1.27 1.27)) hide)
    )
    (property "Datasheet" "~" (at 137.16 67.31 0)
      (effects (font (size 1.27 1.27)) hide)
    )
    (pin "1" (uuid e318c091-db18-4bae-a24b-1e1fee850fa0))
    (pin "2" (uuid 478d5f2c-a1ed-4239-90c3-694eb451b3ae))
    (instances
      (project "W4VES"
        (path "/dad1536b-7795-4ed1-9570-288544778227/19362143-b198-419a-b9f3-98a7f5be8f5e"
          (reference "R9") (unit 1)
        )
      )
    )
  )

  (symbol (lib_id "Device:R") (at 52.07 106.68 90) (unit 1)
    (in_bom yes) (on_board yes) (dnp no) (fields_autoplaced)
    (uuid 572e2cc7-b1c1-4199-896b-849afb2f7f74)
    (property "Reference" "R4" (at 52.07 101.6 90)
      (effects (font (size 1.27 1.27)))
    )
    (property "Value" "200k" (at 52.07 104.14 90)
      (effects (font (size 1.27 1.27)))
    )
    (property "Footprint" "Resistor_SMD:R_0805_2012Metric_Pad1.20x1.40mm_HandSolder" (at 52.07 108.458 90)
      (effects (font (size 1.27 1.27)) hide)
    )
    (property "Datasheet" "~" (at 52.07 106.68 0)
      (effects (font (size 1.27 1.27)) hide)
    )
    (pin "1" (uuid efc7fb36-953e-41b5-8358-f51df663a7c5))
    (pin "2" (uuid fb6bf135-205c-439c-a801-91e6a5e049e6))
    (instances
      (project "W4VES"
        (path "/dad1536b-7795-4ed1-9570-288544778227/19362143-b198-419a-b9f3-98a7f5be8f5e"
          (reference "R4") (unit 1)
        )
      )
    )
  )

  (symbol (lib_id "Device:R") (at 154.94 118.11 90) (unit 1)
    (in_bom yes) (on_board yes) (dnp no) (fields_autoplaced)
    (uuid 5cd33047-6c32-4721-8681-1bfddb6dce6b)
    (property "Reference" "R13" (at 154.94 113.03 90)
      (effects (font (size 1.27 1.27)))
    )
    (property "Value" "47k" (at 154.94 115.57 90)
      (effects (font (size 1.27 1.27)))
    )
    (property "Footprint" "Resistor_SMD:R_0805_2012Metric_Pad1.20x1.40mm_HandSolder" (at 154.94 119.888 90)
      (effects (font (size 1.27 1.27)) hide)
    )
    (property "Datasheet" "~" (at 154.94 118.11 0)
      (effects (font (size 1.27 1.27)) hide)
    )
    (pin "1" (uuid 645b2a76-2854-4455-9c99-03a8ecd7f5f8))
    (pin "2" (uuid 890b4bc7-0d29-4ad9-b2e7-245b5ce5b392))
    (instances
      (project "W4VES"
        (path "/dad1536b-7795-4ed1-9570-288544778227/19362143-b198-419a-b9f3-98a7f5be8f5e"
          (reference "R13") (unit 1)
        )
      )
    )
  )

  (symbol (lib_id "power:GND") (at 55.88 73.66 0) (unit 1)
    (in_bom yes) (on_board yes) (dnp no) (fields_autoplaced)
    (uuid 5da14243-bc31-4373-8b45-a18de29cd697)
    (property "Reference" "#PWR035" (at 55.88 80.01 0)
      (effects (font (size 1.27 1.27)) hide)
    )
    (property "Value" "GND" (at 55.88 78.105 0)
      (effects (font (size 1.27 1.27)))
    )
    (property "Footprint" "" (at 55.88 73.66 0)
      (effects (font (size 1.27 1.27)) hide)
    )
    (property "Datasheet" "" (at 55.88 73.66 0)
      (effects (font (size 1.27 1.27)) hide)
    )
    (pin "1" (uuid 493b32fc-c6fd-426e-94a0-d8552f62adde))
    (instances
      (project "W4VES"
        (path "/dad1536b-7795-4ed1-9570-288544778227/19362143-b198-419a-b9f3-98a7f5be8f5e"
          (reference "#PWR035") (unit 1)
        )
      )
    )
  )

  (symbol (lib_id "Amplifier_Operational:MCP6004") (at 68.58 129.54 0) (mirror x) (unit 2)
    (in_bom yes) (on_board yes) (dnp no) (fields_autoplaced)
    (uuid 5f19e915-9a38-4ebd-9659-9b1a09a729a3)
    (property "Reference" "U4" (at 68.58 120.015 0)
      (effects (font (size 1.27 1.27)))
    )
    (property "Value" "MCP6004" (at 68.58 122.555 0)
      (effects (font (size 1.27 1.27)))
    )
    (property "Footprint" "Package_SO:SOIC-14_3.9x8.7mm_P1.27mm" (at 67.31 132.08 0)
      (effects (font (size 1.27 1.27)) hide)
    )
    (property "Datasheet" "http://ww1.microchip.com/downloads/en/DeviceDoc/21733j.pdf" (at 69.85 134.62 0)
      (effects (font (size 1.27 1.27)) hide)
    )
    (pin "1" (uuid 968015ef-3699-4b1d-923f-b12840254d54))
    (pin "2" (uuid 4bd2feae-84de-4c1e-ba33-1150bb518b4a))
    (pin "3" (uuid 77448390-4a00-4b87-aead-5cd301bbc252))
    (pin "5" (uuid ab6b17a7-fa6e-4723-af4e-66f7355ced2f))
    (pin "6" (uuid 178909ad-15f3-41bc-bab4-71dbf4d928d6))
    (pin "7" (uuid 3a440db3-4264-453b-877e-4c47b840cd21))
    (pin "10" (uuid 22e16ef7-75a7-41d0-8121-f3d3547e1a77))
    (pin "8" (uuid c9281b65-1039-4343-98ef-d9337546b084))
    (pin "9" (uuid a0d4090a-39ce-49d3-afb6-870da1b93e98))
    (pin "12" (uuid 6a910d58-55ea-4623-928f-7321e2b94d45))
    (pin "13" (uuid 4301c178-fdc4-4b1f-b711-e2c22030f8e3))
    (pin "14" (uuid 5bba2c24-f2ae-4428-98aa-41e239315518))
    (pin "11" (uuid ddc095b8-5fe3-4679-b00f-16d8264467a1))
    (pin "4" (uuid 350d667c-8af5-4489-8552-1e3985f72651))
    (instances
      (project "W4VES"
        (path "/dad1536b-7795-4ed1-9570-288544778227/19362143-b198-419a-b9f3-98a7f5be8f5e"
          (reference "U4") (unit 2)
        )
      )
    )
  )

  (symbol (lib_id "Device:C") (at 247.65 45.72 90) (unit 1)
    (in_bom yes) (on_board yes) (dnp no) (fields_autoplaced)
    (uuid 83a14368-111d-47e4-92f8-5e1f9e324cbd)
    (property "Reference" "C24" (at 247.65 39.37 90)
      (effects (font (size 1.27 1.27)))
    )
    (property "Value" "1n" (at 247.65 41.91 90)
      (effects (font (size 1.27 1.27)))
    )
    (property "Footprint" "Capacitor_SMD:C_0805_2012Metric_Pad1.18x1.45mm_HandSolder" (at 251.46 44.7548 0)
      (effects (font (size 1.27 1.27)) hide)
    )
    (property "Datasheet" "~" (at 247.65 45.72 0)
      (effects (font (size 1.27 1.27)) hide)
    )
    (pin "1" (uuid 3977571e-3abf-4b84-9b67-f17e98745ac0))
    (pin "2" (uuid 8332fb9b-bec7-467c-b528-32bffcc0ee1a))
    (instances
      (project "W4VES"
        (path "/dad1536b-7795-4ed1-9570-288544778227/19362143-b198-419a-b9f3-98a7f5be8f5e"
          (reference "C24") (unit 1)
        )
      )
    )
  )

  (symbol (lib_id "Device:R") (at 228.6 111.76 90) (unit 1)
    (in_bom yes) (on_board yes) (dnp no) (fields_autoplaced)
    (uuid 88ca352f-b346-433f-bdd2-adfc8095c78f)
    (property "Reference" "R14" (at 228.6 106.68 90)
      (effects (font (size 1.27 1.27)))
    )
    (property "Value" "200k" (at 228.6 109.22 90)
      (effects (font (size 1.27 1.27)))
    )
    (property "Footprint" "Resistor_SMD:R_0805_2012Metric_Pad1.20x1.40mm_HandSolder" (at 228.6 113.538 90)
      (effects (font (size 1.27 1.27)) hide)
    )
    (property "Datasheet" "~" (at 228.6 111.76 0)
      (effects (font (size 1.27 1.27)) hide)
    )
    (pin "1" (uuid 21010a48-2e1c-49a7-955d-43eef7097b14))
    (pin "2" (uuid 1232bc19-0088-4dda-940f-be5c0f0817a5))
    (instances
      (project "W4VES"
        (path "/dad1536b-7795-4ed1-9570-288544778227/19362143-b198-419a-b9f3-98a7f5be8f5e"
          (reference "R14") (unit 1)
        )
      )
    )
  )

  (symbol (lib_id "Device:R") (at 229.87 67.31 90) (unit 1)
    (in_bom yes) (on_board yes) (dnp no) (fields_autoplaced)
    (uuid 89b00767-cb88-4d4c-bffe-4851885827cd)
    (property "Reference" "R17" (at 229.87 62.23 90)
      (effects (font (size 1.27 1.27)))
    )
    (property "Value" "100k" (at 229.87 64.77 90)
      (effects (font (size 1.27 1.27)))
    )
    (property "Footprint" "Resistor_SMD:R_0805_2012Metric_Pad1.20x1.40mm_HandSolder" (at 229.87 69.088 90)
      (effects (font (size 1.27 1.27)) hide)
    )
    (property "Datasheet" "~" (at 229.87 67.31 0)
      (effects (font (size 1.27 1.27)) hide)
    )
    (pin "1" (uuid c3212ed6-543f-4ad8-b363-05b1ed0fccf2))
    (pin "2" (uuid ea2508a0-0c35-48be-85f6-26740586117c))
    (instances
      (project "W4VES"
        (path "/dad1536b-7795-4ed1-9570-288544778227/19362143-b198-419a-b9f3-98a7f5be8f5e"
          (reference "R17") (unit 1)
        )
      )
    )
  )

  (symbol (lib_id "Device:R") (at 229.87 46.99 90) (unit 1)
    (in_bom yes) (on_board yes) (dnp no) (fields_autoplaced)
    (uuid 8d4d2dc5-3882-45eb-9b7a-2eb79639afeb)
    (property "Reference" "R16" (at 229.87 41.91 90)
      (effects (font (size 1.27 1.27)))
    )
    (property "Value" "200k" (at 229.87 44.45 90)
      (effects (font (size 1.27 1.27)))
    )
    (property "Footprint" "Resistor_SMD:R_0805_2012Metric_Pad1.20x1.40mm_HandSolder" (at 229.87 48.768 90)
      (effects (font (size 1.27 1.27)) hide)
    )
    (property "Datasheet" "~" (at 229.87 46.99 0)
      (effects (font (size 1.27 1.27)) hide)
    )
    (pin "1" (uuid 2f08ce1e-55d5-48ac-9c7e-d5d1eb0c1045))
    (pin "2" (uuid ab85166c-9c1f-487e-a707-a3ba214596a4))
    (instances
      (project "W4VES"
        (path "/dad1536b-7795-4ed1-9570-288544778227/19362143-b198-419a-b9f3-98a7f5be8f5e"
          (reference "R16") (unit 1)
        )
      )
    )
  )

  (symbol (lib_id "Device:C") (at 69.85 43.18 90) (unit 1)
    (in_bom yes) (on_board yes) (dnp no) (fields_autoplaced)
    (uuid 8d6f7bc7-1c4f-4a49-b6e5-776ed9e19111)
    (property "Reference" "C19" (at 69.85 36.83 90)
      (effects (font (size 1.27 1.27)))
    )
    (property "Value" "1n" (at 69.85 39.37 90)
      (effects (font (size 1.27 1.27)))
    )
    (property "Footprint" "Capacitor_SMD:C_0805_2012Metric_Pad1.18x1.45mm_HandSolder" (at 73.66 42.2148 0)
      (effects (font (size 1.27 1.27)) hide)
    )
    (property "Datasheet" "~" (at 69.85 43.18 0)
      (effects (font (size 1.27 1.27)) hide)
    )
    (pin "1" (uuid a52ad0de-91bc-4a44-a937-f9b009edfa7c))
    (pin "2" (uuid a7123a1e-96e7-42c3-a596-0c66d7bebca5))
    (instances
      (project "W4VES"
        (path "/dad1536b-7795-4ed1-9570-288544778227/19362143-b198-419a-b9f3-98a7f5be8f5e"
          (reference "C19") (unit 1)
        )
      )
    )
  )

  (symbol (lib_id "Amplifier_Operational:MCP6004") (at 154.94 69.85 0) (mirror x) (unit 3)
    (in_bom yes) (on_board yes) (dnp no) (fields_autoplaced)
    (uuid a69d11b7-2f05-457b-90a1-457e96dadba7)
    (property "Reference" "U4" (at 154.94 60.96 0)
      (effects (font (size 1.27 1.27)))
    )
    (property "Value" "MCP6004" (at 154.94 63.5 0)
      (effects (font (size 1.27 1.27)))
    )
    (property "Footprint" "Package_SO:SOIC-14_3.9x8.7mm_P1.27mm" (at 153.67 72.39 0)
      (effects (font (size 1.27 1.27)) hide)
    )
    (property "Datasheet" "http://ww1.microchip.com/downloads/en/DeviceDoc/21733j.pdf" (at 156.21 74.93 0)
      (effects (font (size 1.27 1.27)) hide)
    )
    (pin "1" (uuid 31c05b64-c73c-4aec-a45e-60256b072e2a))
    (pin "2" (uuid e6b129c9-c370-4f4a-b8c0-905d9a6e3d55))
    (pin "3" (uuid 9d6f7dce-dc47-4123-a1c0-a56ae71598e5))
    (pin "5" (uuid 8abe2b5d-9351-4685-a8fa-860c9ae027bd))
    (pin "6" (uuid e7a5e9a2-798f-4b31-a3bf-afeb8dbe3016))
    (pin "7" (uuid 662bfc66-6db8-4229-9f81-e7c0ba2dace4))
    (pin "10" (uuid d146e0e8-1645-4846-9f77-a371c0638296))
    (pin "8" (uuid 44281c59-6d64-4bda-83bf-afe4b62539dc))
    (pin "9" (uuid 51a1a8bd-4281-4acf-b872-4bedd34c061d))
    (pin "12" (uuid 9af24707-09ff-4544-b2ce-88be8beb6fb5))
    (pin "13" (uuid 4525bb8c-34dd-46b7-8545-a3dfe9955b4c))
    (pin "14" (uuid 0d02a38f-b501-4608-8061-6620aa4ee831))
    (pin "11" (uuid 4630d154-c27a-4dd5-9f5b-9045845111e5))
    (pin "4" (uuid 8737a5f5-4442-420c-b4c3-72e3a688c14d))
    (instances
      (project "W4VES"
        (path "/dad1536b-7795-4ed1-9570-288544778227/19362143-b198-419a-b9f3-98a7f5be8f5e"
          (reference "U4") (unit 3)
        )
      )
    )
  )

  (symbol (lib_id "Device:R") (at 69.85 53.34 90) (unit 1)
    (in_bom yes) (on_board yes) (dnp no) (fields_autoplaced)
    (uuid a8b0e78b-7562-4116-8d43-b6484f78b5c1)
    (property "Reference" "R6" (at 69.85 48.26 90)
      (effects (font (size 1.27 1.27)))
    )
    (property "Value" "47k" (at 69.85 50.8 90)
      (effects (font (size 1.27 1.27)))
    )
    (property "Footprint" "Resistor_SMD:R_0805_2012Metric_Pad1.20x1.40mm_HandSolder" (at 69.85 55.118 90)
      (effects (font (size 1.27 1.27)) hide)
    )
    (property "Datasheet" "~" (at 69.85 53.34 0)
      (effects (font (size 1.27 1.27)) hide)
    )
    (pin "1" (uuid cd9d5e85-3846-47a8-9c01-8cda9e0f93d2))
    (pin "2" (uuid 00b5cfc7-38b7-42e2-955c-ff4f5ba3b8c4))
    (instances
      (project "W4VES"
        (path "/dad1536b-7795-4ed1-9570-288544778227/19362143-b198-419a-b9f3-98a7f5be8f5e"
          (reference "R6") (unit 1)
        )
      )
    )
  )

  (symbol (lib_id "Device:R") (at 52.07 64.77 90) (unit 1)
    (in_bom yes) (on_board yes) (dnp no) (fields_autoplaced)
    (uuid aa8b7eed-4a1e-400e-ae62-9364172d17c8)
    (property "Reference" "R3" (at 52.07 59.69 90)
      (effects (font (size 1.27 1.27)))
    )
    (property "Value" "100k" (at 52.07 62.23 90)
      (effects (font (size 1.27 1.27)))
    )
    (property "Footprint" "Resistor_SMD:R_0805_2012Metric_Pad1.20x1.40mm_HandSolder" (at 52.07 66.548 90)
      (effects (font (size 1.27 1.27)) hide)
    )
    (property "Datasheet" "~" (at 52.07 64.77 0)
      (effects (font (size 1.27 1.27)) hide)
    )
    (pin "1" (uuid 3698d72c-dff2-4bf7-aff1-d27076385a04))
    (pin "2" (uuid 19f5335a-6048-486f-85de-df273e47b477))
    (instances
      (project "W4VES"
        (path "/dad1536b-7795-4ed1-9570-288544778227/19362143-b198-419a-b9f3-98a7f5be8f5e"
          (reference "R3") (unit 1)
        )
      )
    )
  )

  (symbol (lib_id "Amplifier_Operational:MCP6002-xSN") (at 247.65 69.85 0) (mirror x) (unit 1)
    (in_bom yes) (on_board yes) (dnp no) (fields_autoplaced)
    (uuid be30f8cc-3f76-49b2-9b5b-c8aa9b14f8e4)
    (property "Reference" "U15" (at 247.65 60.96 0)
      (effects (font (size 1.27 1.27)))
    )
    (property "Value" "MCP6002-xSN" (at 247.65 63.5 0)
      (effects (font (size 1.27 1.27)))
    )
    (property "Footprint" "Package_SO:SOIC-8_3.9x4.9mm_P1.27mm" (at 247.65 69.85 0)
      (effects (font (size 1.27 1.27)) hide)
    )
    (property "Datasheet" "http://ww1.microchip.com/downloads/en/DeviceDoc/21733j.pdf" (at 247.65 69.85 0)
      (effects (font (size 1.27 1.27)) hide)
    )
    (pin "1" (uuid ffef5eb6-204f-422d-befc-f0388f9a3f92))
    (pin "2" (uuid e6a4ce6d-179a-42bc-bcbc-2b6694c00cef))
    (pin "3" (uuid 1bc27b4a-83ef-4b76-9958-69b58450fc95))
    (pin "5" (uuid f4d8d08c-c033-49e0-9653-0cd62018ccdf))
    (pin "6" (uuid 4971b118-f600-4e17-bec9-d178911f368f))
    (pin "7" (uuid 878a99ed-f04e-4a01-a41e-4c2682dca10c))
    (pin "4" (uuid 5df26f41-b206-448e-84fe-41945f8c2f67))
    (pin "8" (uuid bf63f774-62f8-4226-9177-2806cc7fc4c9))
    (instances
      (project "W4VES"
        (path "/dad1536b-7795-4ed1-9570-288544778227/19362143-b198-419a-b9f3-98a7f5be8f5e"
          (reference "U15") (unit 1)
        )
      )
    )
  )

  (symbol (lib_id "Device:C") (at 246.38 109.22 90) (unit 1)
    (in_bom yes) (on_board yes) (dnp no) (fields_autoplaced)
    (uuid bf95798e-1d95-4959-ae4c-e5dd209f1ddd)
    (property "Reference" "C23" (at 246.38 102.87 90)
      (effects (font (size 1.27 1.27)))
    )
    (property "Value" "1n" (at 246.38 105.41 90)
      (effects (font (size 1.27 1.27)))
    )
    (property "Footprint" "Capacitor_SMD:C_0805_2012Metric_Pad1.18x1.45mm_HandSolder" (at 250.19 108.2548 0)
      (effects (font (size 1.27 1.27)) hide)
    )
    (property "Datasheet" "~" (at 246.38 109.22 0)
      (effects (font (size 1.27 1.27)) hide)
    )
    (pin "1" (uuid d0235036-6a8a-4b85-a58e-dc049569204f))
    (pin "2" (uuid e9f2a69b-ebec-4539-9fcc-49a4fbe8c71f))
    (instances
      (project "W4VES"
        (path "/dad1536b-7795-4ed1-9570-288544778227/19362143-b198-419a-b9f3-98a7f5be8f5e"
          (reference "C23") (unit 1)
        )
      )
    )
  )

  (symbol (lib_id "Device:R") (at 154.94 55.88 90) (unit 1)
    (in_bom yes) (on_board yes) (dnp no) (fields_autoplaced)
    (uuid c623ca49-749a-4015-8f8f-edf1e6c7d8c5)
    (property "Reference" "R12" (at 154.94 50.8 90)
      (effects (font (size 1.27 1.27)))
    )
    (property "Value" "33k" (at 154.94 53.34 90)
      (effects (font (size 1.27 1.27)))
    )
    (property "Footprint" "Resistor_SMD:R_0805_2012Metric_Pad1.20x1.40mm_HandSolder" (at 154.94 57.658 90)
      (effects (font (size 1.27 1.27)) hide)
    )
    (property "Datasheet" "~" (at 154.94 55.88 0)
      (effects (font (size 1.27 1.27)) hide)
    )
    (pin "1" (uuid 93ea2e3d-ec9b-4664-9646-33b6db214fa5))
    (pin "2" (uuid 3f995bdf-da47-47ce-9455-1c56cc9eb32a))
    (instances
      (project "W4VES"
        (path "/dad1536b-7795-4ed1-9570-288544778227/19362143-b198-419a-b9f3-98a7f5be8f5e"
          (reference "R12") (unit 1)
        )
      )
    )
  )

  (symbol (lib_id "Device:R") (at 246.38 120.65 90) (unit 1)
    (in_bom yes) (on_board yes) (dnp no) (fields_autoplaced)
    (uuid cd6e3115-bc5a-4cf9-a56e-65c38e6592c4)
    (property "Reference" "R18" (at 246.38 115.57 90)
      (effects (font (size 1.27 1.27)))
    )
    (property "Value" "33k" (at 246.38 118.11 90)
      (effects (font (size 1.27 1.27)))
    )
    (property "Footprint" "Resistor_SMD:R_0805_2012Metric_Pad1.20x1.40mm_HandSolder" (at 246.38 122.428 90)
      (effects (font (size 1.27 1.27)) hide)
    )
    (property "Datasheet" "~" (at 246.38 120.65 0)
      (effects (font (size 1.27 1.27)) hide)
    )
    (pin "1" (uuid d5e4fc43-eb71-4a7c-813d-1ad6e0e1fc29))
    (pin "2" (uuid d93e3766-94c4-4b40-9c4c-6496ffbc3250))
    (instances
      (project "W4VES"
        (path "/dad1536b-7795-4ed1-9570-288544778227/19362143-b198-419a-b9f3-98a7f5be8f5e"
          (reference "R18") (unit 1)
        )
      )
    )
  )

  (symbol (lib_id "Device:C") (at 154.94 45.72 90) (unit 1)
    (in_bom yes) (on_board yes) (dnp no) (fields_autoplaced)
    (uuid cf9a22c5-3583-42bb-9a61-a455513cb435)
    (property "Reference" "C21" (at 154.94 39.37 90)
      (effects (font (size 1.27 1.27)))
    )
    (property "Value" "1n" (at 154.94 41.91 90)
      (effects (font (size 1.27 1.27)))
    )
    (property "Footprint" "Capacitor_SMD:C_0805_2012Metric_Pad1.18x1.45mm_HandSolder" (at 158.75 44.7548 0)
      (effects (font (size 1.27 1.27)) hide)
    )
    (property "Datasheet" "~" (at 154.94 45.72 0)
      (effects (font (size 1.27 1.27)) hide)
    )
    (pin "1" (uuid c3166055-63ad-4005-bd5d-8c8cf19ec349))
    (pin "2" (uuid 59a57ff8-669f-4e9e-8bb8-f880b2accaef))
    (instances
      (project "W4VES"
        (path "/dad1536b-7795-4ed1-9570-288544778227/19362143-b198-419a-b9f3-98a7f5be8f5e"
          (reference "C21") (unit 1)
        )
      )
    )
  )

  (symbol (lib_id "Device:R") (at 137.16 129.54 90) (unit 1)
    (in_bom yes) (on_board yes) (dnp no) (fields_autoplaced)
    (uuid d263ab02-3ebb-482d-87e6-6bf68e1aa923)
    (property "Reference" "R11" (at 137.16 124.46 90)
      (effects (font (size 1.27 1.27)))
    )
    (property "Value" "100k" (at 137.16 127 90)
      (effects (font (size 1.27 1.27)))
    )
    (property "Footprint" "Resistor_SMD:R_0805_2012Metric_Pad1.20x1.40mm_HandSolder" (at 137.16 131.318 90)
      (effects (font (size 1.27 1.27)) hide)
    )
    (property "Datasheet" "~" (at 137.16 129.54 0)
      (effects (font (size 1.27 1.27)) hide)
    )
    (pin "1" (uuid 7444c9dd-af2d-4c16-84a5-6c494df4d20b))
    (pin "2" (uuid f5e3fad7-e19b-40dd-8c0a-bcfc623be35b))
    (instances
      (project "W4VES"
        (path "/dad1536b-7795-4ed1-9570-288544778227/19362143-b198-419a-b9f3-98a7f5be8f5e"
          (reference "R11") (unit 1)
        )
      )
    )
  )

  (symbol (lib_id "Amplifier_Operational:MCP6004") (at 154.94 132.08 0) (mirror x) (unit 4)
    (in_bom yes) (on_board yes) (dnp no) (fields_autoplaced)
    (uuid d3df5a21-6e80-4084-acce-62aa7a3d5ba7)
    (property "Reference" "U4" (at 154.94 123.19 0)
      (effects (font (size 1.27 1.27)))
    )
    (property "Value" "MCP6004" (at 154.94 125.73 0)
      (effects (font (size 1.27 1.27)))
    )
    (property "Footprint" "Package_SO:SOIC-14_3.9x8.7mm_P1.27mm" (at 153.67 134.62 0)
      (effects (font (size 1.27 1.27)) hide)
    )
    (property "Datasheet" "http://ww1.microchip.com/downloads/en/DeviceDoc/21733j.pdf" (at 156.21 137.16 0)
      (effects (font (size 1.27 1.27)) hide)
    )
    (pin "1" (uuid 6cd514ed-3f59-4ecc-9fbe-115de220a712))
    (pin "2" (uuid 7b25e845-4786-41a2-baed-81976242cbbc))
    (pin "3" (uuid 1c39349e-d31b-4f9c-a86c-f3b985a2e5f2))
    (pin "5" (uuid 0ff8fae2-3fe6-4453-a17e-5506eae35b4f))
    (pin "6" (uuid 890953dd-8ce3-4db1-933c-15b343f555f4))
    (pin "7" (uuid a8ad615c-c179-4565-8815-9d992e272c2f))
    (pin "10" (uuid fe100b30-e45e-4b38-bc69-51cde74fc616))
    (pin "8" (uuid 08bb1709-f990-417d-8d5b-bb1b4e6453ac))
    (pin "9" (uuid eb5ee1b1-6f80-4be1-9ec9-3d771bfa2694))
    (pin "12" (uuid b3ca1ea7-d47a-42ba-a181-910e65edab9c))
    (pin "13" (uuid c7e67d16-4eac-4fa6-8fbc-3c54f27bd607))
    (pin "14" (uuid f690ab9b-7144-4d4d-9363-37934e40539b))
    (pin "11" (uuid d3c648da-0a16-4fad-9ab0-c1fc70dc4136))
    (pin "4" (uuid f2c5b042-32ec-4f02-980e-1186ae531916))
    (instances
      (project "W4VES"
        (path "/dad1536b-7795-4ed1-9570-288544778227/19362143-b198-419a-b9f3-98a7f5be8f5e"
          (reference "U4") (unit 4)
        )
      )
    )
  )

  (symbol (lib_id "Device:R") (at 137.16 109.22 90) (unit 1)
    (in_bom yes) (on_board yes) (dnp no) (fields_autoplaced)
    (uuid d52c6bad-6f4f-462d-81b7-6a9cf3bbccbd)
    (property "Reference" "R10" (at 137.16 104.14 90)
      (effects (font (size 1.27 1.27)))
    )
    (property "Value" "180k" (at 137.16 106.68 90)
      (effects (font (size 1.27 1.27)))
    )
    (property "Footprint" "Resistor_SMD:R_0805_2012Metric_Pad1.20x1.40mm_HandSolder" (at 137.16 110.998 90)
      (effects (font (size 1.27 1.27)) hide)
    )
    (property "Datasheet" "~" (at 137.16 109.22 0)
      (effects (font (size 1.27 1.27)) hide)
    )
    (pin "1" (uuid 82b19e4c-25cb-4d1c-ab56-62a6277f1e33))
    (pin "2" (uuid 0f8d5808-cb62-44aa-ad8b-3792c032dbf4))
    (instances
      (project "W4VES"
        (path "/dad1536b-7795-4ed1-9570-288544778227/19362143-b198-419a-b9f3-98a7f5be8f5e"
          (reference "R10") (unit 1)
        )
      )
    )
  )

  (symbol (lib_id "power:GND") (at 233.68 140.97 0) (unit 1)
    (in_bom yes) (on_board yes) (dnp no) (fields_autoplaced)
    (uuid dfd53f39-395d-4abd-98a6-ace45efb7f86)
    (property "Reference" "#PWR039" (at 233.68 147.32 0)
      (effects (font (size 1.27 1.27)) hide)
    )
    (property "Value" "GND" (at 233.68 145.415 0)
      (effects (font (size 1.27 1.27)))
    )
    (property "Footprint" "" (at 233.68 140.97 0)
      (effects (font (size 1.27 1.27)) hide)
    )
    (property "Datasheet" "" (at 233.68 140.97 0)
      (effects (font (size 1.27 1.27)) hide)
    )
    (pin "1" (uuid 58b1f43c-caf5-49a4-9950-9c0d262ea2e5))
    (instances
      (project "W4VES"
        (path "/dad1536b-7795-4ed1-9570-288544778227/19362143-b198-419a-b9f3-98a7f5be8f5e"
          (reference "#PWR039") (unit 1)
        )
      )
    )
  )

  (symbol (lib_id "power:GND") (at 142.24 76.2 0) (unit 1)
    (in_bom yes) (on_board yes) (dnp no) (fields_autoplaced)
    (uuid eda454ad-1d0e-446d-9c96-df10abb3aab5)
    (property "Reference" "#PWR037" (at 142.24 82.55 0)
      (effects (font (size 1.27 1.27)) hide)
    )
    (property "Value" "GND" (at 142.24 80.645 0)
      (effects (font (size 1.27 1.27)))
    )
    (property "Footprint" "" (at 142.24 76.2 0)
      (effects (font (size 1.27 1.27)) hide)
    )
    (property "Datasheet" "" (at 142.24 76.2 0)
      (effects (font (size 1.27 1.27)) hide)
    )
    (pin "1" (uuid 722941d6-5f78-4c01-9b4b-b327a3613df8))
    (instances
      (project "W4VES"
        (path "/dad1536b-7795-4ed1-9570-288544778227/19362143-b198-419a-b9f3-98a7f5be8f5e"
          (reference "#PWR037") (unit 1)
        )
      )
    )
  )

  (symbol (lib_id "power:GND") (at 234.95 76.2 0) (unit 1)
    (in_bom yes) (on_board yes) (dnp no) (fields_autoplaced)
    (uuid f15c9a44-55b6-4c3d-a5cb-868f934fc65a)
    (property "Reference" "#PWR040" (at 234.95 82.55 0)
      (effects (font (size 1.27 1.27)) hide)
    )
    (property "Value" "GND" (at 234.95 80.645 0)
      (effects (font (size 1.27 1.27)))
    )
    (property "Footprint" "" (at 234.95 76.2 0)
      (effects (font (size 1.27 1.27)) hide)
    )
    (property "Datasheet" "" (at 234.95 76.2 0)
      (effects (font (size 1.27 1.27)) hide)
    )
    (pin "1" (uuid 51622810-b184-429e-aaba-eb9d9e0607e3))
    (instances
      (project "W4VES"
        (path "/dad1536b-7795-4ed1-9570-288544778227/19362143-b198-419a-b9f3-98a7f5be8f5e"
          (reference "#PWR040") (unit 1)
        )
      )
    )
  )

  (symbol (lib_id "Device:C") (at 69.85 105.41 90) (unit 1)
    (in_bom yes) (on_board yes) (dnp no) (fields_autoplaced)
    (uuid f45266a0-ca32-45c2-be07-b77042f3667b)
    (property "Reference" "C20" (at 69.85 99.06 90)
      (effects (font (size 1.27 1.27)))
    )
    (property "Value" "1n" (at 69.85 101.6 90)
      (effects (font (size 1.27 1.27)))
    )
    (property "Footprint" "Capacitor_SMD:C_0805_2012Metric_Pad1.18x1.45mm_HandSolder" (at 73.66 104.4448 0)
      (effects (font (size 1.27 1.27)) hide)
    )
    (property "Datasheet" "~" (at 69.85 105.41 0)
      (effects (font (size 1.27 1.27)) hide)
    )
    (pin "1" (uuid 800a5e35-6e53-4e30-9f3a-1fd61fe9506a))
    (pin "2" (uuid e7c8042d-9837-490e-9b8c-35859a0e28cb))
    (instances
      (project "W4VES"
        (path "/dad1536b-7795-4ed1-9570-288544778227/19362143-b198-419a-b9f3-98a7f5be8f5e"
          (reference "C20") (unit 1)
        )
      )
    )
  )
)
