%TF.GenerationSoftware,KiCad,Pcbnew,7.0.1*%
%TF.CreationDate,2023-07-17T18:41:31+02:00*%
%TF.ProjectId,ACTIVATOR,41435449-5641-4544-9f52-2e6b69636164,rev?*%
%TF.SameCoordinates,Original*%
%TF.FileFunction,Copper,L2,Bot*%
%TF.FilePolarity,Positive*%
%FSLAX46Y46*%
G04 Gerber Fmt 4.6, Leading zero omitted, Abs format (unit mm)*
G04 Created by KiCad (PCBNEW 7.0.1) date 2023-07-17 18:41:31*
%MOMM*%
%LPD*%
G01*
G04 APERTURE LIST*
%TA.AperFunction,ComponentPad*%
%ADD10R,1.700000X1.700000*%
%TD*%
%TA.AperFunction,ComponentPad*%
%ADD11O,1.700000X1.700000*%
%TD*%
%TA.AperFunction,WasherPad*%
%ADD12C,4.000000*%
%TD*%
%TA.AperFunction,ComponentPad*%
%ADD13C,1.800000*%
%TD*%
%TA.AperFunction,ComponentPad*%
%ADD14R,1.930000X1.830000*%
%TD*%
%TA.AperFunction,ComponentPad*%
%ADD15C,2.130000*%
%TD*%
%TA.AperFunction,ViaPad*%
%ADD16C,0.700000*%
%TD*%
%TA.AperFunction,Conductor*%
%ADD17C,0.500000*%
%TD*%
%TA.AperFunction,Conductor*%
%ADD18C,0.300000*%
%TD*%
G04 APERTURE END LIST*
D10*
%TO.P,J1,1,Pin_1*%
%TO.N,/+12_RAW*%
X46819548Y-124951200D03*
D11*
%TO.P,J1,2,Pin_2*%
X46819548Y-122411200D03*
%TO.P,J1,3,Pin_3*%
%TO.N,GND*%
X49359548Y-124951200D03*
%TO.P,J1,4,Pin_4*%
X49359548Y-122411200D03*
%TO.P,J1,5,Pin_5*%
X51899548Y-124951200D03*
%TO.P,J1,6,Pin_6*%
X51899548Y-122411200D03*
%TO.P,J1,7,Pin_7*%
X54439548Y-124951200D03*
%TO.P,J1,8,Pin_8*%
X54439548Y-122411200D03*
%TO.P,J1,9,Pin_9*%
%TO.N,/-12_RAW*%
X56979548Y-124951200D03*
%TO.P,J1,10,Pin_10*%
X56979548Y-122411200D03*
%TD*%
D12*
%TO.P,RV1,*%
%TO.N,*%
X49334548Y-110700000D03*
X58134548Y-110700000D03*
D13*
%TO.P,RV1,1,1*%
%TO.N,Net-(R1-Pad1)*%
X51234548Y-117700000D03*
%TO.P,RV1,2,2*%
X53734548Y-117700000D03*
%TO.P,RV1,3,3*%
%TO.N,Net-(R6-Pad2)*%
X56234548Y-117700000D03*
%TD*%
D10*
%TO.P,J3,1,Pin_1*%
%TO.N,Net-(J3-Pin_1)*%
X81525000Y-90250000D03*
D11*
%TO.P,J3,2,Pin_2*%
%TO.N,GND*%
X81525000Y-87710000D03*
%TD*%
D14*
%TO.P,J4,S*%
%TO.N,GND*%
X34184548Y-104580000D03*
D15*
%TO.P,J4,T*%
%TO.N,Net-(J4-PadT)*%
X34184548Y-115380000D03*
%TO.P,J4,TN*%
%TO.N,unconnected-(J4-PadTN)*%
X34184548Y-107080000D03*
%TD*%
D14*
%TO.P,J2,S*%
%TO.N,GND*%
X74134548Y-104580000D03*
D15*
%TO.P,J2,T*%
%TO.N,Net-(D2-A)*%
X74134548Y-115380000D03*
%TO.P,J2,TN*%
%TO.N,Net-(J3-Pin_1)*%
X74134548Y-107080000D03*
%TD*%
D16*
%TO.N,GND*%
X54500000Y-83200000D03*
X33900000Y-125500000D03*
X58200000Y-87800000D03*
X45700000Y-117900000D03*
X67950000Y-118000000D03*
X61400000Y-83500000D03*
X49500000Y-97500000D03*
X69850000Y-125000000D03*
X54000000Y-94400000D03*
%TO.N,-12V*%
X59100000Y-86100000D03*
X55200000Y-86100000D03*
X62050000Y-101750000D03*
X62050000Y-99450000D03*
%TO.N,Net-(U1A--)*%
X49150000Y-88900000D03*
X47150000Y-88900000D03*
%TO.N,Net-(U1B--)*%
X58150000Y-92150000D03*
X58400000Y-89600000D03*
%TO.N,Net-(D2-A)*%
X49150000Y-90150000D03*
X57300000Y-96200000D03*
X49950000Y-96000000D03*
X68700000Y-97500000D03*
%TO.N,Net-(R1-Pad1)*%
X59350000Y-101750000D03*
X59350000Y-99300000D03*
%TO.N,Net-(R6-Pad2)*%
X60750000Y-99500000D03*
X60750000Y-101800000D03*
%TD*%
D17*
%TO.N,-12V*%
X59100000Y-86100000D02*
X55200000Y-86100000D01*
X62050000Y-101750000D02*
X62050000Y-99450000D01*
D18*
%TO.N,Net-(U1A--)*%
X47150000Y-88900000D02*
X49150000Y-88900000D01*
%TO.N,Net-(U1B--)*%
X58150000Y-92150000D02*
X58150000Y-89850000D01*
X58150000Y-89850000D02*
X58400000Y-89600000D01*
%TO.N,Net-(D2-A)*%
X49150000Y-91600000D02*
X49150000Y-90650000D01*
X49150000Y-90650000D02*
X49150000Y-90150000D01*
X58600000Y-97500000D02*
X68700000Y-97500000D01*
X49950000Y-96000000D02*
X49150000Y-95200000D01*
X57300000Y-96200000D02*
X58600000Y-97500000D01*
X49150000Y-95200000D02*
X49150000Y-91600000D01*
%TO.N,Net-(R1-Pad1)*%
X59350000Y-101750000D02*
X59350000Y-99300000D01*
%TO.N,Net-(R6-Pad2)*%
X60750000Y-101800000D02*
X60750000Y-99500000D01*
%TD*%
%TA.AperFunction,Conductor*%
%TO.N,GND*%
G36*
X84347048Y-17828313D02*
G01*
X84392435Y-17873700D01*
X84409048Y-17935700D01*
X84409048Y-127686700D01*
X84392435Y-127748700D01*
X84347048Y-127794087D01*
X84285048Y-127810700D01*
X24034048Y-127810700D01*
X23972048Y-127794087D01*
X23926661Y-127748700D01*
X23910048Y-127686700D01*
X23910048Y-122411199D01*
X45463888Y-122411199D01*
X45484484Y-122646607D01*
X45529257Y-122813702D01*
X45545645Y-122874863D01*
X45645513Y-123089030D01*
X45781053Y-123282601D01*
X45781056Y-123282604D01*
X45902978Y-123404526D01*
X45934274Y-123457272D01*
X45936463Y-123518565D01*
X45909010Y-123573409D01*
X45858631Y-123608389D01*
X45727217Y-123657404D01*
X45612002Y-123743654D01*
X45525752Y-123858868D01*
X45475457Y-123993716D01*
X45469048Y-124053330D01*
X45469048Y-125849069D01*
X45471003Y-125867253D01*
X45475457Y-125908683D01*
X45525752Y-126043531D01*
X45612002Y-126158746D01*
X45727217Y-126244996D01*
X45862065Y-126295291D01*
X45921675Y-126301700D01*
X47717420Y-126301699D01*
X47777031Y-126295291D01*
X47911879Y-126244996D01*
X48027094Y-126158746D01*
X48113344Y-126043531D01*
X48162551Y-125911598D01*
X48197529Y-125861221D01*
X48252374Y-125833768D01*
X48313667Y-125835957D01*
X48366413Y-125867253D01*
X48488466Y-125989306D01*
X48681971Y-126124800D01*
X48896055Y-126224630D01*
X49109547Y-126281835D01*
X49109548Y-126281836D01*
X49109548Y-125201200D01*
X49609548Y-125201200D01*
X49609548Y-126281835D01*
X49823040Y-126224630D01*
X50037124Y-126124800D01*
X50230629Y-125989306D01*
X50397657Y-125822278D01*
X50527972Y-125636169D01*
X50572290Y-125597303D01*
X50629547Y-125583292D01*
X50686803Y-125597302D01*
X50731122Y-125636168D01*
X50861440Y-125822280D01*
X51028466Y-125989306D01*
X51221971Y-126124800D01*
X51436055Y-126224630D01*
X51649547Y-126281835D01*
X51649548Y-126281836D01*
X51649548Y-125201200D01*
X52149548Y-125201200D01*
X52149548Y-126281835D01*
X52363040Y-126224630D01*
X52577124Y-126124800D01*
X52770629Y-125989306D01*
X52937657Y-125822278D01*
X53067972Y-125636169D01*
X53112290Y-125597303D01*
X53169547Y-125583292D01*
X53226803Y-125597302D01*
X53271122Y-125636168D01*
X53401440Y-125822280D01*
X53568466Y-125989306D01*
X53761971Y-126124800D01*
X53976055Y-126224630D01*
X54189547Y-126281835D01*
X54189548Y-126281836D01*
X54189548Y-126281835D01*
X54689548Y-126281835D01*
X54903040Y-126224630D01*
X55117124Y-126124800D01*
X55310629Y-125989306D01*
X55477657Y-125822278D01*
X55607667Y-125636605D01*
X55651985Y-125597739D01*
X55709242Y-125583728D01*
X55766499Y-125597739D01*
X55810815Y-125636602D01*
X55941053Y-125822601D01*
X56108147Y-125989695D01*
X56301718Y-126125235D01*
X56515885Y-126225103D01*
X56744140Y-126286263D01*
X56979548Y-126306859D01*
X57214956Y-126286263D01*
X57443211Y-126225103D01*
X57657378Y-126125235D01*
X57850949Y-125989695D01*
X58018043Y-125822601D01*
X58153583Y-125629030D01*
X58253451Y-125414863D01*
X58314611Y-125186608D01*
X58335207Y-124951200D01*
X58314611Y-124715792D01*
X58253451Y-124487537D01*
X58153583Y-124273371D01*
X58018043Y-124079799D01*
X57850949Y-123912705D01*
X57665387Y-123782773D01*
X57626523Y-123738457D01*
X57612512Y-123681200D01*
X57626523Y-123623943D01*
X57665387Y-123579626D01*
X57850949Y-123449695D01*
X58018043Y-123282601D01*
X58153583Y-123089030D01*
X58253451Y-122874863D01*
X58314611Y-122646608D01*
X58335207Y-122411200D01*
X58314611Y-122175792D01*
X58253451Y-121947537D01*
X58153583Y-121733371D01*
X58018043Y-121539799D01*
X57850949Y-121372705D01*
X57657378Y-121237165D01*
X57443211Y-121137297D01*
X57382050Y-121120909D01*
X57214955Y-121076136D01*
X56979548Y-121055540D01*
X56744140Y-121076136D01*
X56515884Y-121137297D01*
X56301718Y-121237165D01*
X56108146Y-121372705D01*
X55941056Y-121539795D01*
X55810817Y-121725796D01*
X55766499Y-121764661D01*
X55709242Y-121778672D01*
X55651985Y-121764661D01*
X55607667Y-121725795D01*
X55477657Y-121540121D01*
X55310629Y-121373093D01*
X55117124Y-121237599D01*
X54903040Y-121137769D01*
X54689548Y-121080564D01*
X54689548Y-126281835D01*
X54189548Y-126281835D01*
X54189548Y-125201200D01*
X52149548Y-125201200D01*
X51649548Y-125201200D01*
X49609548Y-125201200D01*
X49109548Y-125201200D01*
X49109548Y-122661200D01*
X49609548Y-122661200D01*
X49609548Y-124701200D01*
X51649548Y-124701200D01*
X51649548Y-122661200D01*
X52149548Y-122661200D01*
X52149548Y-124701200D01*
X54189548Y-124701200D01*
X54189548Y-122661200D01*
X52149548Y-122661200D01*
X51649548Y-122661200D01*
X49609548Y-122661200D01*
X49109548Y-122661200D01*
X49109548Y-122161200D01*
X49609548Y-122161200D01*
X51649548Y-122161200D01*
X52149548Y-122161200D01*
X54189548Y-122161200D01*
X54189548Y-121080564D01*
X54189547Y-121080564D01*
X53976055Y-121137769D01*
X53761969Y-121237600D01*
X53568469Y-121373090D01*
X53401441Y-121540118D01*
X53271123Y-121726232D01*
X53226805Y-121765097D01*
X53169548Y-121779108D01*
X53112291Y-121765097D01*
X53067973Y-121726232D01*
X52937654Y-121540118D01*
X52770629Y-121373093D01*
X52577124Y-121237599D01*
X52363040Y-121137769D01*
X52149548Y-121080564D01*
X52149548Y-122161200D01*
X51649548Y-122161200D01*
X51649548Y-121080564D01*
X51649547Y-121080564D01*
X51436055Y-121137769D01*
X51221969Y-121237600D01*
X51028469Y-121373090D01*
X50861441Y-121540118D01*
X50731123Y-121726232D01*
X50686805Y-121765097D01*
X50629548Y-121779108D01*
X50572291Y-121765097D01*
X50527973Y-121726232D01*
X50397654Y-121540118D01*
X50230629Y-121373093D01*
X50037124Y-121237599D01*
X49823040Y-121137769D01*
X49609548Y-121080564D01*
X49609548Y-122161200D01*
X49109548Y-122161200D01*
X49109548Y-121080564D01*
X49109547Y-121080564D01*
X48896055Y-121137769D01*
X48681969Y-121237600D01*
X48488469Y-121373090D01*
X48321441Y-121540118D01*
X48191428Y-121725796D01*
X48147110Y-121764661D01*
X48089853Y-121778672D01*
X48032596Y-121764661D01*
X47988278Y-121725795D01*
X47858042Y-121539798D01*
X47690952Y-121372708D01*
X47690951Y-121372707D01*
X47690949Y-121372705D01*
X47497378Y-121237165D01*
X47283211Y-121137297D01*
X47222050Y-121120909D01*
X47054955Y-121076136D01*
X46819548Y-121055540D01*
X46584140Y-121076136D01*
X46355884Y-121137297D01*
X46141718Y-121237165D01*
X45948146Y-121372705D01*
X45781053Y-121539798D01*
X45645513Y-121733370D01*
X45545645Y-121947536D01*
X45484484Y-122175792D01*
X45463888Y-122411199D01*
X23910048Y-122411199D01*
X23910048Y-117699999D01*
X49829247Y-117699999D01*
X49848413Y-117931299D01*
X49848413Y-117931301D01*
X49848414Y-117931305D01*
X49905391Y-118156300D01*
X49998624Y-118368849D01*
X50125569Y-118563153D01*
X50282764Y-118733913D01*
X50465922Y-118876470D01*
X50670045Y-118986936D01*
X50779806Y-119024617D01*
X50889563Y-119062297D01*
X50889565Y-119062297D01*
X50889567Y-119062298D01*
X51118499Y-119100500D01*
X51350596Y-119100500D01*
X51350597Y-119100500D01*
X51579529Y-119062298D01*
X51799051Y-118986936D01*
X52003174Y-118876470D01*
X52186332Y-118733913D01*
X52343527Y-118563153D01*
X52380741Y-118506191D01*
X52425528Y-118464962D01*
X52484546Y-118450016D01*
X52543564Y-118464961D01*
X52588355Y-118506194D01*
X52625566Y-118563149D01*
X52625569Y-118563153D01*
X52782764Y-118733913D01*
X52965922Y-118876470D01*
X53170045Y-118986936D01*
X53279806Y-119024617D01*
X53389563Y-119062297D01*
X53389565Y-119062297D01*
X53389567Y-119062298D01*
X53618499Y-119100500D01*
X53850596Y-119100500D01*
X53850597Y-119100500D01*
X54079529Y-119062298D01*
X54299051Y-118986936D01*
X54503174Y-118876470D01*
X54686332Y-118733913D01*
X54843527Y-118563153D01*
X54880741Y-118506191D01*
X54925528Y-118464962D01*
X54984546Y-118450016D01*
X55043564Y-118464961D01*
X55088355Y-118506194D01*
X55125566Y-118563149D01*
X55125569Y-118563153D01*
X55282764Y-118733913D01*
X55465922Y-118876470D01*
X55670045Y-118986936D01*
X55779806Y-119024617D01*
X55889563Y-119062297D01*
X55889565Y-119062297D01*
X55889567Y-119062298D01*
X56118499Y-119100500D01*
X56350596Y-119100500D01*
X56350597Y-119100500D01*
X56579529Y-119062298D01*
X56799051Y-118986936D01*
X57003174Y-118876470D01*
X57186332Y-118733913D01*
X57343527Y-118563153D01*
X57470472Y-118368849D01*
X57563705Y-118156300D01*
X57620682Y-117931305D01*
X57639848Y-117700000D01*
X57620682Y-117468695D01*
X57563705Y-117243700D01*
X57470472Y-117031151D01*
X57343527Y-116836847D01*
X57186332Y-116666087D01*
X57003174Y-116523530D01*
X56799051Y-116413064D01*
X56799047Y-116413062D01*
X56799046Y-116413062D01*
X56579532Y-116337702D01*
X56371697Y-116303021D01*
X56350597Y-116299500D01*
X56118499Y-116299500D01*
X56097399Y-116303021D01*
X55889563Y-116337702D01*
X55670049Y-116413062D01*
X55465920Y-116523531D01*
X55282763Y-116666087D01*
X55178653Y-116779182D01*
X55125569Y-116836847D01*
X55125569Y-116836848D01*
X55088357Y-116893805D01*
X55043565Y-116935038D01*
X54984548Y-116949983D01*
X54925531Y-116935038D01*
X54880739Y-116893805D01*
X54867462Y-116873483D01*
X54843527Y-116836847D01*
X54686332Y-116666087D01*
X54503174Y-116523530D01*
X54299051Y-116413064D01*
X54299047Y-116413062D01*
X54299046Y-116413062D01*
X54079532Y-116337702D01*
X53871697Y-116303021D01*
X53850597Y-116299500D01*
X53618499Y-116299500D01*
X53597399Y-116303021D01*
X53389563Y-116337702D01*
X53170049Y-116413062D01*
X52965920Y-116523531D01*
X52782763Y-116666087D01*
X52678653Y-116779182D01*
X52625569Y-116836847D01*
X52625569Y-116836848D01*
X52588357Y-116893805D01*
X52543565Y-116935038D01*
X52484548Y-116949983D01*
X52425531Y-116935038D01*
X52380739Y-116893805D01*
X52367462Y-116873483D01*
X52343527Y-116836847D01*
X52186332Y-116666087D01*
X52003174Y-116523530D01*
X51799051Y-116413064D01*
X51799047Y-116413062D01*
X51799046Y-116413062D01*
X51579532Y-116337702D01*
X51371697Y-116303021D01*
X51350597Y-116299500D01*
X51118499Y-116299500D01*
X51097399Y-116303021D01*
X50889563Y-116337702D01*
X50670049Y-116413062D01*
X50465920Y-116523531D01*
X50282763Y-116666087D01*
X50125568Y-116836848D01*
X49998624Y-117031150D01*
X49905392Y-117243696D01*
X49848413Y-117468700D01*
X49829247Y-117699999D01*
X23910048Y-117699999D01*
X23910048Y-115380000D01*
X32614207Y-115380000D01*
X32633541Y-115625656D01*
X32691064Y-115865261D01*
X32738214Y-115979091D01*
X32785364Y-116092920D01*
X32914115Y-116303023D01*
X33074149Y-116490399D01*
X33261525Y-116650433D01*
X33471628Y-116779184D01*
X33699286Y-116873483D01*
X33938893Y-116931007D01*
X34184548Y-116950341D01*
X34430203Y-116931007D01*
X34669810Y-116873483D01*
X34897468Y-116779184D01*
X35107571Y-116650433D01*
X35294947Y-116490399D01*
X35454981Y-116303023D01*
X35583732Y-116092920D01*
X35678031Y-115865262D01*
X35735555Y-115625655D01*
X35754889Y-115380000D01*
X72564207Y-115380000D01*
X72583541Y-115625656D01*
X72641064Y-115865261D01*
X72688214Y-115979091D01*
X72735364Y-116092920D01*
X72864115Y-116303023D01*
X73024149Y-116490399D01*
X73211525Y-116650433D01*
X73421628Y-116779184D01*
X73649286Y-116873483D01*
X73888893Y-116931007D01*
X74134548Y-116950341D01*
X74380203Y-116931007D01*
X74619810Y-116873483D01*
X74847468Y-116779184D01*
X75057571Y-116650433D01*
X75244947Y-116490399D01*
X75404981Y-116303023D01*
X75533732Y-116092920D01*
X75628031Y-115865262D01*
X75685555Y-115625655D01*
X75704889Y-115380000D01*
X75685555Y-115134345D01*
X75628031Y-114894738D01*
X75533732Y-114667080D01*
X75404981Y-114456977D01*
X75244947Y-114269601D01*
X75057571Y-114109567D01*
X74847468Y-113980816D01*
X74733638Y-113933666D01*
X74619809Y-113886516D01*
X74380204Y-113828993D01*
X74134548Y-113809659D01*
X73888891Y-113828993D01*
X73649286Y-113886516D01*
X73421626Y-113980817D01*
X73211526Y-114109566D01*
X73024149Y-114269601D01*
X72864114Y-114456978D01*
X72735365Y-114667078D01*
X72641064Y-114894738D01*
X72583541Y-115134343D01*
X72564207Y-115380000D01*
X35754889Y-115380000D01*
X35735555Y-115134345D01*
X35678031Y-114894738D01*
X35583732Y-114667080D01*
X35454981Y-114456977D01*
X35294947Y-114269601D01*
X35107571Y-114109567D01*
X34897468Y-113980816D01*
X34783638Y-113933666D01*
X34669809Y-113886516D01*
X34430204Y-113828993D01*
X34184548Y-113809659D01*
X33938891Y-113828993D01*
X33699286Y-113886516D01*
X33471626Y-113980817D01*
X33261526Y-114109566D01*
X33074149Y-114269601D01*
X32914114Y-114456978D01*
X32785365Y-114667078D01*
X32691064Y-114894738D01*
X32633541Y-115134343D01*
X32614207Y-115380000D01*
X23910048Y-115380000D01*
X23910048Y-110459999D01*
X32679407Y-110459999D01*
X32681203Y-110533528D01*
X32713397Y-110778070D01*
X32753510Y-110910094D01*
X32785103Y-111014079D01*
X32894390Y-111235205D01*
X33038325Y-111435512D01*
X33213043Y-111609621D01*
X33413851Y-111752856D01*
X33635357Y-111861370D01*
X33871612Y-111932250D01*
X34116270Y-111963592D01*
X34362763Y-111954553D01*
X34604469Y-111905377D01*
X34834898Y-111817385D01*
X35047861Y-111692939D01*
X35237640Y-111535382D01*
X35399137Y-111348945D01*
X35528016Y-111138634D01*
X35620814Y-110910099D01*
X35668162Y-110699999D01*
X46829103Y-110699999D01*
X46848859Y-111014010D01*
X46907817Y-111323082D01*
X47005043Y-111622310D01*
X47139011Y-111907007D01*
X47307601Y-112172663D01*
X47508160Y-112415097D01*
X47737519Y-112630480D01*
X47992063Y-112815416D01*
X48129922Y-112891204D01*
X48267782Y-112966994D01*
X48414052Y-113024906D01*
X48560322Y-113082819D01*
X48665599Y-113109849D01*
X48865075Y-113161066D01*
X49098360Y-113190536D01*
X49177228Y-113200500D01*
X49177230Y-113200500D01*
X49491866Y-113200500D01*
X49491868Y-113200500D01*
X49561889Y-113191653D01*
X49804021Y-113161066D01*
X50108773Y-113082819D01*
X50401314Y-112966994D01*
X50677032Y-112815416D01*
X50677031Y-112815416D01*
X50931576Y-112630480D01*
X51160935Y-112415097D01*
X51160935Y-112415096D01*
X51160938Y-112415094D01*
X51361495Y-112172663D01*
X51530085Y-111907007D01*
X51664051Y-111622315D01*
X51761279Y-111323079D01*
X51820236Y-111014015D01*
X51839992Y-110700000D01*
X51839992Y-110699999D01*
X55629103Y-110699999D01*
X55648859Y-111014010D01*
X55707817Y-111323082D01*
X55805043Y-111622310D01*
X55939011Y-111907007D01*
X56107601Y-112172663D01*
X56308160Y-112415097D01*
X56537519Y-112630480D01*
X56792063Y-112815416D01*
X56929922Y-112891204D01*
X57067782Y-112966994D01*
X57214052Y-113024906D01*
X57360322Y-113082819D01*
X57465599Y-113109849D01*
X57665075Y-113161066D01*
X57898360Y-113190536D01*
X57977228Y-113200500D01*
X57977230Y-113200500D01*
X58291866Y-113200500D01*
X58291868Y-113200500D01*
X58361889Y-113191653D01*
X58604021Y-113161066D01*
X58908773Y-113082819D01*
X59201314Y-112966994D01*
X59477032Y-112815416D01*
X59477031Y-112815416D01*
X59731576Y-112630480D01*
X59960935Y-112415097D01*
X59960935Y-112415096D01*
X59960938Y-112415094D01*
X60161495Y-112172663D01*
X60330085Y-111907007D01*
X60464051Y-111622315D01*
X60561279Y-111323079D01*
X60620236Y-111014015D01*
X60639992Y-110700000D01*
X60638071Y-110669474D01*
X60636040Y-110637197D01*
X60624892Y-110459999D01*
X72629407Y-110459999D01*
X72631203Y-110533528D01*
X72663397Y-110778070D01*
X72703510Y-110910094D01*
X72735103Y-111014079D01*
X72844390Y-111235205D01*
X72988325Y-111435512D01*
X73163043Y-111609621D01*
X73363851Y-111752856D01*
X73585357Y-111861370D01*
X73821612Y-111932250D01*
X74066270Y-111963592D01*
X74312763Y-111954553D01*
X74554469Y-111905377D01*
X74784898Y-111817385D01*
X74997861Y-111692939D01*
X75187640Y-111535382D01*
X75349137Y-111348945D01*
X75478016Y-111138634D01*
X75570814Y-110910099D01*
X75625041Y-110669475D01*
X75639240Y-110423226D01*
X75613029Y-110177965D01*
X75613029Y-110177963D01*
X75547112Y-109940276D01*
X75458205Y-109748744D01*
X75443260Y-109716548D01*
X75304262Y-109512784D01*
X75285349Y-109492993D01*
X75133852Y-109334458D01*
X75015603Y-109245675D01*
X74936602Y-109186360D01*
X74920577Y-109178018D01*
X74717815Y-109072466D01*
X74483359Y-108995834D01*
X74239544Y-108958525D01*
X74239541Y-108958525D01*
X74147051Y-108959655D01*
X73992897Y-108961539D01*
X73750067Y-109004792D01*
X73558968Y-109072466D01*
X73517556Y-109087131D01*
X73337804Y-109186359D01*
X73301614Y-109206337D01*
X73108044Y-109359209D01*
X72942041Y-109541644D01*
X72808060Y-109748747D01*
X72709706Y-109974943D01*
X72649617Y-110214169D01*
X72629407Y-110459999D01*
X60624892Y-110459999D01*
X60620236Y-110385985D01*
X60561279Y-110076921D01*
X60464051Y-109777685D01*
X60330085Y-109492993D01*
X60161495Y-109227337D01*
X59977389Y-109004792D01*
X59960935Y-108984902D01*
X59731576Y-108769519D01*
X59477032Y-108584583D01*
X59201312Y-108433005D01*
X58908773Y-108317180D01*
X58604022Y-108238934D01*
X58291868Y-108199500D01*
X58291866Y-108199500D01*
X57977230Y-108199500D01*
X57977228Y-108199500D01*
X57665073Y-108238934D01*
X57360322Y-108317180D01*
X57067783Y-108433005D01*
X56792063Y-108584583D01*
X56537519Y-108769519D01*
X56308160Y-108984902D01*
X56107601Y-109227336D01*
X55939011Y-109492992D01*
X55805043Y-109777689D01*
X55707817Y-110076917D01*
X55648859Y-110385989D01*
X55629103Y-110699999D01*
X51839992Y-110699999D01*
X51838071Y-110669474D01*
X51836040Y-110637197D01*
X51820236Y-110385985D01*
X51761279Y-110076921D01*
X51664051Y-109777685D01*
X51530085Y-109492993D01*
X51361495Y-109227337D01*
X51177389Y-109004792D01*
X51160935Y-108984902D01*
X50931576Y-108769519D01*
X50677032Y-108584583D01*
X50401312Y-108433005D01*
X50108773Y-108317180D01*
X49804022Y-108238934D01*
X49491868Y-108199500D01*
X49491866Y-108199500D01*
X49177230Y-108199500D01*
X49177228Y-108199500D01*
X48865073Y-108238934D01*
X48560322Y-108317180D01*
X48267783Y-108433005D01*
X47992063Y-108584583D01*
X47737519Y-108769519D01*
X47508160Y-108984902D01*
X47307601Y-109227336D01*
X47139011Y-109492992D01*
X47005043Y-109777689D01*
X46907817Y-110076917D01*
X46848859Y-110385989D01*
X46829103Y-110699999D01*
X35668162Y-110699999D01*
X35675041Y-110669475D01*
X35689240Y-110423226D01*
X35663029Y-110177965D01*
X35663029Y-110177963D01*
X35597112Y-109940276D01*
X35508205Y-109748744D01*
X35493260Y-109716548D01*
X35354262Y-109512784D01*
X35335349Y-109492993D01*
X35183852Y-109334458D01*
X35065603Y-109245675D01*
X34986602Y-109186360D01*
X34970577Y-109178018D01*
X34767815Y-109072466D01*
X34533359Y-108995834D01*
X34289544Y-108958525D01*
X34289541Y-108958525D01*
X34197051Y-108959655D01*
X34042897Y-108961539D01*
X33800067Y-109004792D01*
X33608968Y-109072466D01*
X33567556Y-109087131D01*
X33387804Y-109186359D01*
X33351614Y-109206337D01*
X33158044Y-109359209D01*
X32992041Y-109541644D01*
X32858060Y-109748747D01*
X32759706Y-109974943D01*
X32699617Y-110214169D01*
X32679407Y-110459999D01*
X23910048Y-110459999D01*
X23910048Y-107079999D01*
X32614207Y-107079999D01*
X32633541Y-107325656D01*
X32691064Y-107565261D01*
X32738214Y-107679090D01*
X32785364Y-107792920D01*
X32914115Y-108003023D01*
X33074149Y-108190399D01*
X33261525Y-108350433D01*
X33471628Y-108479184D01*
X33699286Y-108573483D01*
X33938893Y-108631007D01*
X34184548Y-108650341D01*
X34430203Y-108631007D01*
X34669810Y-108573483D01*
X34897468Y-108479184D01*
X35107571Y-108350433D01*
X35294947Y-108190399D01*
X35454981Y-108003023D01*
X35583732Y-107792920D01*
X35678031Y-107565262D01*
X35735555Y-107325655D01*
X35754889Y-107080000D01*
X35754889Y-107079999D01*
X72564207Y-107079999D01*
X72583541Y-107325656D01*
X72641064Y-107565261D01*
X72688214Y-107679090D01*
X72735364Y-107792920D01*
X72864115Y-108003023D01*
X73024149Y-108190399D01*
X73211525Y-108350433D01*
X73421628Y-108479184D01*
X73649286Y-108573483D01*
X73888893Y-108631007D01*
X74134548Y-108650341D01*
X74380203Y-108631007D01*
X74619810Y-108573483D01*
X74847468Y-108479184D01*
X75057571Y-108350433D01*
X75244947Y-108190399D01*
X75404981Y-108003023D01*
X75533732Y-107792920D01*
X75628031Y-107565262D01*
X75685555Y-107325655D01*
X75704889Y-107080000D01*
X75685555Y-106834345D01*
X75628031Y-106594738D01*
X75533732Y-106367080D01*
X75404981Y-106156977D01*
X75352255Y-106095243D01*
X75324167Y-106034694D01*
X75331539Y-105968353D01*
X75372236Y-105915446D01*
X75456736Y-105852188D01*
X75542900Y-105737089D01*
X75593145Y-105602375D01*
X75599548Y-105542824D01*
X75599548Y-104830000D01*
X72669548Y-104830000D01*
X72669548Y-105542824D01*
X72675950Y-105602375D01*
X72726195Y-105737089D01*
X72812358Y-105852188D01*
X72896859Y-105915445D01*
X72937555Y-105968351D01*
X72944928Y-106034691D01*
X72916840Y-106095242D01*
X72864116Y-106156975D01*
X72864114Y-106156977D01*
X72864115Y-106156977D01*
X72735364Y-106367080D01*
X72735363Y-106367083D01*
X72641064Y-106594738D01*
X72583541Y-106834343D01*
X72564207Y-107079999D01*
X35754889Y-107079999D01*
X35735555Y-106834345D01*
X35678031Y-106594738D01*
X35583732Y-106367080D01*
X35454981Y-106156977D01*
X35402255Y-106095243D01*
X35374167Y-106034694D01*
X35381539Y-105968353D01*
X35422236Y-105915446D01*
X35506736Y-105852188D01*
X35592900Y-105737089D01*
X35643145Y-105602375D01*
X35649548Y-105542824D01*
X35649548Y-104830000D01*
X32719548Y-104830000D01*
X32719548Y-105542824D01*
X32725950Y-105602375D01*
X32776195Y-105737089D01*
X32862358Y-105852188D01*
X32946859Y-105915445D01*
X32987555Y-105968351D01*
X32994928Y-106034691D01*
X32966840Y-106095242D01*
X32914116Y-106156975D01*
X32914114Y-106156977D01*
X32914115Y-106156977D01*
X32785364Y-106367080D01*
X32785363Y-106367083D01*
X32691064Y-106594738D01*
X32633541Y-106834343D01*
X32614207Y-107079999D01*
X23910048Y-107079999D01*
X23910048Y-104330000D01*
X32719548Y-104330000D01*
X33934548Y-104330000D01*
X33934548Y-103165000D01*
X34434548Y-103165000D01*
X34434548Y-104330000D01*
X35649548Y-104330000D01*
X72669548Y-104330000D01*
X73884548Y-104330000D01*
X73884548Y-103165000D01*
X74384548Y-103165000D01*
X74384548Y-104330000D01*
X75599548Y-104330000D01*
X75599548Y-103617176D01*
X75593145Y-103557624D01*
X75542900Y-103422910D01*
X75456736Y-103307811D01*
X75341637Y-103221647D01*
X75206923Y-103171402D01*
X75147372Y-103165000D01*
X74384548Y-103165000D01*
X73884548Y-103165000D01*
X73121724Y-103165000D01*
X73062172Y-103171402D01*
X72927458Y-103221647D01*
X72812359Y-103307811D01*
X72726195Y-103422910D01*
X72675950Y-103557624D01*
X72669548Y-103617176D01*
X72669548Y-104330000D01*
X35649548Y-104330000D01*
X35649548Y-103617176D01*
X35643145Y-103557624D01*
X35592900Y-103422910D01*
X35506736Y-103307811D01*
X35391637Y-103221647D01*
X35256923Y-103171402D01*
X35197372Y-103165000D01*
X34434548Y-103165000D01*
X33934548Y-103165000D01*
X33171724Y-103165000D01*
X33112172Y-103171402D01*
X32977458Y-103221647D01*
X32862359Y-103307811D01*
X32776195Y-103422910D01*
X32725950Y-103557624D01*
X32719548Y-103617176D01*
X32719548Y-104330000D01*
X23910048Y-104330000D01*
X23910048Y-101750000D01*
X58494815Y-101750000D01*
X58513503Y-101927804D01*
X58568749Y-102097835D01*
X58658140Y-102252665D01*
X58777771Y-102385527D01*
X58922403Y-102490610D01*
X59085735Y-102563330D01*
X59260607Y-102600500D01*
X59260609Y-102600500D01*
X59439391Y-102600500D01*
X59439393Y-102600500D01*
X59614264Y-102563330D01*
X59614265Y-102563329D01*
X59614267Y-102563329D01*
X59777593Y-102490612D01*
X59922230Y-102385526D01*
X59935340Y-102370965D01*
X59993309Y-102334741D01*
X60061668Y-102334740D01*
X60119637Y-102370963D01*
X60177770Y-102435526D01*
X60225982Y-102470554D01*
X60322403Y-102540610D01*
X60485735Y-102613330D01*
X60660607Y-102650500D01*
X60660609Y-102650500D01*
X60839391Y-102650500D01*
X60839393Y-102650500D01*
X61014264Y-102613330D01*
X61014265Y-102613329D01*
X61014267Y-102613329D01*
X61177593Y-102540612D01*
X61322230Y-102435526D01*
X61336248Y-102419956D01*
X61385985Y-102386407D01*
X61445654Y-102380135D01*
X61501283Y-102402609D01*
X61546588Y-102435526D01*
X61622407Y-102490612D01*
X61785735Y-102563330D01*
X61960607Y-102600500D01*
X61960609Y-102600500D01*
X62139391Y-102600500D01*
X62139393Y-102600500D01*
X62314264Y-102563330D01*
X62314265Y-102563329D01*
X62314267Y-102563329D01*
X62477593Y-102490612D01*
X62622230Y-102385526D01*
X62741859Y-102252665D01*
X62831250Y-102097835D01*
X62886497Y-101927803D01*
X62905185Y-101750000D01*
X62886497Y-101572197D01*
X62831250Y-101402165D01*
X62831250Y-101402164D01*
X62817113Y-101377678D01*
X62800500Y-101315678D01*
X62800500Y-99884322D01*
X62817113Y-99822322D01*
X62831250Y-99797835D01*
X62879988Y-99647835D01*
X62886497Y-99627803D01*
X62905185Y-99450000D01*
X62886497Y-99272197D01*
X62831250Y-99102165D01*
X62831250Y-99102164D01*
X62741859Y-98947334D01*
X62622228Y-98814472D01*
X62477596Y-98709389D01*
X62314264Y-98636669D01*
X62139393Y-98599500D01*
X62139391Y-98599500D01*
X61960609Y-98599500D01*
X61960607Y-98599500D01*
X61785735Y-98636669D01*
X61622408Y-98709387D01*
X61477769Y-98814474D01*
X61463748Y-98830046D01*
X61414008Y-98863594D01*
X61354341Y-98869864D01*
X61298714Y-98847388D01*
X61177596Y-98759389D01*
X61014264Y-98686669D01*
X60839393Y-98649500D01*
X60839391Y-98649500D01*
X60660609Y-98649500D01*
X60660607Y-98649500D01*
X60485735Y-98686669D01*
X60322405Y-98759388D01*
X60220744Y-98833250D01*
X60156508Y-98856630D01*
X60089643Y-98842417D01*
X60051828Y-98805898D01*
X60050581Y-98807021D01*
X59942216Y-98686671D01*
X59922230Y-98664474D01*
X59922229Y-98664473D01*
X59922228Y-98664472D01*
X59777596Y-98559389D01*
X59614264Y-98486669D01*
X59439393Y-98449500D01*
X59439391Y-98449500D01*
X59260609Y-98449500D01*
X59260607Y-98449500D01*
X59085735Y-98486669D01*
X58922408Y-98559387D01*
X58777768Y-98664474D01*
X58658140Y-98797334D01*
X58568749Y-98952164D01*
X58513503Y-99122195D01*
X58494815Y-99300000D01*
X58513503Y-99477804D01*
X58568749Y-99647835D01*
X58658140Y-99802664D01*
X58667649Y-99813225D01*
X58691264Y-99851760D01*
X58699500Y-99896198D01*
X58699500Y-101153802D01*
X58691264Y-101198240D01*
X58667649Y-101236775D01*
X58658140Y-101247335D01*
X58568749Y-101402164D01*
X58513503Y-101572195D01*
X58494815Y-101750000D01*
X23910048Y-101750000D01*
X23910048Y-88900000D01*
X46294815Y-88900000D01*
X46313503Y-89077804D01*
X46368749Y-89247835D01*
X46458140Y-89402665D01*
X46577771Y-89535527D01*
X46722403Y-89640610D01*
X46722406Y-89640611D01*
X46722407Y-89640612D01*
X46781842Y-89667074D01*
X46885735Y-89713330D01*
X47060607Y-89750500D01*
X47060609Y-89750500D01*
X47239391Y-89750500D01*
X47239393Y-89750500D01*
X47414264Y-89713330D01*
X47414265Y-89713329D01*
X47414267Y-89713329D01*
X47577593Y-89640612D01*
X47669024Y-89574182D01*
X47703592Y-89556569D01*
X47741911Y-89550500D01*
X48299274Y-89550500D01*
X48361274Y-89567113D01*
X48406661Y-89612500D01*
X48423274Y-89674500D01*
X48406661Y-89736500D01*
X48368749Y-89802164D01*
X48313503Y-89972195D01*
X48294815Y-90150000D01*
X48313503Y-90327804D01*
X48368749Y-90497835D01*
X48458140Y-90652664D01*
X48467649Y-90663225D01*
X48491264Y-90701760D01*
X48499500Y-90746198D01*
X48499500Y-95114495D01*
X48497158Y-95135704D01*
X48499439Y-95208262D01*
X48499500Y-95212157D01*
X48499500Y-95240926D01*
X48500053Y-95245307D01*
X48500968Y-95256940D01*
X48502402Y-95302569D01*
X48508323Y-95322950D01*
X48512267Y-95341995D01*
X48514928Y-95363059D01*
X48531737Y-95405515D01*
X48535520Y-95416563D01*
X48548256Y-95460400D01*
X48559061Y-95478670D01*
X48567621Y-95496143D01*
X48575431Y-95515869D01*
X48602267Y-95552808D01*
X48608673Y-95562560D01*
X48631919Y-95601865D01*
X48631921Y-95601867D01*
X48646925Y-95616871D01*
X48659564Y-95631669D01*
X48672037Y-95648837D01*
X48707212Y-95677936D01*
X48715854Y-95685800D01*
X49071371Y-96041317D01*
X49095610Y-96075614D01*
X49107011Y-96116035D01*
X49113503Y-96177804D01*
X49168749Y-96347835D01*
X49258140Y-96502665D01*
X49377771Y-96635527D01*
X49522403Y-96740610D01*
X49685735Y-96813330D01*
X49860607Y-96850500D01*
X49860609Y-96850500D01*
X50039391Y-96850500D01*
X50039393Y-96850500D01*
X50214264Y-96813330D01*
X50214265Y-96813329D01*
X50214267Y-96813329D01*
X50377593Y-96740612D01*
X50522230Y-96635526D01*
X50641859Y-96502665D01*
X50731250Y-96347835D01*
X50779285Y-96199999D01*
X56444815Y-96199999D01*
X56463503Y-96377804D01*
X56518749Y-96547835D01*
X56608140Y-96702665D01*
X56727771Y-96835527D01*
X56872403Y-96940610D01*
X57035734Y-97013330D01*
X57178995Y-97043780D01*
X57200010Y-97048247D01*
X57233396Y-97060564D01*
X57261910Y-97081856D01*
X58079564Y-97899510D01*
X58092912Y-97916169D01*
X58145831Y-97965864D01*
X58148628Y-97968575D01*
X58168962Y-97988909D01*
X58172443Y-97991609D01*
X58181326Y-97999195D01*
X58214607Y-98030448D01*
X58233198Y-98040668D01*
X58249462Y-98051351D01*
X58266235Y-98064362D01*
X58308138Y-98082495D01*
X58318626Y-98087633D01*
X58358632Y-98109627D01*
X58379197Y-98114906D01*
X58397593Y-98121205D01*
X58417074Y-98129636D01*
X58462178Y-98136779D01*
X58473597Y-98139144D01*
X58517823Y-98150500D01*
X58539045Y-98150500D01*
X58558443Y-98152026D01*
X58579405Y-98155347D01*
X58624863Y-98151049D01*
X58636531Y-98150500D01*
X68108089Y-98150500D01*
X68146408Y-98156569D01*
X68180975Y-98174182D01*
X68272407Y-98240612D01*
X68435735Y-98313330D01*
X68610607Y-98350500D01*
X68610609Y-98350500D01*
X68789391Y-98350500D01*
X68789393Y-98350500D01*
X68964264Y-98313330D01*
X68964265Y-98313329D01*
X68964267Y-98313329D01*
X69127593Y-98240612D01*
X69272230Y-98135526D01*
X69391859Y-98002665D01*
X69481250Y-97847835D01*
X69536497Y-97677803D01*
X69555185Y-97500000D01*
X69536497Y-97322197D01*
X69481250Y-97152165D01*
X69481250Y-97152164D01*
X69391859Y-96997334D01*
X69272228Y-96864472D01*
X69127596Y-96759389D01*
X68964264Y-96686669D01*
X68789393Y-96649500D01*
X68789391Y-96649500D01*
X68610609Y-96649500D01*
X68610607Y-96649500D01*
X68435735Y-96686669D01*
X68272408Y-96759387D01*
X68180975Y-96825818D01*
X68146407Y-96843431D01*
X68108089Y-96849500D01*
X58920808Y-96849500D01*
X58873355Y-96840061D01*
X58833127Y-96813181D01*
X58178628Y-96158682D01*
X58154388Y-96124384D01*
X58142988Y-96083961D01*
X58136497Y-96022195D01*
X58081250Y-95852164D01*
X57991859Y-95697334D01*
X57872228Y-95564472D01*
X57727596Y-95459389D01*
X57564264Y-95386669D01*
X57389393Y-95349500D01*
X57389391Y-95349500D01*
X57210609Y-95349500D01*
X57210607Y-95349500D01*
X57035735Y-95386669D01*
X56872408Y-95459387D01*
X56727768Y-95564474D01*
X56608140Y-95697334D01*
X56518749Y-95852164D01*
X56463503Y-96022195D01*
X56444815Y-96199999D01*
X50779285Y-96199999D01*
X50786497Y-96177803D01*
X50805185Y-96000000D01*
X50786497Y-95822197D01*
X50745927Y-95697335D01*
X50731250Y-95652164D01*
X50641859Y-95497334D01*
X50522228Y-95364472D01*
X50377596Y-95259389D01*
X50214264Y-95186669D01*
X50049989Y-95151752D01*
X50016602Y-95139435D01*
X49988089Y-95118143D01*
X49836819Y-94966873D01*
X49809939Y-94926645D01*
X49800500Y-94879192D01*
X49800500Y-92150000D01*
X57294815Y-92150000D01*
X57313503Y-92327804D01*
X57368749Y-92497835D01*
X57458140Y-92652665D01*
X57577771Y-92785527D01*
X57722403Y-92890610D01*
X57885735Y-92963330D01*
X58060607Y-93000500D01*
X58060609Y-93000500D01*
X58239391Y-93000500D01*
X58239393Y-93000500D01*
X58414264Y-92963330D01*
X58414265Y-92963329D01*
X58414267Y-92963329D01*
X58577593Y-92890612D01*
X58722230Y-92785526D01*
X58841859Y-92652665D01*
X58931250Y-92497835D01*
X58986497Y-92327803D01*
X59005185Y-92150000D01*
X58986497Y-91972197D01*
X58931250Y-91802165D01*
X58931250Y-91802164D01*
X58841859Y-91647335D01*
X58832351Y-91636775D01*
X58808736Y-91598240D01*
X58800500Y-91553802D01*
X58800500Y-91147869D01*
X80174500Y-91147869D01*
X80180909Y-91207483D01*
X80231204Y-91342331D01*
X80317454Y-91457546D01*
X80432669Y-91543796D01*
X80567517Y-91594091D01*
X80627127Y-91600500D01*
X82422872Y-91600499D01*
X82482483Y-91594091D01*
X82617331Y-91543796D01*
X82732546Y-91457546D01*
X82818796Y-91342331D01*
X82869091Y-91207483D01*
X82875500Y-91147873D01*
X82875499Y-89352128D01*
X82869091Y-89292517D01*
X82818796Y-89157669D01*
X82732546Y-89042454D01*
X82617331Y-88956204D01*
X82485399Y-88906996D01*
X82435021Y-88872018D01*
X82407568Y-88817173D01*
X82409757Y-88755880D01*
X82441053Y-88703133D01*
X82563109Y-88581077D01*
X82698600Y-88387576D01*
X82798430Y-88173492D01*
X82855636Y-87960000D01*
X80194364Y-87960000D01*
X80251569Y-88173492D01*
X80351399Y-88387576D01*
X80486893Y-88581081D01*
X80608946Y-88703134D01*
X80640242Y-88755880D01*
X80642431Y-88817173D01*
X80614978Y-88872018D01*
X80564599Y-88906997D01*
X80432669Y-88956204D01*
X80317454Y-89042454D01*
X80231204Y-89157668D01*
X80180909Y-89292516D01*
X80174500Y-89352130D01*
X80174500Y-91147869D01*
X58800500Y-91147869D01*
X58800500Y-90423477D01*
X58814015Y-90367183D01*
X58851612Y-90323160D01*
X58972230Y-90235526D01*
X59091859Y-90102665D01*
X59181250Y-89947835D01*
X59236497Y-89777803D01*
X59255185Y-89600000D01*
X59236497Y-89422197D01*
X59181250Y-89252165D01*
X59181250Y-89252164D01*
X59091859Y-89097334D01*
X58972228Y-88964472D01*
X58827596Y-88859389D01*
X58664264Y-88786669D01*
X58489393Y-88749500D01*
X58489391Y-88749500D01*
X58310609Y-88749500D01*
X58310607Y-88749500D01*
X58135735Y-88786669D01*
X57972408Y-88859387D01*
X57827768Y-88964474D01*
X57708140Y-89097334D01*
X57618749Y-89252164D01*
X57563503Y-89422195D01*
X57563502Y-89422197D01*
X57563503Y-89422197D01*
X57551592Y-89535527D01*
X57547309Y-89576273D01*
X57544091Y-89594154D01*
X57535091Y-89629200D01*
X57528791Y-89647600D01*
X57520364Y-89667074D01*
X57513223Y-89712161D01*
X57510855Y-89723598D01*
X57499500Y-89767824D01*
X57499500Y-89789045D01*
X57497973Y-89808444D01*
X57494653Y-89829403D01*
X57498950Y-89874861D01*
X57499500Y-89886530D01*
X57499500Y-91553802D01*
X57491264Y-91598240D01*
X57467649Y-91636775D01*
X57458140Y-91647335D01*
X57368749Y-91802164D01*
X57313503Y-91972195D01*
X57294815Y-92150000D01*
X49800500Y-92150000D01*
X49800500Y-90746198D01*
X49808736Y-90701760D01*
X49832351Y-90663225D01*
X49834286Y-90661075D01*
X49841859Y-90652665D01*
X49931250Y-90497835D01*
X49986497Y-90327803D01*
X50005185Y-90150000D01*
X49986497Y-89972197D01*
X49956761Y-89880678D01*
X49931250Y-89802164D01*
X49841859Y-89647335D01*
X49806417Y-89607973D01*
X49778249Y-89554999D01*
X49778249Y-89495001D01*
X49806417Y-89442027D01*
X49824274Y-89422195D01*
X49841859Y-89402665D01*
X49931250Y-89247835D01*
X49986497Y-89077803D01*
X50005185Y-88900000D01*
X49986497Y-88722197D01*
X49957840Y-88634001D01*
X49931250Y-88552164D01*
X49841859Y-88397334D01*
X49722228Y-88264472D01*
X49577596Y-88159389D01*
X49414264Y-88086669D01*
X49239393Y-88049500D01*
X49239391Y-88049500D01*
X49060609Y-88049500D01*
X49060607Y-88049500D01*
X48885735Y-88086669D01*
X48722408Y-88159387D01*
X48630975Y-88225818D01*
X48596407Y-88243431D01*
X48558089Y-88249500D01*
X47741911Y-88249500D01*
X47703592Y-88243431D01*
X47669025Y-88225818D01*
X47577592Y-88159387D01*
X47414264Y-88086669D01*
X47239393Y-88049500D01*
X47239391Y-88049500D01*
X47060609Y-88049500D01*
X47060607Y-88049500D01*
X46885735Y-88086669D01*
X46722408Y-88159387D01*
X46577768Y-88264474D01*
X46458140Y-88397334D01*
X46368749Y-88552164D01*
X46313503Y-88722195D01*
X46294815Y-88900000D01*
X23910048Y-88900000D01*
X23910048Y-87460000D01*
X80194364Y-87460000D01*
X81275000Y-87460000D01*
X81275000Y-86379364D01*
X81775000Y-86379364D01*
X81775000Y-87460000D01*
X82855636Y-87460000D01*
X82855635Y-87459999D01*
X82798430Y-87246507D01*
X82698599Y-87032421D01*
X82563109Y-86838921D01*
X82396081Y-86671893D01*
X82202576Y-86536399D01*
X81988492Y-86436569D01*
X81775000Y-86379364D01*
X81275000Y-86379364D01*
X81274999Y-86379364D01*
X81061507Y-86436569D01*
X80847421Y-86536400D01*
X80653921Y-86671890D01*
X80486890Y-86838921D01*
X80351400Y-87032421D01*
X80251569Y-87246507D01*
X80194364Y-87459999D01*
X80194364Y-87460000D01*
X23910048Y-87460000D01*
X23910048Y-86099999D01*
X54344815Y-86099999D01*
X54363503Y-86277804D01*
X54418749Y-86447835D01*
X54508140Y-86602665D01*
X54627771Y-86735527D01*
X54772403Y-86840610D01*
X54935735Y-86913330D01*
X55110607Y-86950500D01*
X55110609Y-86950500D01*
X55289391Y-86950500D01*
X55289393Y-86950500D01*
X55464264Y-86913330D01*
X55464265Y-86913329D01*
X55464267Y-86913329D01*
X55581306Y-86861219D01*
X55631741Y-86850500D01*
X58668259Y-86850500D01*
X58718694Y-86861220D01*
X58835735Y-86913330D01*
X59010607Y-86950500D01*
X59010609Y-86950500D01*
X59189391Y-86950500D01*
X59189393Y-86950500D01*
X59364264Y-86913330D01*
X59364265Y-86913329D01*
X59364267Y-86913329D01*
X59527593Y-86840612D01*
X59529921Y-86838921D01*
X59568659Y-86810774D01*
X59672230Y-86735526D01*
X59791859Y-86602665D01*
X59881250Y-86447835D01*
X59936497Y-86277803D01*
X59955185Y-86100000D01*
X59936497Y-85922197D01*
X59881250Y-85752165D01*
X59881250Y-85752164D01*
X59791859Y-85597334D01*
X59672228Y-85464472D01*
X59527596Y-85359389D01*
X59364264Y-85286669D01*
X59189393Y-85249500D01*
X59189391Y-85249500D01*
X59010609Y-85249500D01*
X59010607Y-85249500D01*
X58835735Y-85286669D01*
X58718694Y-85338780D01*
X58668259Y-85349500D01*
X55631741Y-85349500D01*
X55581306Y-85338780D01*
X55464264Y-85286669D01*
X55289393Y-85249500D01*
X55289391Y-85249500D01*
X55110609Y-85249500D01*
X55110607Y-85249500D01*
X54935735Y-85286669D01*
X54772408Y-85359387D01*
X54627768Y-85464474D01*
X54508140Y-85597334D01*
X54418749Y-85752164D01*
X54363503Y-85922195D01*
X54344815Y-86099999D01*
X23910048Y-86099999D01*
X23910048Y-17935700D01*
X23926661Y-17873700D01*
X23972048Y-17828313D01*
X24034048Y-17811700D01*
X84285048Y-17811700D01*
X84347048Y-17828313D01*
G37*
%TD.AperFunction*%
%TD*%
M02*
