(kicad_sch (version 20230121) (generator eeschema)

  (uuid dad1536b-7795-4ed1-9570-288544778227)

  (paper "A4")

  (lib_symbols
    (symbol "Amplifier_Operational:TL072" (pin_names (offset 0.127)) (in_bom yes) (on_board yes)
      (property "Reference" "U" (at 0 5.08 0)
        (effects (font (size 1.27 1.27)) (justify left))
      )
      (property "Value" "TL072" (at 0 -5.08 0)
        (effects (font (size 1.27 1.27)) (justify left))
      )
      (property "Footprint" "" (at 0 0 0)
        (effects (font (size 1.27 1.27)) hide)
      )
      (property "Datasheet" "http://www.ti.com/lit/ds/symlink/tl071.pdf" (at 0 0 0)
        (effects (font (size 1.27 1.27)) hide)
      )
      (property "ki_locked" "" (at 0 0 0)
        (effects (font (size 1.27 1.27)))
      )
      (property "ki_keywords" "dual opamp" (at 0 0 0)
        (effects (font (size 1.27 1.27)) hide)
      )
      (property "ki_description" "Dual Low-Noise JFET-Input Operational Amplifiers, DIP-8/SOIC-8" (at 0 0 0)
        (effects (font (size 1.27 1.27)) hide)
      )
      (property "ki_fp_filters" "SOIC*3.9x4.9mm*P1.27mm* DIP*W7.62mm* TO*99* OnSemi*Micro8* TSSOP*3x3mm*P0.65mm* TSSOP*4.4x3mm*P0.65mm* MSOP*3x3mm*P0.65mm* SSOP*3.9x4.9mm*P0.635mm* LFCSP*2x2mm*P0.5mm* *SIP* SOIC*5.3x6.2mm*P1.27mm*" (at 0 0 0)
        (effects (font (size 1.27 1.27)) hide)
      )
      (symbol "TL072_1_1"
        (polyline
          (pts
            (xy -5.08 5.08)
            (xy 5.08 0)
            (xy -5.08 -5.08)
            (xy -5.08 5.08)
          )
          (stroke (width 0.254) (type default))
          (fill (type background))
        )
        (pin output line (at 7.62 0 180) (length 2.54)
          (name "~" (effects (font (size 1.27 1.27))))
          (number "1" (effects (font (size 1.27 1.27))))
        )
        (pin input line (at -7.62 -2.54 0) (length 2.54)
          (name "-" (effects (font (size 1.27 1.27))))
          (number "2" (effects (font (size 1.27 1.27))))
        )
        (pin input line (at -7.62 2.54 0) (length 2.54)
          (name "+" (effects (font (size 1.27 1.27))))
          (number "3" (effects (font (size 1.27 1.27))))
        )
      )
      (symbol "TL072_2_1"
        (polyline
          (pts
            (xy -5.08 5.08)
            (xy 5.08 0)
            (xy -5.08 -5.08)
            (xy -5.08 5.08)
          )
          (stroke (width 0.254) (type default))
          (fill (type background))
        )
        (pin input line (at -7.62 2.54 0) (length 2.54)
          (name "+" (effects (font (size 1.27 1.27))))
          (number "5" (effects (font (size 1.27 1.27))))
        )
        (pin input line (at -7.62 -2.54 0) (length 2.54)
          (name "-" (effects (font (size 1.27 1.27))))
          (number "6" (effects (font (size 1.27 1.27))))
        )
        (pin output line (at 7.62 0 180) (length 2.54)
          (name "~" (effects (font (size 1.27 1.27))))
          (number "7" (effects (font (size 1.27 1.27))))
        )
      )
      (symbol "TL072_3_1"
        (pin power_in line (at -2.54 -7.62 90) (length 3.81)
          (name "V-" (effects (font (size 1.27 1.27))))
          (number "4" (effects (font (size 1.27 1.27))))
        )
        (pin power_in line (at -2.54 7.62 270) (length 3.81)
          (name "V+" (effects (font (size 1.27 1.27))))
          (number "8" (effects (font (size 1.27 1.27))))
        )
      )
    )
    (symbol "Connector_Audio:AudioJack2_SwitchT" (in_bom yes) (on_board yes)
      (property "Reference" "J" (at 0 8.89 0)
        (effects (font (size 1.27 1.27)))
      )
      (property "Value" "AudioJack2_SwitchT" (at 0 6.35 0)
        (effects (font (size 1.27 1.27)))
      )
      (property "Footprint" "" (at 0 0 0)
        (effects (font (size 1.27 1.27)) hide)
      )
      (property "Datasheet" "~" (at 0 0 0)
        (effects (font (size 1.27 1.27)) hide)
      )
      (property "ki_keywords" "audio jack receptacle mono headphones phone TS connector" (at 0 0 0)
        (effects (font (size 1.27 1.27)) hide)
      )
      (property "ki_description" "Audio Jack, 2 Poles (Mono / TS), Switched T Pole (Normalling)" (at 0 0 0)
        (effects (font (size 1.27 1.27)) hide)
      )
      (property "ki_fp_filters" "Jack*" (at 0 0 0)
        (effects (font (size 1.27 1.27)) hide)
      )
      (symbol "AudioJack2_SwitchT_0_1"
        (rectangle (start -2.54 0) (end -3.81 -2.54)
          (stroke (width 0.254) (type default))
          (fill (type outline))
        )
        (polyline
          (pts
            (xy 1.778 -0.254)
            (xy 2.032 -0.762)
          )
          (stroke (width 0) (type default))
          (fill (type none))
        )
        (polyline
          (pts
            (xy 0 0)
            (xy 0.635 -0.635)
            (xy 1.27 0)
            (xy 2.54 0)
          )
          (stroke (width 0.254) (type default))
          (fill (type none))
        )
        (polyline
          (pts
            (xy 2.54 -2.54)
            (xy 1.778 -2.54)
            (xy 1.778 -0.254)
            (xy 1.524 -0.762)
          )
          (stroke (width 0) (type default))
          (fill (type none))
        )
        (polyline
          (pts
            (xy 2.54 2.54)
            (xy -0.635 2.54)
            (xy -0.635 0)
            (xy -1.27 -0.635)
            (xy -1.905 0)
          )
          (stroke (width 0.254) (type default))
          (fill (type none))
        )
        (rectangle (start 2.54 3.81) (end -2.54 -5.08)
          (stroke (width 0.254) (type default))
          (fill (type background))
        )
      )
      (symbol "AudioJack2_SwitchT_1_1"
        (pin passive line (at 5.08 2.54 180) (length 2.54)
          (name "~" (effects (font (size 1.27 1.27))))
          (number "S" (effects (font (size 1.27 1.27))))
        )
        (pin passive line (at 5.08 0 180) (length 2.54)
          (name "~" (effects (font (size 1.27 1.27))))
          (number "T" (effects (font (size 1.27 1.27))))
        )
        (pin passive line (at 5.08 -2.54 180) (length 2.54)
          (name "~" (effects (font (size 1.27 1.27))))
          (number "TN" (effects (font (size 1.27 1.27))))
        )
      )
    )
    (symbol "Connector_Generic:Conn_01x02" (pin_names (offset 1.016) hide) (in_bom yes) (on_board yes)
      (property "Reference" "J" (at 0 2.54 0)
        (effects (font (size 1.27 1.27)))
      )
      (property "Value" "Conn_01x02" (at 0 -5.08 0)
        (effects (font (size 1.27 1.27)))
      )
      (property "Footprint" "" (at 0 0 0)
        (effects (font (size 1.27 1.27)) hide)
      )
      (property "Datasheet" "~" (at 0 0 0)
        (effects (font (size 1.27 1.27)) hide)
      )
      (property "ki_keywords" "connector" (at 0 0 0)
        (effects (font (size 1.27 1.27)) hide)
      )
      (property "ki_description" "Generic connector, single row, 01x02, script generated (kicad-library-utils/schlib/autogen/connector/)" (at 0 0 0)
        (effects (font (size 1.27 1.27)) hide)
      )
      (property "ki_fp_filters" "Connector*:*_1x??_*" (at 0 0 0)
        (effects (font (size 1.27 1.27)) hide)
      )
      (symbol "Conn_01x02_1_1"
        (rectangle (start -1.27 -2.413) (end 0 -2.667)
          (stroke (width 0.1524) (type default))
          (fill (type none))
        )
        (rectangle (start -1.27 0.127) (end 0 -0.127)
          (stroke (width 0.1524) (type default))
          (fill (type none))
        )
        (rectangle (start -1.27 1.27) (end 1.27 -3.81)
          (stroke (width 0.254) (type default))
          (fill (type background))
        )
        (pin passive line (at -5.08 0 0) (length 3.81)
          (name "Pin_1" (effects (font (size 1.27 1.27))))
          (number "1" (effects (font (size 1.27 1.27))))
        )
        (pin passive line (at -5.08 -2.54 0) (length 3.81)
          (name "Pin_2" (effects (font (size 1.27 1.27))))
          (number "2" (effects (font (size 1.27 1.27))))
        )
      )
    )
    (symbol "Connector_Generic:Conn_02x05_Odd_Even" (pin_names (offset 1.016) hide) (in_bom yes) (on_board yes)
      (property "Reference" "J" (at 1.27 7.62 0)
        (effects (font (size 1.27 1.27)))
      )
      (property "Value" "Conn_02x05_Odd_Even" (at 1.27 -7.62 0)
        (effects (font (size 1.27 1.27)))
      )
      (property "Footprint" "" (at 0 0 0)
        (effects (font (size 1.27 1.27)) hide)
      )
      (property "Datasheet" "~" (at 0 0 0)
        (effects (font (size 1.27 1.27)) hide)
      )
      (property "ki_keywords" "connector" (at 0 0 0)
        (effects (font (size 1.27 1.27)) hide)
      )
      (property "ki_description" "Generic connector, double row, 02x05, odd/even pin numbering scheme (row 1 odd numbers, row 2 even numbers), script generated (kicad-library-utils/schlib/autogen/connector/)" (at 0 0 0)
        (effects (font (size 1.27 1.27)) hide)
      )
      (property "ki_fp_filters" "Connector*:*_2x??_*" (at 0 0 0)
        (effects (font (size 1.27 1.27)) hide)
      )
      (symbol "Conn_02x05_Odd_Even_1_1"
        (rectangle (start -1.27 -4.953) (end 0 -5.207)
          (stroke (width 0.1524) (type default))
          (fill (type none))
        )
        (rectangle (start -1.27 -2.413) (end 0 -2.667)
          (stroke (width 0.1524) (type default))
          (fill (type none))
        )
        (rectangle (start -1.27 0.127) (end 0 -0.127)
          (stroke (width 0.1524) (type default))
          (fill (type none))
        )
        (rectangle (start -1.27 2.667) (end 0 2.413)
          (stroke (width 0.1524) (type default))
          (fill (type none))
        )
        (rectangle (start -1.27 5.207) (end 0 4.953)
          (stroke (width 0.1524) (type default))
          (fill (type none))
        )
        (rectangle (start -1.27 6.35) (end 3.81 -6.35)
          (stroke (width 0.254) (type default))
          (fill (type background))
        )
        (rectangle (start 3.81 -4.953) (end 2.54 -5.207)
          (stroke (width 0.1524) (type default))
          (fill (type none))
        )
        (rectangle (start 3.81 -2.413) (end 2.54 -2.667)
          (stroke (width 0.1524) (type default))
          (fill (type none))
        )
        (rectangle (start 3.81 0.127) (end 2.54 -0.127)
          (stroke (width 0.1524) (type default))
          (fill (type none))
        )
        (rectangle (start 3.81 2.667) (end 2.54 2.413)
          (stroke (width 0.1524) (type default))
          (fill (type none))
        )
        (rectangle (start 3.81 5.207) (end 2.54 4.953)
          (stroke (width 0.1524) (type default))
          (fill (type none))
        )
        (pin passive line (at -5.08 5.08 0) (length 3.81)
          (name "Pin_1" (effects (font (size 1.27 1.27))))
          (number "1" (effects (font (size 1.27 1.27))))
        )
        (pin passive line (at 7.62 -5.08 180) (length 3.81)
          (name "Pin_10" (effects (font (size 1.27 1.27))))
          (number "10" (effects (font (size 1.27 1.27))))
        )
        (pin passive line (at 7.62 5.08 180) (length 3.81)
          (name "Pin_2" (effects (font (size 1.27 1.27))))
          (number "2" (effects (font (size 1.27 1.27))))
        )
        (pin passive line (at -5.08 2.54 0) (length 3.81)
          (name "Pin_3" (effects (font (size 1.27 1.27))))
          (number "3" (effects (font (size 1.27 1.27))))
        )
        (pin passive line (at 7.62 2.54 180) (length 3.81)
          (name "Pin_4" (effects (font (size 1.27 1.27))))
          (number "4" (effects (font (size 1.27 1.27))))
        )
        (pin passive line (at -5.08 0 0) (length 3.81)
          (name "Pin_5" (effects (font (size 1.27 1.27))))
          (number "5" (effects (font (size 1.27 1.27))))
        )
        (pin passive line (at 7.62 0 180) (length 3.81)
          (name "Pin_6" (effects (font (size 1.27 1.27))))
          (number "6" (effects (font (size 1.27 1.27))))
        )
        (pin passive line (at -5.08 -2.54 0) (length 3.81)
          (name "Pin_7" (effects (font (size 1.27 1.27))))
          (number "7" (effects (font (size 1.27 1.27))))
        )
        (pin passive line (at 7.62 -2.54 180) (length 3.81)
          (name "Pin_8" (effects (font (size 1.27 1.27))))
          (number "8" (effects (font (size 1.27 1.27))))
        )
        (pin passive line (at -5.08 -5.08 0) (length 3.81)
          (name "Pin_9" (effects (font (size 1.27 1.27))))
          (number "9" (effects (font (size 1.27 1.27))))
        )
      )
    )
    (symbol "Device:C" (pin_numbers hide) (pin_names (offset 0.254)) (in_bom yes) (on_board yes)
      (property "Reference" "C" (at 0.635 2.54 0)
        (effects (font (size 1.27 1.27)) (justify left))
      )
      (property "Value" "C" (at 0.635 -2.54 0)
        (effects (font (size 1.27 1.27)) (justify left))
      )
      (property "Footprint" "" (at 0.9652 -3.81 0)
        (effects (font (size 1.27 1.27)) hide)
      )
      (property "Datasheet" "~" (at 0 0 0)
        (effects (font (size 1.27 1.27)) hide)
      )
      (property "ki_keywords" "cap capacitor" (at 0 0 0)
        (effects (font (size 1.27 1.27)) hide)
      )
      (property "ki_description" "Unpolarized capacitor" (at 0 0 0)
        (effects (font (size 1.27 1.27)) hide)
      )
      (property "ki_fp_filters" "C_*" (at 0 0 0)
        (effects (font (size 1.27 1.27)) hide)
      )
      (symbol "C_0_1"
        (polyline
          (pts
            (xy -2.032 -0.762)
            (xy 2.032 -0.762)
          )
          (stroke (width 0.508) (type default))
          (fill (type none))
        )
        (polyline
          (pts
            (xy -2.032 0.762)
            (xy 2.032 0.762)
          )
          (stroke (width 0.508) (type default))
          (fill (type none))
        )
      )
      (symbol "C_1_1"
        (pin passive line (at 0 3.81 270) (length 2.794)
          (name "~" (effects (font (size 1.27 1.27))))
          (number "1" (effects (font (size 1.27 1.27))))
        )
        (pin passive line (at 0 -3.81 90) (length 2.794)
          (name "~" (effects (font (size 1.27 1.27))))
          (number "2" (effects (font (size 1.27 1.27))))
        )
      )
    )
    (symbol "Device:C_Polarized" (pin_numbers hide) (pin_names (offset 0.254)) (in_bom yes) (on_board yes)
      (property "Reference" "C" (at 0.635 2.54 0)
        (effects (font (size 1.27 1.27)) (justify left))
      )
      (property "Value" "C_Polarized" (at 0.635 -2.54 0)
        (effects (font (size 1.27 1.27)) (justify left))
      )
      (property "Footprint" "" (at 0.9652 -3.81 0)
        (effects (font (size 1.27 1.27)) hide)
      )
      (property "Datasheet" "~" (at 0 0 0)
        (effects (font (size 1.27 1.27)) hide)
      )
      (property "ki_keywords" "cap capacitor" (at 0 0 0)
        (effects (font (size 1.27 1.27)) hide)
      )
      (property "ki_description" "Polarized capacitor" (at 0 0 0)
        (effects (font (size 1.27 1.27)) hide)
      )
      (property "ki_fp_filters" "CP_*" (at 0 0 0)
        (effects (font (size 1.27 1.27)) hide)
      )
      (symbol "C_Polarized_0_1"
        (rectangle (start -2.286 0.508) (end 2.286 1.016)
          (stroke (width 0) (type default))
          (fill (type none))
        )
        (polyline
          (pts
            (xy -1.778 2.286)
            (xy -0.762 2.286)
          )
          (stroke (width 0) (type default))
          (fill (type none))
        )
        (polyline
          (pts
            (xy -1.27 2.794)
            (xy -1.27 1.778)
          )
          (stroke (width 0) (type default))
          (fill (type none))
        )
        (rectangle (start 2.286 -0.508) (end -2.286 -1.016)
          (stroke (width 0) (type default))
          (fill (type outline))
        )
      )
      (symbol "C_Polarized_1_1"
        (pin passive line (at 0 3.81 270) (length 2.794)
          (name "~" (effects (font (size 1.27 1.27))))
          (number "1" (effects (font (size 1.27 1.27))))
        )
        (pin passive line (at 0 -3.81 90) (length 2.794)
          (name "~" (effects (font (size 1.27 1.27))))
          (number "2" (effects (font (size 1.27 1.27))))
        )
      )
    )
    (symbol "Device:R" (pin_numbers hide) (pin_names (offset 0)) (in_bom yes) (on_board yes)
      (property "Reference" "R" (at 2.032 0 90)
        (effects (font (size 1.27 1.27)))
      )
      (property "Value" "R" (at 0 0 90)
        (effects (font (size 1.27 1.27)))
      )
      (property "Footprint" "" (at -1.778 0 90)
        (effects (font (size 1.27 1.27)) hide)
      )
      (property "Datasheet" "~" (at 0 0 0)
        (effects (font (size 1.27 1.27)) hide)
      )
      (property "ki_keywords" "R res resistor" (at 0 0 0)
        (effects (font (size 1.27 1.27)) hide)
      )
      (property "ki_description" "Resistor" (at 0 0 0)
        (effects (font (size 1.27 1.27)) hide)
      )
      (property "ki_fp_filters" "R_*" (at 0 0 0)
        (effects (font (size 1.27 1.27)) hide)
      )
      (symbol "R_0_1"
        (rectangle (start -1.016 -2.54) (end 1.016 2.54)
          (stroke (width 0.254) (type default))
          (fill (type none))
        )
      )
      (symbol "R_1_1"
        (pin passive line (at 0 3.81 270) (length 1.27)
          (name "~" (effects (font (size 1.27 1.27))))
          (number "1" (effects (font (size 1.27 1.27))))
        )
        (pin passive line (at 0 -3.81 90) (length 1.27)
          (name "~" (effects (font (size 1.27 1.27))))
          (number "2" (effects (font (size 1.27 1.27))))
        )
      )
    )
    (symbol "Device:R_Potentiometer" (pin_names (offset 1.016) hide) (in_bom yes) (on_board yes)
      (property "Reference" "RV" (at -4.445 0 90)
        (effects (font (size 1.27 1.27)))
      )
      (property "Value" "R_Potentiometer" (at -2.54 0 90)
        (effects (font (size 1.27 1.27)))
      )
      (property "Footprint" "" (at 0 0 0)
        (effects (font (size 1.27 1.27)) hide)
      )
      (property "Datasheet" "~" (at 0 0 0)
        (effects (font (size 1.27 1.27)) hide)
      )
      (property "ki_keywords" "resistor variable" (at 0 0 0)
        (effects (font (size 1.27 1.27)) hide)
      )
      (property "ki_description" "Potentiometer" (at 0 0 0)
        (effects (font (size 1.27 1.27)) hide)
      )
      (property "ki_fp_filters" "Potentiometer*" (at 0 0 0)
        (effects (font (size 1.27 1.27)) hide)
      )
      (symbol "R_Potentiometer_0_1"
        (polyline
          (pts
            (xy 2.54 0)
            (xy 1.524 0)
          )
          (stroke (width 0) (type default))
          (fill (type none))
        )
        (polyline
          (pts
            (xy 1.143 0)
            (xy 2.286 0.508)
            (xy 2.286 -0.508)
            (xy 1.143 0)
          )
          (stroke (width 0) (type default))
          (fill (type outline))
        )
        (rectangle (start 1.016 2.54) (end -1.016 -2.54)
          (stroke (width 0.254) (type default))
          (fill (type none))
        )
      )
      (symbol "R_Potentiometer_1_1"
        (pin passive line (at 0 3.81 270) (length 1.27)
          (name "1" (effects (font (size 1.27 1.27))))
          (number "1" (effects (font (size 1.27 1.27))))
        )
        (pin passive line (at 3.81 0 180) (length 1.27)
          (name "2" (effects (font (size 1.27 1.27))))
          (number "2" (effects (font (size 1.27 1.27))))
        )
        (pin passive line (at 0 -3.81 90) (length 1.27)
          (name "3" (effects (font (size 1.27 1.27))))
          (number "3" (effects (font (size 1.27 1.27))))
        )
      )
    )
    (symbol "Diode:1N4148" (pin_numbers hide) (pin_names hide) (in_bom yes) (on_board yes)
      (property "Reference" "D" (at 0 2.54 0)
        (effects (font (size 1.27 1.27)))
      )
      (property "Value" "1N4148" (at 0 -2.54 0)
        (effects (font (size 1.27 1.27)))
      )
      (property "Footprint" "Diode_THT:D_DO-35_SOD27_P7.62mm_Horizontal" (at 0 0 0)
        (effects (font (size 1.27 1.27)) hide)
      )
      (property "Datasheet" "https://assets.nexperia.com/documents/data-sheet/1N4148_1N4448.pdf" (at 0 0 0)
        (effects (font (size 1.27 1.27)) hide)
      )
      (property "Sim.Device" "D" (at 0 0 0)
        (effects (font (size 1.27 1.27)) hide)
      )
      (property "Sim.Pins" "1=K 2=A" (at 0 0 0)
        (effects (font (size 1.27 1.27)) hide)
      )
      (property "ki_keywords" "diode" (at 0 0 0)
        (effects (font (size 1.27 1.27)) hide)
      )
      (property "ki_description" "100V 0.15A standard switching diode, DO-35" (at 0 0 0)
        (effects (font (size 1.27 1.27)) hide)
      )
      (property "ki_fp_filters" "D*DO?35*" (at 0 0 0)
        (effects (font (size 1.27 1.27)) hide)
      )
      (symbol "1N4148_0_1"
        (polyline
          (pts
            (xy -1.27 1.27)
            (xy -1.27 -1.27)
          )
          (stroke (width 0.254) (type default))
          (fill (type none))
        )
        (polyline
          (pts
            (xy 1.27 0)
            (xy -1.27 0)
          )
          (stroke (width 0) (type default))
          (fill (type none))
        )
        (polyline
          (pts
            (xy 1.27 1.27)
            (xy 1.27 -1.27)
            (xy -1.27 0)
            (xy 1.27 1.27)
          )
          (stroke (width 0.254) (type default))
          (fill (type none))
        )
      )
      (symbol "1N4148_1_1"
        (pin passive line (at -3.81 0 0) (length 2.54)
          (name "K" (effects (font (size 1.27 1.27))))
          (number "1" (effects (font (size 1.27 1.27))))
        )
        (pin passive line (at 3.81 0 180) (length 2.54)
          (name "A" (effects (font (size 1.27 1.27))))
          (number "2" (effects (font (size 1.27 1.27))))
        )
      )
    )
    (symbol "Diode:US1A" (pin_numbers hide) (pin_names hide) (in_bom yes) (on_board yes)
      (property "Reference" "D" (at 0 2.54 0)
        (effects (font (size 1.27 1.27)))
      )
      (property "Value" "US1A" (at 0 -2.54 0)
        (effects (font (size 1.27 1.27)))
      )
      (property "Footprint" "Diode_SMD:D_SMA" (at 0 -4.445 0)
        (effects (font (size 1.27 1.27)) hide)
      )
      (property "Datasheet" "https://www.diodes.com/assets/Datasheets/ds16008.pdf" (at 0 0 0)
        (effects (font (size 1.27 1.27)) hide)
      )
      (property "Sim.Device" "D" (at 0 0 0)
        (effects (font (size 1.27 1.27)) hide)
      )
      (property "Sim.Pins" "1=K 2=A" (at 0 0 0)
        (effects (font (size 1.27 1.27)) hide)
      )
      (property "ki_keywords" "Ultra Fast" (at 0 0 0)
        (effects (font (size 1.27 1.27)) hide)
      )
      (property "ki_description" "50V, 1A, General Purpose Rectifier Diode, SMA(DO-214AC)" (at 0 0 0)
        (effects (font (size 1.27 1.27)) hide)
      )
      (property "ki_fp_filters" "D*SMA*" (at 0 0 0)
        (effects (font (size 1.27 1.27)) hide)
      )
      (symbol "US1A_0_1"
        (polyline
          (pts
            (xy -1.27 1.27)
            (xy -1.27 -1.27)
          )
          (stroke (width 0.254) (type default))
          (fill (type none))
        )
        (polyline
          (pts
            (xy 1.27 0)
            (xy -1.27 0)
          )
          (stroke (width 0) (type default))
          (fill (type none))
        )
        (polyline
          (pts
            (xy 1.27 1.27)
            (xy 1.27 -1.27)
            (xy -1.27 0)
            (xy 1.27 1.27)
          )
          (stroke (width 0.254) (type default))
          (fill (type none))
        )
      )
      (symbol "US1A_1_1"
        (pin passive line (at -3.81 0 0) (length 2.54)
          (name "K" (effects (font (size 1.27 1.27))))
          (number "1" (effects (font (size 1.27 1.27))))
        )
        (pin passive line (at 3.81 0 180) (length 2.54)
          (name "A" (effects (font (size 1.27 1.27))))
          (number "2" (effects (font (size 1.27 1.27))))
        )
      )
    )
    (symbol "power:+12V" (power) (pin_names (offset 0)) (in_bom yes) (on_board yes)
      (property "Reference" "#PWR" (at 0 -3.81 0)
        (effects (font (size 1.27 1.27)) hide)
      )
      (property "Value" "+12V" (at 0 3.556 0)
        (effects (font (size 1.27 1.27)))
      )
      (property "Footprint" "" (at 0 0 0)
        (effects (font (size 1.27 1.27)) hide)
      )
      (property "Datasheet" "" (at 0 0 0)
        (effects (font (size 1.27 1.27)) hide)
      )
      (property "ki_keywords" "global power" (at 0 0 0)
        (effects (font (size 1.27 1.27)) hide)
      )
      (property "ki_description" "Power symbol creates a global label with name \"+12V\"" (at 0 0 0)
        (effects (font (size 1.27 1.27)) hide)
      )
      (symbol "+12V_0_1"
        (polyline
          (pts
            (xy -0.762 1.27)
            (xy 0 2.54)
          )
          (stroke (width 0) (type default))
          (fill (type none))
        )
        (polyline
          (pts
            (xy 0 0)
            (xy 0 2.54)
          )
          (stroke (width 0) (type default))
          (fill (type none))
        )
        (polyline
          (pts
            (xy 0 2.54)
            (xy 0.762 1.27)
          )
          (stroke (width 0) (type default))
          (fill (type none))
        )
      )
      (symbol "+12V_1_1"
        (pin power_in line (at 0 0 90) (length 0) hide
          (name "+12V" (effects (font (size 1.27 1.27))))
          (number "1" (effects (font (size 1.27 1.27))))
        )
      )
    )
    (symbol "power:-12V" (power) (pin_names (offset 0)) (in_bom yes) (on_board yes)
      (property "Reference" "#PWR" (at 0 2.54 0)
        (effects (font (size 1.27 1.27)) hide)
      )
      (property "Value" "-12V" (at 0 3.81 0)
        (effects (font (size 1.27 1.27)))
      )
      (property "Footprint" "" (at 0 0 0)
        (effects (font (size 1.27 1.27)) hide)
      )
      (property "Datasheet" "" (at 0 0 0)
        (effects (font (size 1.27 1.27)) hide)
      )
      (property "ki_keywords" "global power" (at 0 0 0)
        (effects (font (size 1.27 1.27)) hide)
      )
      (property "ki_description" "Power symbol creates a global label with name \"-12V\"" (at 0 0 0)
        (effects (font (size 1.27 1.27)) hide)
      )
      (symbol "-12V_0_0"
        (pin power_in line (at 0 0 90) (length 0) hide
          (name "-12V" (effects (font (size 1.27 1.27))))
          (number "1" (effects (font (size 1.27 1.27))))
        )
      )
      (symbol "-12V_0_1"
        (polyline
          (pts
            (xy 0 0)
            (xy 0 1.27)
            (xy 0.762 1.27)
            (xy 0 2.54)
            (xy -0.762 1.27)
            (xy 0 1.27)
          )
          (stroke (width 0) (type default))
          (fill (type outline))
        )
      )
    )
    (symbol "power:GND" (power) (pin_names (offset 0)) (in_bom yes) (on_board yes)
      (property "Reference" "#PWR" (at 0 -6.35 0)
        (effects (font (size 1.27 1.27)) hide)
      )
      (property "Value" "GND" (at 0 -3.81 0)
        (effects (font (size 1.27 1.27)))
      )
      (property "Footprint" "" (at 0 0 0)
        (effects (font (size 1.27 1.27)) hide)
      )
      (property "Datasheet" "" (at 0 0 0)
        (effects (font (size 1.27 1.27)) hide)
      )
      (property "ki_keywords" "global power" (at 0 0 0)
        (effects (font (size 1.27 1.27)) hide)
      )
      (property "ki_description" "Power symbol creates a global label with name \"GND\" , ground" (at 0 0 0)
        (effects (font (size 1.27 1.27)) hide)
      )
      (symbol "GND_0_1"
        (polyline
          (pts
            (xy 0 0)
            (xy 0 -1.27)
            (xy 1.27 -1.27)
            (xy 0 -2.54)
            (xy -1.27 -1.27)
            (xy 0 -1.27)
          )
          (stroke (width 0) (type default))
          (fill (type none))
        )
      )
      (symbol "GND_1_1"
        (pin power_in line (at 0 0 270) (length 0) hide
          (name "GND" (effects (font (size 1.27 1.27))))
          (number "1" (effects (font (size 1.27 1.27))))
        )
      )
    )
    (symbol "power:PWR_FLAG" (power) (pin_numbers hide) (pin_names (offset 0) hide) (in_bom yes) (on_board yes)
      (property "Reference" "#FLG" (at 0 1.905 0)
        (effects (font (size 1.27 1.27)) hide)
      )
      (property "Value" "PWR_FLAG" (at 0 3.81 0)
        (effects (font (size 1.27 1.27)))
      )
      (property "Footprint" "" (at 0 0 0)
        (effects (font (size 1.27 1.27)) hide)
      )
      (property "Datasheet" "~" (at 0 0 0)
        (effects (font (size 1.27 1.27)) hide)
      )
      (property "ki_keywords" "flag power" (at 0 0 0)
        (effects (font (size 1.27 1.27)) hide)
      )
      (property "ki_description" "Special symbol for telling ERC where power comes from" (at 0 0 0)
        (effects (font (size 1.27 1.27)) hide)
      )
      (symbol "PWR_FLAG_0_0"
        (pin power_out line (at 0 0 90) (length 0)
          (name "pwr" (effects (font (size 1.27 1.27))))
          (number "1" (effects (font (size 1.27 1.27))))
        )
      )
      (symbol "PWR_FLAG_0_1"
        (polyline
          (pts
            (xy 0 0)
            (xy 0 1.27)
            (xy -1.016 1.905)
            (xy 0 2.54)
            (xy 1.016 1.905)
            (xy 0 1.27)
          )
          (stroke (width 0) (type default))
          (fill (type none))
        )
      )
    )
  )

  (junction (at 169.545 53.34) (diameter 0) (color 0 0 0 0)
    (uuid 163dfc4f-25a6-4084-a5a3-f57de7f29e77)
  )
  (junction (at 104.14 57.15) (diameter 0) (color 0 0 0 0)
    (uuid 17fb7c20-20c3-4a8a-8b2a-609e1e6d3b4e)
  )
  (junction (at 231.775 31.115) (diameter 0) (color 0 0 0 0)
    (uuid 196ac615-3e46-40f2-9f76-2c937e81398f)
  )
  (junction (at 253.365 41.275) (diameter 0) (color 0 0 0 0)
    (uuid 2c53f99b-9300-43f6-b4bb-54962de7c642)
  )
  (junction (at 137.16 57.785) (diameter 0) (color 0 0 0 0)
    (uuid 483187c8-1dc3-4550-9b71-d5f9a1946e31)
  )
  (junction (at 82.55 45.72) (diameter 0) (color 0 0 0 0)
    (uuid 4db256e4-5d07-4f24-94ee-b2ea86643e62)
  )
  (junction (at 169.545 50.8) (diameter 0) (color 0 0 0 0)
    (uuid 583b823c-6aee-4af4-9b95-4d5131652d02)
  )
  (junction (at 231.775 41.275) (diameter 0) (color 0 0 0 0)
    (uuid 5a132907-1dc1-44b3-8006-23ef20dcd424)
  )
  (junction (at 274.32 36.195) (diameter 0) (color 0 0 0 0)
    (uuid 61bbc05f-bffd-4f5f-b1b6-5d38fc739f64)
  )
  (junction (at 266.065 33.655) (diameter 0) (color 0 0 0 0)
    (uuid 6c4f493c-a380-4824-a9cd-e2ac5f8ae05e)
  )
  (junction (at 274.32 73.025) (diameter 0) (color 0 0 0 0)
    (uuid 79df260c-464e-454d-b9ee-c287fdcc55ab)
  )
  (junction (at 274.32 38.735) (diameter 0) (color 0 0 0 0)
    (uuid 8e06f2a1-23b5-4a41-8563-2a0158b65725)
  )
  (junction (at 248.285 31.115) (diameter 0) (color 0 0 0 0)
    (uuid 946f31dc-6334-4147-9a14-8f2c6738c318)
  )
  (junction (at 125.73 48.26) (diameter 0) (color 0 0 0 0)
    (uuid 9b6364dc-a93c-400e-afb9-973d572b5724)
  )
  (junction (at 92.075 45.72) (diameter 0) (color 0 0 0 0)
    (uuid b1dbbf93-fd68-4d46-b130-9e2e6e12cd42)
  )
  (junction (at 245.745 73.025) (diameter 0) (color 0 0 0 0)
    (uuid b5b150dc-24c2-438f-ad25-3ad9bbd942f5)
  )
  (junction (at 266.065 38.735) (diameter 0) (color 0 0 0 0)
    (uuid d301d96c-494f-49cd-8aeb-f74b6b9b3012)
  )
  (junction (at 259.715 134.62) (diameter 0) (color 0 0 0 0)
    (uuid d3c46ae0-c161-4c8d-b6c3-43f94cee35f9)
  )
  (junction (at 259.715 113.03) (diameter 0) (color 0 0 0 0)
    (uuid d4dace9f-461d-4992-8358-021f8c5afecf)
  )
  (junction (at 266.065 36.195) (diameter 0) (color 0 0 0 0)
    (uuid e043a5c8-4c97-4f05-9e6c-1cdcbd22a913)
  )
  (junction (at 46.99 53.34) (diameter 0) (color 0 0 0 0)
    (uuid e18f92e4-e12e-48dd-8986-72769f00215e)
  )
  (junction (at 82.55 59.69) (diameter 0) (color 0 0 0 0)
    (uuid ff0f07fa-e22d-419d-8218-dd66289f59e3)
  )

  (no_connect (at 195.58 53.34) (uuid 624c4bfb-cbe4-4509-a58e-e368147a8e1a))

  (wire (pts (xy 46.99 34.925) (xy 24.765 34.925))
    (stroke (width 0) (type default))
    (uuid 005a9d90-13b2-4b82-9c05-34e0a0e1ef3f)
  )
  (wire (pts (xy 245.745 59.055) (xy 245.745 62.23))
    (stroke (width 0) (type default))
    (uuid 063ff537-6f8e-4b82-99ad-8625db48266f)
  )
  (wire (pts (xy 266.065 43.18) (xy 266.065 41.275))
    (stroke (width 0) (type default))
    (uuid 06456d24-8c66-409d-89ea-d28826e1c2c4)
  )
  (wire (pts (xy 82.55 59.69) (xy 82.55 61.595))
    (stroke (width 0) (type default))
    (uuid 067aef60-4d41-4d79-bda3-0b402841e0a7)
  )
  (wire (pts (xy 266.065 36.195) (xy 274.32 36.195))
    (stroke (width 0) (type default))
    (uuid 070c6edd-bbdd-4be3-95de-d1d02aefb853)
  )
  (wire (pts (xy 82.55 45.72) (xy 82.55 40.64))
    (stroke (width 0) (type default))
    (uuid 1046cb96-c555-476f-8677-3af81bb11c35)
  )
  (wire (pts (xy 137.16 53.34) (xy 137.16 57.785))
    (stroke (width 0) (type default))
    (uuid 13ce7ef1-9b6b-457c-b7c2-479cfda69116)
  )
  (wire (pts (xy 92.075 59.69) (xy 82.55 59.69))
    (stroke (width 0) (type default))
    (uuid 1626561f-a74a-4316-9b96-ae662b51b512)
  )
  (wire (pts (xy 137.16 67.31) (xy 137.16 69.85))
    (stroke (width 0) (type default))
    (uuid 1915947f-f39b-4317-89c1-b8c3c2b38987)
  )
  (wire (pts (xy 212.725 40.64) (xy 212.725 59.69))
    (stroke (width 0) (type default))
    (uuid 198d4871-71e0-410f-a743-eb4539b4ebaa)
  )
  (wire (pts (xy 41.91 43.18) (xy 46.99 43.18))
    (stroke (width 0) (type default))
    (uuid 19de8e8e-d66d-4e61-82bf-d53a86138776)
  )
  (wire (pts (xy 151.765 57.785) (xy 137.16 57.785))
    (stroke (width 0) (type default))
    (uuid 1ce2bcf0-28dd-42b7-95ba-0f0a18045bd5)
  )
  (wire (pts (xy 195.58 48.26) (xy 189.865 48.26))
    (stroke (width 0) (type default))
    (uuid 1cea6ed9-c374-4347-93a3-ff7bc6700c57)
  )
  (wire (pts (xy 274.32 59.055) (xy 274.32 62.23))
    (stroke (width 0) (type default))
    (uuid 1d20c95a-fd7e-4c1c-ae33-16d37fd94067)
  )
  (wire (pts (xy 266.065 37.465) (xy 266.065 36.195))
    (stroke (width 0) (type default))
    (uuid 1e79f901-4f19-4724-b8d0-91ca63ca1cde)
  )
  (wire (pts (xy 234.95 75.565) (xy 234.95 73.025))
    (stroke (width 0) (type default))
    (uuid 1f88b138-cf01-4785-afa5-fbf9899e625f)
  )
  (wire (pts (xy 196.215 59.69) (xy 196.215 69.85))
    (stroke (width 0) (type default))
    (uuid 2345ce9f-4f4a-429b-a3d9-9db713fd9cdf)
  )
  (wire (pts (xy 50.165 50.8) (xy 46.99 50.8))
    (stroke (width 0) (type default))
    (uuid 23a1a65e-9f6d-4d29-829e-4850a0a5bf9b)
  )
  (wire (pts (xy 24.765 34.925) (xy 24.765 53.34))
    (stroke (width 0) (type default))
    (uuid 25a38dbe-8ce3-43f9-8293-1d841bbff05e)
  )
  (wire (pts (xy 274.32 73.025) (xy 274.32 76.835))
    (stroke (width 0) (type default))
    (uuid 26047118-748a-492d-9be6-d607608d7518)
  )
  (wire (pts (xy 231.775 48.26) (xy 231.775 41.275))
    (stroke (width 0) (type default))
    (uuid 2edd4398-01c6-46f0-929b-d68e9896ce05)
  )
  (wire (pts (xy 259.715 113.03) (xy 247.015 113.03))
    (stroke (width 0) (type default))
    (uuid 2f829704-7326-4fda-bc0f-066fc449594a)
  )
  (wire (pts (xy 253.365 31.115) (xy 248.285 31.115))
    (stroke (width 0) (type default))
    (uuid 2fa56c1c-0cb8-4667-8052-23d2c4ccc04c)
  )
  (wire (pts (xy 82.55 57.15) (xy 82.55 59.69))
    (stroke (width 0) (type default))
    (uuid 3671344c-a44a-4513-b1e9-d3ceacd185ce)
  )
  (wire (pts (xy 253.365 38.735) (xy 253.365 40.005))
    (stroke (width 0) (type default))
    (uuid 382edb21-7f3f-4963-b514-0ffed5b04c11)
  )
  (wire (pts (xy 270.51 143.51) (xy 270.51 151.765))
    (stroke (width 0) (type default))
    (uuid 3efef8e7-1056-4518-b1f8-04d567952aa4)
  )
  (wire (pts (xy 253.365 40.005) (xy 266.065 40.005))
    (stroke (width 0) (type default))
    (uuid 45648f78-5769-42bf-9f18-cf11d9b584e9)
  )
  (wire (pts (xy 46.99 43.18) (xy 46.99 34.925))
    (stroke (width 0) (type default))
    (uuid 47975a0e-b255-4d73-9698-e73846870a65)
  )
  (wire (pts (xy 241.935 31.115) (xy 248.285 31.115))
    (stroke (width 0) (type default))
    (uuid 4d45f5c2-1c41-4f65-9272-de372ec83548)
  )
  (wire (pts (xy 125.73 48.26) (xy 125.73 57.15))
    (stroke (width 0) (type default))
    (uuid 4e4834e8-79af-44f6-a1e1-b94be9b90018)
  )
  (wire (pts (xy 271.145 24.13) (xy 271.145 31.115))
    (stroke (width 0) (type default))
    (uuid 52cb7919-efb7-40f6-a6d8-489e8fb725fe)
  )
  (wire (pts (xy 92.075 45.72) (xy 92.075 49.53))
    (stroke (width 0) (type default))
    (uuid 52e354fd-b785-45c6-ba54-77227008f1a5)
  )
  (wire (pts (xy 141.605 53.34) (xy 137.16 53.34))
    (stroke (width 0) (type default))
    (uuid 5532b5a6-96ff-4513-aa5f-23310e561491)
  )
  (wire (pts (xy 263.525 73.025) (xy 274.32 73.025))
    (stroke (width 0) (type default))
    (uuid 579afb4c-4fc6-4174-a1f6-017b2cb77005)
  )
  (wire (pts (xy 104.14 57.15) (xy 112.395 57.15))
    (stroke (width 0) (type default))
    (uuid 583fb73f-8ead-4483-8029-ddfd056728b7)
  )
  (wire (pts (xy 245.745 73.025) (xy 245.745 76.835))
    (stroke (width 0) (type default))
    (uuid 590d8c75-0a63-45e7-98b1-70851cfbbabc)
  )
  (wire (pts (xy 169.545 53.34) (xy 169.545 55.245))
    (stroke (width 0) (type default))
    (uuid 5abeb66d-347b-4f5c-bff5-111669301473)
  )
  (wire (pts (xy 123.19 48.26) (xy 125.73 48.26))
    (stroke (width 0) (type default))
    (uuid 5d2f74c6-e6a0-43da-8a74-bf7a993b5eb8)
  )
  (wire (pts (xy 169.545 65.405) (xy 159.385 65.405))
    (stroke (width 0) (type default))
    (uuid 5e505e7e-0699-4bf4-a0f5-be16c1ffcab0)
  )
  (wire (pts (xy 41.91 45.72) (xy 82.55 45.72))
    (stroke (width 0) (type default))
    (uuid 648a768b-9d90-471c-85f9-cbc7128cd034)
  )
  (wire (pts (xy 82.55 29.21) (xy 82.55 33.02))
    (stroke (width 0) (type default))
    (uuid 6826cb63-b561-4c54-b075-059c6fb9165e)
  )
  (wire (pts (xy 253.365 41.275) (xy 253.365 43.18))
    (stroke (width 0) (type default))
    (uuid 68d9cb37-449e-415e-ae84-06b23322d3f2)
  )
  (wire (pts (xy 82.55 45.72) (xy 92.075 45.72))
    (stroke (width 0) (type default))
    (uuid 69fde342-c2a1-4fdb-980c-b298708d7f97)
  )
  (wire (pts (xy 245.745 84.455) (xy 245.745 87.63))
    (stroke (width 0) (type default))
    (uuid 6e536dfc-c34b-4df4-a049-abc9463d3ff0)
  )
  (wire (pts (xy 189.865 48.26) (xy 189.865 40.64))
    (stroke (width 0) (type default))
    (uuid 6ee2f3b1-f2cf-48d4-804d-4f110dbf0e79)
  )
  (wire (pts (xy 169.545 50.8) (xy 180.34 50.8))
    (stroke (width 0) (type default))
    (uuid 6fddcfcb-bb9c-422c-ab08-09a4b0ebaa61)
  )
  (wire (pts (xy 266.065 34.925) (xy 266.065 33.655))
    (stroke (width 0) (type default))
    (uuid 71c6328b-4215-4fe0-8996-4de152b9ab51)
  )
  (wire (pts (xy 234.95 73.025) (xy 245.745 73.025))
    (stroke (width 0) (type default))
    (uuid 731b56d8-08a5-479f-ac2d-6219dc792d50)
  )
  (wire (pts (xy 259.715 113.03) (xy 259.715 116.205))
    (stroke (width 0) (type default))
    (uuid 746ef725-d7dc-4fd9-8029-cf6f9ac3b465)
  )
  (wire (pts (xy 212.725 59.69) (xy 196.215 59.69))
    (stroke (width 0) (type default))
    (uuid 76c98e18-a5ed-413d-8046-7c5ce1fbf295)
  )
  (wire (pts (xy 137.16 57.785) (xy 137.16 59.69))
    (stroke (width 0) (type default))
    (uuid 77fd4529-11eb-457c-abb5-445fe0424803)
  )
  (wire (pts (xy 263.525 75.565) (xy 263.525 73.025))
    (stroke (width 0) (type default))
    (uuid 7e1a452b-fa70-4b00-8229-aa57da92dff1)
  )
  (wire (pts (xy 274.32 43.815) (xy 274.32 38.735))
    (stroke (width 0) (type default))
    (uuid 7fb2dcd4-d136-4357-a3b0-7d8c670dfecd)
  )
  (wire (pts (xy 104.14 57.15) (xy 104.14 59.69))
    (stroke (width 0) (type default))
    (uuid 7fc4392c-70dc-46fe-aad3-bc029ad5d526)
  )
  (wire (pts (xy 231.775 31.115) (xy 234.315 31.115))
    (stroke (width 0) (type default))
    (uuid 89909391-b6c5-4df0-b722-00cdc0e3fa27)
  )
  (wire (pts (xy 247.015 113.03) (xy 247.015 116.84))
    (stroke (width 0) (type default))
    (uuid 89a64f29-8899-4d6c-a475-127c0125f875)
  )
  (wire (pts (xy 92.075 57.15) (xy 92.075 59.69))
    (stroke (width 0) (type default))
    (uuid 8d12bc33-243c-40e4-83dc-2d1ea24a1975)
  )
  (wire (pts (xy 107.95 50.8) (xy 104.14 50.8))
    (stroke (width 0) (type default))
    (uuid 8f10340a-44b1-4457-b729-dda0ece56615)
  )
  (wire (pts (xy 241.935 41.275) (xy 253.365 41.275))
    (stroke (width 0) (type default))
    (uuid 9536b3e3-a976-4e06-972c-d409e9975064)
  )
  (wire (pts (xy 82.55 45.72) (xy 82.55 49.53))
    (stroke (width 0) (type default))
    (uuid 96356fc2-2dfa-49d0-83e1-18cdd14df79d)
  )
  (wire (pts (xy 253.365 33.655) (xy 253.365 34.925))
    (stroke (width 0) (type default))
    (uuid 9a3da82a-98c1-4ebf-b09f-aa1de9d248d3)
  )
  (wire (pts (xy 266.065 38.735) (xy 274.32 38.735))
    (stroke (width 0) (type default))
    (uuid 9bf17846-bc26-41b7-88a7-12b5edc0dd7e)
  )
  (wire (pts (xy 245.745 69.85) (xy 245.745 73.025))
    (stroke (width 0) (type default))
    (uuid 9c151f62-576c-4166-820c-6d10e65d36af)
  )
  (wire (pts (xy 253.365 43.18) (xy 266.065 43.18))
    (stroke (width 0) (type default))
    (uuid 9e22fc78-ec94-4772-8120-14bd8d8be4b8)
  )
  (wire (pts (xy 104.14 67.31) (xy 104.14 69.85))
    (stroke (width 0) (type default))
    (uuid a82455ed-78f3-4f69-9cf0-d85cac1831eb)
  )
  (wire (pts (xy 259.715 134.62) (xy 270.51 134.62))
    (stroke (width 0) (type default))
    (uuid abfbaf1f-10fb-422a-949d-8bfbb76bb125)
  )
  (wire (pts (xy 173.355 59.055) (xy 173.355 53.34))
    (stroke (width 0) (type default))
    (uuid af7560ab-1860-45ea-a005-83be091afab9)
  )
  (wire (pts (xy 274.32 36.195) (xy 274.32 33.655))
    (stroke (width 0) (type default))
    (uuid b148c618-b1b5-4cfd-a9b9-6831fdc0295d)
  )
  (wire (pts (xy 169.545 50.8) (xy 169.545 53.34))
    (stroke (width 0) (type default))
    (uuid b7e8e598-c02b-4dec-9edd-ffd793a85a17)
  )
  (wire (pts (xy 125.73 57.15) (xy 120.015 57.15))
    (stroke (width 0) (type default))
    (uuid bde9bde4-29bf-4610-af24-eb43f8d05b7e)
  )
  (wire (pts (xy 248.285 31.115) (xy 248.285 24.13))
    (stroke (width 0) (type default))
    (uuid be71e64d-fb57-4de7-b5e5-0b7ce876e822)
  )
  (wire (pts (xy 274.32 38.735) (xy 274.32 36.195))
    (stroke (width 0) (type default))
    (uuid c283f4fb-a155-4780-87ab-86544c4c2d45)
  )
  (wire (pts (xy 248.285 24.13) (xy 271.145 24.13))
    (stroke (width 0) (type default))
    (uuid c4122b27-aad5-475c-8073-5c3798d4fad7)
  )
  (wire (pts (xy 46.99 50.8) (xy 46.99 53.34))
    (stroke (width 0) (type default))
    (uuid c7ce6dfd-ae65-40c1-9f07-e9a3dc7b5fad)
  )
  (wire (pts (xy 266.065 40.005) (xy 266.065 38.735))
    (stroke (width 0) (type default))
    (uuid c8c936a8-5749-429b-b103-0db99ecfbcb8)
  )
  (wire (pts (xy 24.765 53.34) (xy 46.99 53.34))
    (stroke (width 0) (type default))
    (uuid c95c95bf-30f0-4107-a496-4c5b238157df)
  )
  (wire (pts (xy 92.075 45.72) (xy 107.95 45.72))
    (stroke (width 0) (type default))
    (uuid caa3dcab-1dba-460c-af7c-c9cd059cc2de)
  )
  (wire (pts (xy 247.015 124.46) (xy 247.015 130.175))
    (stroke (width 0) (type default))
    (uuid cb7f9e1b-ea6e-487a-8db5-31565431bd28)
  )
  (wire (pts (xy 125.73 48.26) (xy 141.605 48.26))
    (stroke (width 0) (type default))
    (uuid d0a7209d-ad19-47d3-a365-617a358fab5d)
  )
  (wire (pts (xy 231.775 25.4) (xy 231.775 31.115))
    (stroke (width 0) (type default))
    (uuid d519f1fd-39c0-4abe-b458-8360df239835)
  )
  (wire (pts (xy 41.91 48.26) (xy 50.165 48.26))
    (stroke (width 0) (type default))
    (uuid e05f30af-8a6a-4225-8eba-095acf9d928a)
  )
  (wire (pts (xy 259.715 134.62) (xy 259.715 143.51))
    (stroke (width 0) (type default))
    (uuid e0880c7c-4aee-4052-a9bd-5e2c35b8538a)
  )
  (wire (pts (xy 259.715 131.445) (xy 259.715 134.62))
    (stroke (width 0) (type default))
    (uuid e0c0d043-e25a-4c46-b378-786d66da7e6b)
  )
  (wire (pts (xy 173.355 53.34) (xy 169.545 53.34))
    (stroke (width 0) (type default))
    (uuid e3927c56-f0b3-49f7-b297-8a7627fa13d8)
  )
  (wire (pts (xy 151.765 65.405) (xy 151.765 57.785))
    (stroke (width 0) (type default))
    (uuid ebd3c234-99df-4a93-8863-e82d83bc1780)
  )
  (wire (pts (xy 189.865 40.64) (xy 212.725 40.64))
    (stroke (width 0) (type default))
    (uuid ed6207eb-ed08-49d1-aaf3-f03ffbe528e3)
  )
  (wire (pts (xy 270.51 134.62) (xy 270.51 135.89))
    (stroke (width 0) (type default))
    (uuid ed685874-c8ed-4910-a69e-a1337b8dde1d)
  )
  (wire (pts (xy 104.14 50.8) (xy 104.14 57.15))
    (stroke (width 0) (type default))
    (uuid ed967da8-d634-4468-a7fd-fa13e9b32485)
  )
  (wire (pts (xy 253.365 36.195) (xy 253.365 37.465))
    (stroke (width 0) (type default))
    (uuid ef27351d-ee3a-445d-a1e3-37f41c769191)
  )
  (wire (pts (xy 169.545 62.865) (xy 169.545 65.405))
    (stroke (width 0) (type default))
    (uuid f0979595-4e35-494c-816f-1c6dd2f9b951)
  )
  (wire (pts (xy 156.845 50.8) (xy 169.545 50.8))
    (stroke (width 0) (type default))
    (uuid f1d3400f-d968-44b8-baf5-4c36c4981969)
  )
  (wire (pts (xy 231.775 41.275) (xy 234.315 41.275))
    (stroke (width 0) (type default))
    (uuid f1d5c6ec-40e4-4e0d-8353-1b820ce4c8c2)
  )
  (wire (pts (xy 259.715 110.49) (xy 259.715 113.03))
    (stroke (width 0) (type default))
    (uuid f410ba5a-500a-4588-92c6-8c8617b0d409)
  )
  (wire (pts (xy 46.99 53.34) (xy 46.99 55.245))
    (stroke (width 0) (type default))
    (uuid f4a4d023-c477-45ee-b1cc-388bbbba6f11)
  )
  (wire (pts (xy 187.96 50.8) (xy 195.58 50.8))
    (stroke (width 0) (type default))
    (uuid f4ddb490-e571-40ce-94a8-248b8f8b8dc7)
  )
  (wire (pts (xy 274.32 69.85) (xy 274.32 73.025))
    (stroke (width 0) (type default))
    (uuid f57d6000-508f-452a-b3f0-f54efc3e53f3)
  )
  (wire (pts (xy 253.365 34.925) (xy 266.065 34.925))
    (stroke (width 0) (type default))
    (uuid f8e2dc5f-ee80-4be6-89c8-2006474716a1)
  )
  (wire (pts (xy 271.145 31.115) (xy 266.065 31.115))
    (stroke (width 0) (type default))
    (uuid fa53f590-fbf6-4b8e-9caf-c0c1c9c37ad8)
  )
  (wire (pts (xy 253.365 37.465) (xy 266.065 37.465))
    (stroke (width 0) (type default))
    (uuid fadc32c0-6c0f-4651-bcd0-e77041f7b44e)
  )
  (wire (pts (xy 274.32 84.455) (xy 274.32 87.63))
    (stroke (width 0) (type default))
    (uuid fbbde979-1e21-44f2-9243-288dbb20bc34)
  )
  (wire (pts (xy 274.32 33.655) (xy 266.065 33.655))
    (stroke (width 0) (type default))
    (uuid ffcafc38-c4cc-45a5-af1a-7baaea4a3ff1)
  )

  (text "change this to 22k\nor 33k?" (at 113.03 67.818 0)
    (effects (font (size 1.27 1.27)) (justify left bottom))
    (uuid 3f7ecc64-d8fe-434a-b1a3-3e8744cd818d)
  )
  (text "add in HP filter? use a jumpter to bypass?" (at 48.006 71.882 0)
    (effects (font (size 1.27 1.27)) (justify left bottom))
    (uuid 5b67d4c4-d023-4a83-af52-67333391bdb4)
  )

  (label "+12_RAW" (at 242.57 31.115 0) (fields_autoplaced)
    (effects (font (size 1.27 1.27)) (justify left bottom))
    (uuid 378ab6ac-7337-4f77-bb1f-03ff8abc3c99)
  )
  (label "-12_RAW" (at 242.57 41.275 0) (fields_autoplaced)
    (effects (font (size 1.27 1.27)) (justify left bottom))
    (uuid ff92874e-c512-4dcf-817b-64ecc6484a9c)
  )

  (symbol (lib_id "power:GND") (at 46.99 55.245 0) (unit 1)
    (in_bom yes) (on_board yes) (dnp no) (fields_autoplaced)
    (uuid 01eb0c82-30f3-4d38-b88e-b04186570d92)
    (property "Reference" "#PWR05" (at 46.99 61.595 0)
      (effects (font (size 1.27 1.27)) hide)
    )
    (property "Value" "GND" (at 46.99 59.69 0)
      (effects (font (size 1.27 1.27)))
    )
    (property "Footprint" "" (at 46.99 55.245 0)
      (effects (font (size 1.27 1.27)) hide)
    )
    (property "Datasheet" "" (at 46.99 55.245 0)
      (effects (font (size 1.27 1.27)) hide)
    )
    (pin "1" (uuid 16e115d2-bbc4-45ff-87c5-bab7dd89d4e3))
    (instances
      (project "ACTIVATOR"
        (path "/dad1536b-7795-4ed1-9570-288544778227"
          (reference "#PWR05") (unit 1)
        )
      )
    )
  )

  (symbol (lib_id "power:GND") (at 247.015 130.175 0) (unit 1)
    (in_bom yes) (on_board yes) (dnp no) (fields_autoplaced)
    (uuid 06b18392-a884-4166-baaa-f702eef235dd)
    (property "Reference" "#PWR019" (at 247.015 136.525 0)
      (effects (font (size 1.27 1.27)) hide)
    )
    (property "Value" "GND" (at 247.015 134.62 0)
      (effects (font (size 1.27 1.27)))
    )
    (property "Footprint" "" (at 247.015 130.175 0)
      (effects (font (size 1.27 1.27)) hide)
    )
    (property "Datasheet" "" (at 247.015 130.175 0)
      (effects (font (size 1.27 1.27)) hide)
    )
    (pin "1" (uuid 28d919c9-a04e-43ca-a64f-e313a701b5f5))
    (instances
      (project "ACTIVATOR"
        (path "/dad1536b-7795-4ed1-9570-288544778227"
          (reference "#PWR019") (unit 1)
        )
      )
    )
  )

  (symbol (lib_id "Diode:US1A") (at 238.125 41.275 180) (unit 1)
    (in_bom yes) (on_board yes) (dnp no) (fields_autoplaced)
    (uuid 1730b2f0-023f-4236-a4ff-426c1dc568dc)
    (property "Reference" "D3" (at 238.125 36.195 0)
      (effects (font (size 1.27 1.27)))
    )
    (property "Value" "US1A" (at 238.125 38.735 0)
      (effects (font (size 1.27 1.27)))
    )
    (property "Footprint" "Diode_SMD:D_SMA" (at 238.125 36.83 0)
      (effects (font (size 1.27 1.27)) hide)
    )
    (property "Datasheet" "https://www.diodes.com/assets/Datasheets/ds16008.pdf" (at 238.125 41.275 0)
      (effects (font (size 1.27 1.27)) hide)
    )
    (property "Sim.Device" "D" (at 238.125 41.275 0)
      (effects (font (size 1.27 1.27)) hide)
    )
    (property "Sim.Pins" "1=K 2=A" (at 238.125 41.275 0)
      (effects (font (size 1.27 1.27)) hide)
    )
    (pin "1" (uuid 7b14f819-fb6d-4929-8f77-5c4df4f4e04e))
    (pin "2" (uuid 728db00e-f42a-4a8b-b530-6cce25aa2302))
    (instances
      (project "ACTIVATOR"
        (path "/dad1536b-7795-4ed1-9570-288544778227"
          (reference "D3") (unit 1)
        )
      )
    )
  )

  (symbol (lib_id "power:-12V") (at 259.715 143.51 180) (unit 1)
    (in_bom yes) (on_board yes) (dnp no) (fields_autoplaced)
    (uuid 1c9abbd2-ce7a-4b20-887d-f1f97a5b55aa)
    (property "Reference" "#PWR017" (at 259.715 146.05 0)
      (effects (font (size 1.27 1.27)) hide)
    )
    (property "Value" "-12V" (at 259.715 147.955 0)
      (effects (font (size 1.27 1.27)))
    )
    (property "Footprint" "" (at 259.715 143.51 0)
      (effects (font (size 1.27 1.27)) hide)
    )
    (property "Datasheet" "" (at 259.715 143.51 0)
      (effects (font (size 1.27 1.27)) hide)
    )
    (pin "1" (uuid d78552c5-e8df-43cd-be7c-1b0be13dfa13))
    (instances
      (project "ACTIVATOR"
        (path "/dad1536b-7795-4ed1-9570-288544778227"
          (reference "#PWR017") (unit 1)
        )
      )
    )
  )

  (symbol (lib_id "Device:R") (at 137.16 63.5 180) (unit 1)
    (in_bom yes) (on_board yes) (dnp no) (fields_autoplaced)
    (uuid 1e4588e7-78b2-400e-b050-8693882cdf30)
    (property "Reference" "R5" (at 139.7 62.865 0)
      (effects (font (size 1.27 1.27)) (justify right))
    )
    (property "Value" "5.1K" (at 139.7 65.405 0)
      (effects (font (size 1.27 1.27)) (justify right))
    )
    (property "Footprint" "Resistor_SMD:R_0805_2012Metric_Pad1.20x1.40mm_HandSolder" (at 138.938 63.5 90)
      (effects (font (size 1.27 1.27)) hide)
    )
    (property "Datasheet" "~" (at 137.16 63.5 0)
      (effects (font (size 1.27 1.27)) hide)
    )
    (pin "1" (uuid 2f8f89a3-fe53-41c6-83e9-2888bc581176))
    (pin "2" (uuid 10fd9a14-4376-4a10-825c-3cb4aa34563f))
    (instances
      (project "ACTIVATOR"
        (path "/dad1536b-7795-4ed1-9570-288544778227"
          (reference "R5") (unit 1)
        )
      )
    )
  )

  (symbol (lib_id "Diode:US1A") (at 238.125 31.115 0) (unit 1)
    (in_bom yes) (on_board yes) (dnp no) (fields_autoplaced)
    (uuid 2624f537-27a0-428a-9aca-4abc1948fc4d)
    (property "Reference" "D1" (at 238.125 25.4 0)
      (effects (font (size 1.27 1.27)))
    )
    (property "Value" "US1A" (at 238.125 27.94 0)
      (effects (font (size 1.27 1.27)))
    )
    (property "Footprint" "Diode_SMD:D_SMA" (at 238.125 35.56 0)
      (effects (font (size 1.27 1.27)) hide)
    )
    (property "Datasheet" "https://www.diodes.com/assets/Datasheets/ds16008.pdf" (at 238.125 31.115 0)
      (effects (font (size 1.27 1.27)) hide)
    )
    (property "Sim.Device" "D" (at 238.125 31.115 0)
      (effects (font (size 1.27 1.27)) hide)
    )
    (property "Sim.Pins" "1=K 2=A" (at 238.125 31.115 0)
      (effects (font (size 1.27 1.27)) hide)
    )
    (pin "1" (uuid ab86876b-f58b-47b6-868e-3dd53c710e65))
    (pin "2" (uuid 5f5d6d72-6426-4ada-9404-b6e955fd354b))
    (instances
      (project "ACTIVATOR"
        (path "/dad1536b-7795-4ed1-9570-288544778227"
          (reference "D1") (unit 1)
        )
      )
    )
  )

  (symbol (lib_id "Device:C") (at 274.32 80.645 0) (unit 1)
    (in_bom yes) (on_board yes) (dnp no) (fields_autoplaced)
    (uuid 348c8591-105e-4116-baea-a1cbb043f4df)
    (property "Reference" "C4" (at 277.495 80.01 0)
      (effects (font (size 1.27 1.27)) (justify left))
    )
    (property "Value" "100n" (at 277.495 82.55 0)
      (effects (font (size 1.27 1.27)) (justify left))
    )
    (property "Footprint" "Capacitor_SMD:C_0805_2012Metric_Pad1.18x1.45mm_HandSolder" (at 275.2852 84.455 0)
      (effects (font (size 1.27 1.27)) hide)
    )
    (property "Datasheet" "~" (at 274.32 80.645 0)
      (effects (font (size 1.27 1.27)) hide)
    )
    (pin "1" (uuid 7247fa40-c24f-4250-9993-7318267fcb65))
    (pin "2" (uuid 62a77436-563d-462f-9118-9884f2a5b43e))
    (instances
      (project "ACTIVATOR"
        (path "/dad1536b-7795-4ed1-9570-288544778227"
          (reference "C4") (unit 1)
        )
      )
    )
  )

  (symbol (lib_id "Device:R_Potentiometer") (at 169.545 59.055 0) (unit 1)
    (in_bom yes) (on_board yes) (dnp no)
    (uuid 3611d883-af84-408f-8484-3af6f2ad3138)
    (property "Reference" "RV1" (at 167.005 57.785 0)
      (effects (font (size 1.27 1.27)) (justify right))
    )
    (property "Value" "100K" (at 167.005 60.325 0)
      (effects (font (size 1.27 1.27)) (justify right))
    )
    (property "Footprint" "Eurorack custom footprints:Alpha_9mm_Potentiometer" (at 169.545 59.055 0)
      (effects (font (size 1.27 1.27)) hide)
    )
    (property "Datasheet" "~" (at 169.545 59.055 0)
      (effects (font (size 1.27 1.27)) hide)
    )
    (pin "1" (uuid 98e59774-d472-4e5d-8045-152105ca6ec1))
    (pin "2" (uuid b497860c-9b7b-4952-8b63-8cf9b63a15f9))
    (pin "3" (uuid 25797564-c411-46a2-9b60-3ccd20efc0ca))
    (instances
      (project "ACTIVATOR"
        (path "/dad1536b-7795-4ed1-9570-288544778227"
          (reference "RV1") (unit 1)
        )
      )
    )
  )

  (symbol (lib_id "Device:R") (at 184.15 50.8 90) (mirror x) (unit 1)
    (in_bom yes) (on_board yes) (dnp no)
    (uuid 391702c7-f1aa-439e-9269-884260f64380)
    (property "Reference" "R1" (at 184.15 45.72 90)
      (effects (font (size 1.27 1.27)))
    )
    (property "Value" "1K" (at 184.15 48.26 90)
      (effects (font (size 1.27 1.27)))
    )
    (property "Footprint" "Resistor_SMD:R_0805_2012Metric_Pad1.20x1.40mm_HandSolder" (at 184.15 49.022 90)
      (effects (font (size 1.27 1.27)) hide)
    )
    (property "Datasheet" "~" (at 184.15 50.8 0)
      (effects (font (size 1.27 1.27)) hide)
    )
    (pin "1" (uuid cb164c3a-9d66-45bc-91a5-ba00824b7276))
    (pin "2" (uuid dde2b479-f2cc-4320-bdd3-71d2e06a99be))
    (instances
      (project "ACTIVATOR"
        (path "/dad1536b-7795-4ed1-9570-288544778227"
          (reference "R1") (unit 1)
        )
      )
    )
  )

  (symbol (lib_id "Amplifier_Operational:TL072") (at 149.225 50.8 0) (unit 2)
    (in_bom yes) (on_board yes) (dnp no)
    (uuid 3c563b2d-20e2-4dfd-a14f-a7e9d50f36d9)
    (property "Reference" "U1" (at 149.225 43.18 0)
      (effects (font (size 1.27 1.27)))
    )
    (property "Value" "TL072" (at 149.225 40.64 0)
      (effects (font (size 1.27 1.27)))
    )
    (property "Footprint" "Package_SO:SOIC-8_3.9x4.9mm_P1.27mm" (at 149.225 50.8 0)
      (effects (font (size 1.27 1.27)) hide)
    )
    (property "Datasheet" "http://www.ti.com/lit/ds/symlink/tl071.pdf" (at 149.225 50.8 0)
      (effects (font (size 1.27 1.27)) hide)
    )
    (pin "1" (uuid 82b8969d-41c4-4558-ab78-945f969f68c2))
    (pin "2" (uuid c3d1bf9d-edbe-4d51-905e-3fecc31b2e34))
    (pin "3" (uuid 0abc242d-8356-4fb0-83b8-fe9603cba294))
    (pin "5" (uuid cfa4a8d3-15c9-4a85-a0a0-d1ca52737aff))
    (pin "6" (uuid 17a4c285-2f68-4fdb-81e8-d31ac4de55ff))
    (pin "7" (uuid f1be062a-2f09-48fe-844f-b44beef7f271))
    (pin "4" (uuid d0db704f-b92b-4e2e-8b00-7406226915e4))
    (pin "8" (uuid 05b694ad-a309-49ae-86d2-b1de4557abf4))
    (instances
      (project "ACTIVATOR"
        (path "/dad1536b-7795-4ed1-9570-288544778227"
          (reference "U1") (unit 2)
        )
      )
    )
  )

  (symbol (lib_id "power:-12V") (at 231.775 48.26 180) (unit 1)
    (in_bom yes) (on_board yes) (dnp no) (fields_autoplaced)
    (uuid 45d8b82e-ae36-43ec-8c54-299246e939c2)
    (property "Reference" "#PWR04" (at 231.775 50.8 0)
      (effects (font (size 1.27 1.27)) hide)
    )
    (property "Value" "-12V" (at 231.775 52.705 0)
      (effects (font (size 1.27 1.27)))
    )
    (property "Footprint" "" (at 231.775 48.26 0)
      (effects (font (size 1.27 1.27)) hide)
    )
    (property "Datasheet" "" (at 231.775 48.26 0)
      (effects (font (size 1.27 1.27)) hide)
    )
    (pin "1" (uuid 594fb74f-6c8f-4216-a419-8ee969cf40b7))
    (instances
      (project "ACTIVATOR"
        (path "/dad1536b-7795-4ed1-9570-288544778227"
          (reference "#PWR04") (unit 1)
        )
      )
    )
  )

  (symbol (lib_id "power:GND") (at 270.51 151.765 0) (unit 1)
    (in_bom yes) (on_board yes) (dnp no) (fields_autoplaced)
    (uuid 486c587a-c25f-4651-beef-955bb8e733fc)
    (property "Reference" "#PWR018" (at 270.51 158.115 0)
      (effects (font (size 1.27 1.27)) hide)
    )
    (property "Value" "GND" (at 270.51 156.21 0)
      (effects (font (size 1.27 1.27)))
    )
    (property "Footprint" "" (at 270.51 151.765 0)
      (effects (font (size 1.27 1.27)) hide)
    )
    (property "Datasheet" "" (at 270.51 151.765 0)
      (effects (font (size 1.27 1.27)) hide)
    )
    (pin "1" (uuid dc503b86-1eb3-4722-9f5c-c6faee4ff9dd))
    (instances
      (project "ACTIVATOR"
        (path "/dad1536b-7795-4ed1-9570-288544778227"
          (reference "#PWR018") (unit 1)
        )
      )
    )
  )

  (symbol (lib_id "power:+12V") (at 245.745 59.055 0) (unit 1)
    (in_bom yes) (on_board yes) (dnp no) (fields_autoplaced)
    (uuid 5112aba9-09b1-4f41-b293-e94f87beab40)
    (property "Reference" "#PWR06" (at 245.745 62.865 0)
      (effects (font (size 1.27 1.27)) hide)
    )
    (property "Value" "+12V" (at 245.745 55.88 0)
      (effects (font (size 1.27 1.27)))
    )
    (property "Footprint" "" (at 245.745 59.055 0)
      (effects (font (size 1.27 1.27)) hide)
    )
    (property "Datasheet" "" (at 245.745 59.055 0)
      (effects (font (size 1.27 1.27)) hide)
    )
    (pin "1" (uuid 2ee74551-2abf-49d2-878c-b659dce68d94))
    (instances
      (project "ACTIVATOR"
        (path "/dad1536b-7795-4ed1-9570-288544778227"
          (reference "#PWR06") (unit 1)
        )
      )
    )
  )

  (symbol (lib_id "power:+12V") (at 231.775 25.4 0) (unit 1)
    (in_bom yes) (on_board yes) (dnp no) (fields_autoplaced)
    (uuid 5b9ea0f0-e032-4bee-bdcd-71fc51418a9f)
    (property "Reference" "#PWR01" (at 231.775 29.21 0)
      (effects (font (size 1.27 1.27)) hide)
    )
    (property "Value" "+12V" (at 231.775 22.225 0)
      (effects (font (size 1.27 1.27)))
    )
    (property "Footprint" "" (at 231.775 25.4 0)
      (effects (font (size 1.27 1.27)) hide)
    )
    (property "Datasheet" "" (at 231.775 25.4 0)
      (effects (font (size 1.27 1.27)) hide)
    )
    (pin "1" (uuid b0321320-ceb0-46a8-90f0-b08748852267))
    (instances
      (project "ACTIVATOR"
        (path "/dad1536b-7795-4ed1-9570-288544778227"
          (reference "#PWR01") (unit 1)
        )
      )
    )
  )

  (symbol (lib_id "Diode:1N4148") (at 82.55 53.34 90) (mirror x) (unit 1)
    (in_bom yes) (on_board yes) (dnp no)
    (uuid 63e8968f-9a87-49ac-960b-eb77e0da2400)
    (property "Reference" "D4" (at 80.01 52.705 90)
      (effects (font (size 1.27 1.27)) (justify left))
    )
    (property "Value" "1N4148" (at 80.01 55.245 90)
      (effects (font (size 1.27 1.27)) (justify left))
    )
    (property "Footprint" "Diode_SMD:D_SOD-323_HandSoldering" (at 82.55 53.34 0)
      (effects (font (size 1.27 1.27)) hide)
    )
    (property "Datasheet" "https://assets.nexperia.com/documents/data-sheet/1N4148_1N4448.pdf" (at 82.55 53.34 0)
      (effects (font (size 1.27 1.27)) hide)
    )
    (property "Sim.Device" "D" (at 82.55 53.34 0)
      (effects (font (size 1.27 1.27)) hide)
    )
    (property "Sim.Pins" "1=K 2=A" (at 82.55 53.34 0)
      (effects (font (size 1.27 1.27)) hide)
    )
    (pin "1" (uuid effc2bc0-91f6-464f-80cf-68cf208d454f))
    (pin "2" (uuid cd3d1f37-dc2f-4e01-9896-20ae595d346c))
    (instances
      (project "ACTIVATOR"
        (path "/dad1536b-7795-4ed1-9570-288544778227"
          (reference "D4") (unit 1)
        )
      )
    )
  )

  (symbol (lib_id "Device:C_Polarized") (at 245.745 80.645 0) (unit 1)
    (in_bom yes) (on_board yes) (dnp no) (fields_autoplaced)
    (uuid 666300c8-421f-4db6-988e-f885899f3d64)
    (property "Reference" "C3" (at 249.555 79.121 0)
      (effects (font (size 1.27 1.27)) (justify left))
    )
    (property "Value" "10uF" (at 249.555 81.661 0)
      (effects (font (size 1.27 1.27)) (justify left))
    )
    (property "Footprint" "Capacitor_Tantalum_SMD:CP_EIA-3528-12_Kemet-T_Pad1.50x2.35mm_HandSolder" (at 246.7102 84.455 0)
      (effects (font (size 1.27 1.27)) hide)
    )
    (property "Datasheet" "~" (at 245.745 80.645 0)
      (effects (font (size 1.27 1.27)) hide)
    )
    (pin "1" (uuid 0ab0d484-447b-40e7-9768-7d0b5a4ff3b9))
    (pin "2" (uuid e911c64b-e125-47bd-b608-693537b712f6))
    (instances
      (project "ACTIVATOR"
        (path "/dad1536b-7795-4ed1-9570-288544778227"
          (reference "C3") (unit 1)
        )
      )
    )
  )

  (symbol (lib_id "power:PWR_FLAG") (at 231.775 41.275 90) (unit 1)
    (in_bom yes) (on_board yes) (dnp no) (fields_autoplaced)
    (uuid 723a40f9-8e00-4382-a80b-1ec28bb43781)
    (property "Reference" "#FLG02" (at 229.87 41.275 0)
      (effects (font (size 1.27 1.27)) hide)
    )
    (property "Value" "PWR_FLAG" (at 227.965 41.91 90)
      (effects (font (size 1.27 1.27)) (justify left))
    )
    (property "Footprint" "" (at 231.775 41.275 0)
      (effects (font (size 1.27 1.27)) hide)
    )
    (property "Datasheet" "~" (at 231.775 41.275 0)
      (effects (font (size 1.27 1.27)) hide)
    )
    (pin "1" (uuid 88bd1ee8-31f7-49eb-9c18-42eb8aa764c5))
    (instances
      (project "ACTIVATOR"
        (path "/dad1536b-7795-4ed1-9570-288544778227"
          (reference "#FLG02") (unit 1)
        )
      )
    )
  )

  (symbol (lib_id "power:+12V") (at 274.32 59.055 0) (unit 1)
    (in_bom yes) (on_board yes) (dnp no) (fields_autoplaced)
    (uuid 7d0d8c41-5886-4ce2-b3a4-bf241c68a36c)
    (property "Reference" "#PWR07" (at 274.32 62.865 0)
      (effects (font (size 1.27 1.27)) hide)
    )
    (property "Value" "+12V" (at 274.32 55.88 0)
      (effects (font (size 1.27 1.27)))
    )
    (property "Footprint" "" (at 274.32 59.055 0)
      (effects (font (size 1.27 1.27)) hide)
    )
    (property "Datasheet" "" (at 274.32 59.055 0)
      (effects (font (size 1.27 1.27)) hide)
    )
    (pin "1" (uuid b5fb2678-dcfd-4a20-90ea-0185a01b89cb))
    (instances
      (project "ACTIVATOR"
        (path "/dad1536b-7795-4ed1-9570-288544778227"
          (reference "#PWR07") (unit 1)
        )
      )
    )
  )

  (symbol (lib_id "Connector_Generic:Conn_02x05_Odd_Even") (at 258.445 36.195 0) (unit 1)
    (in_bom yes) (on_board yes) (dnp no) (fields_autoplaced)
    (uuid 819f616c-9e90-4d2f-95e8-31ad7c291f9f)
    (property "Reference" "J1" (at 259.715 26.035 0)
      (effects (font (size 1.27 1.27)))
    )
    (property "Value" "Conn_02x05_Odd_Even" (at 259.715 28.575 0)
      (effects (font (size 1.27 1.27)))
    )
    (property "Footprint" "Connector_PinHeader_2.54mm:PinHeader_2x05_P2.54mm_Vertical" (at 258.445 36.195 0)
      (effects (font (size 1.27 1.27)) hide)
    )
    (property "Datasheet" "~" (at 258.445 36.195 0)
      (effects (font (size 1.27 1.27)) hide)
    )
    (pin "1" (uuid 375be5fd-f3bd-4bcb-aa1a-5e4b81ffcb55))
    (pin "10" (uuid 8fc5be04-1969-48e7-a7b3-1c9bbb739b79))
    (pin "2" (uuid f71fffab-c31c-4850-b008-17b8978d7aa5))
    (pin "3" (uuid 1369ac85-1395-41c7-a2b8-85ca6a670cf3))
    (pin "4" (uuid 97caad9d-56bd-4308-ad7d-76792543e397))
    (pin "5" (uuid 0d558f85-76f3-498e-bf30-f87abcdf83f6))
    (pin "6" (uuid 6503a5fa-52e3-4622-86f8-f6112ceb645e))
    (pin "7" (uuid b7212fa2-a19e-4942-898d-854bc35809a3))
    (pin "8" (uuid a6916725-586e-4022-94f5-3787ec4e13e6))
    (pin "9" (uuid 4e3564e4-be84-485d-8b4e-b24ce3533f62))
    (instances
      (project "ACTIVATOR"
        (path "/dad1536b-7795-4ed1-9570-288544778227"
          (reference "J1") (unit 1)
        )
      )
    )
  )

  (symbol (lib_id "Connector_Generic:Conn_01x02") (at 55.245 48.26 0) (unit 1)
    (in_bom yes) (on_board yes) (dnp no) (fields_autoplaced)
    (uuid 823c94a4-2d5a-41e7-95ab-d3434b921708)
    (property "Reference" "J3" (at 57.785 48.895 0)
      (effects (font (size 1.27 1.27)) (justify left))
    )
    (property "Value" "Conn_01x02" (at 57.785 51.435 0)
      (effects (font (size 1.27 1.27)) (justify left))
    )
    (property "Footprint" "Connector_PinSocket_2.54mm:PinSocket_1x02_P2.54mm_Vertical" (at 55.245 48.26 0)
      (effects (font (size 1.27 1.27)) hide)
    )
    (property "Datasheet" "~" (at 55.245 48.26 0)
      (effects (font (size 1.27 1.27)) hide)
    )
    (pin "1" (uuid bf8b5ecb-b397-4310-8575-aa5f49536e17))
    (pin "2" (uuid c97a2a5b-3834-4ca3-bcbf-eea1be30a6d6))
    (instances
      (project "ACTIVATOR"
        (path "/dad1536b-7795-4ed1-9570-288544778227"
          (reference "J3") (unit 1)
        )
      )
    )
  )

  (symbol (lib_id "Device:C") (at 270.51 139.7 0) (unit 1)
    (in_bom yes) (on_board yes) (dnp no) (fields_autoplaced)
    (uuid 89ee9862-bfd5-4ad2-a198-fb47ac9da0ad)
    (property "Reference" "C6" (at 273.685 139.065 0)
      (effects (font (size 1.27 1.27)) (justify left))
    )
    (property "Value" "100n" (at 273.685 141.605 0)
      (effects (font (size 1.27 1.27)) (justify left))
    )
    (property "Footprint" "Capacitor_SMD:C_0805_2012Metric_Pad1.18x1.45mm_HandSolder" (at 271.4752 143.51 0)
      (effects (font (size 1.27 1.27)) hide)
    )
    (property "Datasheet" "~" (at 270.51 139.7 0)
      (effects (font (size 1.27 1.27)) hide)
    )
    (pin "1" (uuid 55fd92a8-582d-4cb3-984a-1276e514495c))
    (pin "2" (uuid 03bf13e3-8391-4079-838f-d14e2580793c))
    (instances
      (project "ACTIVATOR"
        (path "/dad1536b-7795-4ed1-9570-288544778227"
          (reference "C6") (unit 1)
        )
      )
    )
  )

  (symbol (lib_id "power:GND") (at 82.55 61.595 0) (unit 1)
    (in_bom yes) (on_board yes) (dnp no) (fields_autoplaced)
    (uuid 8b349844-2cdd-4d50-ac54-f84ce6bb08c0)
    (property "Reference" "#PWR08" (at 82.55 67.945 0)
      (effects (font (size 1.27 1.27)) hide)
    )
    (property "Value" "GND" (at 82.55 66.04 0)
      (effects (font (size 1.27 1.27)))
    )
    (property "Footprint" "" (at 82.55 61.595 0)
      (effects (font (size 1.27 1.27)) hide)
    )
    (property "Datasheet" "" (at 82.55 61.595 0)
      (effects (font (size 1.27 1.27)) hide)
    )
    (pin "1" (uuid 4b0f8f3d-1479-4bda-b474-caa1a8052740))
    (instances
      (project "ACTIVATOR"
        (path "/dad1536b-7795-4ed1-9570-288544778227"
          (reference "#PWR08") (unit 1)
        )
      )
    )
  )

  (symbol (lib_id "Connector_Audio:AudioJack2_SwitchT") (at 36.83 45.72 0) (unit 1)
    (in_bom yes) (on_board yes) (dnp no) (fields_autoplaced)
    (uuid 8ea27064-32e2-4253-b5fd-685457bf2587)
    (property "Reference" "J2" (at 36.195 38.1 0)
      (effects (font (size 1.27 1.27)))
    )
    (property "Value" "AudioJack2_SwitchT" (at 36.195 40.64 0)
      (effects (font (size 1.27 1.27)))
    )
    (property "Footprint" "tranxxenolab:Jack_3.5mm_QingPu_WQP-PJ398SM_Vertical_CircularHoles_closer_ground" (at 36.83 45.72 0)
      (effects (font (size 1.27 1.27)) hide)
    )
    (property "Datasheet" "~" (at 36.83 45.72 0)
      (effects (font (size 1.27 1.27)) hide)
    )
    (pin "S" (uuid 32288506-6228-4a50-b0cb-e5373256feee))
    (pin "T" (uuid 7a0994da-73d2-4fe6-bd13-116810f07b3b))
    (pin "TN" (uuid b1570e8a-6afd-401b-ab31-d6f917db90be))
    (instances
      (project "ACTIVATOR"
        (path "/dad1536b-7795-4ed1-9570-288544778227"
          (reference "J2") (unit 1)
        )
      )
    )
  )

  (symbol (lib_id "power:GND") (at 104.14 69.85 0) (unit 1)
    (in_bom yes) (on_board yes) (dnp no) (fields_autoplaced)
    (uuid a4d2301c-374b-4642-8149-69b6f28ac5e6)
    (property "Reference" "#PWR09" (at 104.14 76.2 0)
      (effects (font (size 1.27 1.27)) hide)
    )
    (property "Value" "GND" (at 104.14 74.295 0)
      (effects (font (size 1.27 1.27)))
    )
    (property "Footprint" "" (at 104.14 69.85 0)
      (effects (font (size 1.27 1.27)) hide)
    )
    (property "Datasheet" "" (at 104.14 69.85 0)
      (effects (font (size 1.27 1.27)) hide)
    )
    (pin "1" (uuid 10783b1e-1863-461f-ac88-fee69d774fd0))
    (instances
      (project "ACTIVATOR"
        (path "/dad1536b-7795-4ed1-9570-288544778227"
          (reference "#PWR09") (unit 1)
        )
      )
    )
  )

  (symbol (lib_id "power:GND") (at 274.32 43.815 0) (unit 1)
    (in_bom yes) (on_board yes) (dnp no) (fields_autoplaced)
    (uuid a8a54db5-6839-467f-95b4-df356154aaae)
    (property "Reference" "#PWR03" (at 274.32 50.165 0)
      (effects (font (size 1.27 1.27)) hide)
    )
    (property "Value" "GND" (at 274.32 48.895 0)
      (effects (font (size 1.27 1.27)))
    )
    (property "Footprint" "" (at 274.32 43.815 0)
      (effects (font (size 1.27 1.27)) hide)
    )
    (property "Datasheet" "" (at 274.32 43.815 0)
      (effects (font (size 1.27 1.27)) hide)
    )
    (pin "1" (uuid 487e416c-7846-4af6-9a6f-5e75bbd0e179))
    (instances
      (project "ACTIVATOR"
        (path "/dad1536b-7795-4ed1-9570-288544778227"
          (reference "#PWR03") (unit 1)
        )
      )
    )
  )

  (symbol (lib_id "power:PWR_FLAG") (at 231.775 31.115 90) (unit 1)
    (in_bom yes) (on_board yes) (dnp no) (fields_autoplaced)
    (uuid ad2d3f70-f7bb-4a66-9323-b6608cc44145)
    (property "Reference" "#FLG01" (at 229.87 31.115 0)
      (effects (font (size 1.27 1.27)) hide)
    )
    (property "Value" "PWR_FLAG" (at 227.965 31.75 90)
      (effects (font (size 1.27 1.27)) (justify left))
    )
    (property "Footprint" "" (at 231.775 31.115 0)
      (effects (font (size 1.27 1.27)) hide)
    )
    (property "Datasheet" "~" (at 231.775 31.115 0)
      (effects (font (size 1.27 1.27)) hide)
    )
    (pin "1" (uuid aa101390-4c1e-4359-87e4-3434c0be6acc))
    (instances
      (project "ACTIVATOR"
        (path "/dad1536b-7795-4ed1-9570-288544778227"
          (reference "#FLG01") (unit 1)
        )
      )
    )
  )

  (symbol (lib_id "Diode:1N4148") (at 82.55 36.83 270) (unit 1)
    (in_bom yes) (on_board yes) (dnp no) (fields_autoplaced)
    (uuid ade5dd0b-157c-4f23-aac6-b38d063b4a68)
    (property "Reference" "D2" (at 85.09 36.195 90)
      (effects (font (size 1.27 1.27)) (justify left))
    )
    (property "Value" "1N4148" (at 85.09 38.735 90)
      (effects (font (size 1.27 1.27)) (justify left))
    )
    (property "Footprint" "Diode_SMD:D_SOD-323_HandSoldering" (at 82.55 36.83 0)
      (effects (font (size 1.27 1.27)) hide)
    )
    (property "Datasheet" "https://assets.nexperia.com/documents/data-sheet/1N4148_1N4448.pdf" (at 82.55 36.83 0)
      (effects (font (size 1.27 1.27)) hide)
    )
    (property "Sim.Device" "D" (at 82.55 36.83 0)
      (effects (font (size 1.27 1.27)) hide)
    )
    (property "Sim.Pins" "1=K 2=A" (at 82.55 36.83 0)
      (effects (font (size 1.27 1.27)) hide)
    )
    (pin "1" (uuid ef0cac26-95a6-4dca-aa24-d7d6ee4f826a))
    (pin "2" (uuid 72f5db3f-62e4-4b12-b5d2-e096f34f7e3e))
    (instances
      (project "ACTIVATOR"
        (path "/dad1536b-7795-4ed1-9570-288544778227"
          (reference "D2") (unit 1)
        )
      )
    )
  )

  (symbol (lib_id "power:+12V") (at 82.55 29.21 0) (unit 1)
    (in_bom yes) (on_board yes) (dnp no) (fields_autoplaced)
    (uuid b1ef0478-f4fe-4d59-9b97-c95b3301d006)
    (property "Reference" "#PWR02" (at 82.55 33.02 0)
      (effects (font (size 1.27 1.27)) hide)
    )
    (property "Value" "+12V" (at 82.55 25.4 0)
      (effects (font (size 1.27 1.27)))
    )
    (property "Footprint" "" (at 82.55 29.21 0)
      (effects (font (size 1.27 1.27)) hide)
    )
    (property "Datasheet" "" (at 82.55 29.21 0)
      (effects (font (size 1.27 1.27)) hide)
    )
    (pin "1" (uuid b95b3ea3-bff9-435b-a259-1be8cd9b2422))
    (instances
      (project "ACTIVATOR"
        (path "/dad1536b-7795-4ed1-9570-288544778227"
          (reference "#PWR02") (unit 1)
        )
      )
    )
  )

  (symbol (lib_id "Device:C") (at 247.015 120.65 0) (unit 1)
    (in_bom yes) (on_board yes) (dnp no) (fields_autoplaced)
    (uuid b2699980-f102-4f1e-bc3c-64b55cab1f4f)
    (property "Reference" "C5" (at 250.19 120.015 0)
      (effects (font (size 1.27 1.27)) (justify left))
    )
    (property "Value" "100n" (at 250.19 122.555 0)
      (effects (font (size 1.27 1.27)) (justify left))
    )
    (property "Footprint" "Capacitor_SMD:C_0805_2012Metric_Pad1.18x1.45mm_HandSolder" (at 247.9802 124.46 0)
      (effects (font (size 1.27 1.27)) hide)
    )
    (property "Datasheet" "~" (at 247.015 120.65 0)
      (effects (font (size 1.27 1.27)) hide)
    )
    (pin "1" (uuid bcb31f23-6d80-4aa1-87d3-c14588205f1a))
    (pin "2" (uuid 2a2087eb-cd65-4245-a14c-d243838d394a))
    (instances
      (project "ACTIVATOR"
        (path "/dad1536b-7795-4ed1-9570-288544778227"
          (reference "C5") (unit 1)
        )
      )
    )
  )

  (symbol (lib_id "Device:C_Polarized") (at 245.745 66.04 0) (unit 1)
    (in_bom yes) (on_board yes) (dnp no) (fields_autoplaced)
    (uuid c2694687-3327-464a-8b3e-548d1c8d35dd)
    (property "Reference" "C1" (at 249.555 64.516 0)
      (effects (font (size 1.27 1.27)) (justify left))
    )
    (property "Value" "10uF" (at 249.555 67.056 0)
      (effects (font (size 1.27 1.27)) (justify left))
    )
    (property "Footprint" "Capacitor_Tantalum_SMD:CP_EIA-3528-12_Kemet-T_Pad1.50x2.35mm_HandSolder" (at 246.7102 69.85 0)
      (effects (font (size 1.27 1.27)) hide)
    )
    (property "Datasheet" "~" (at 245.745 66.04 0)
      (effects (font (size 1.27 1.27)) hide)
    )
    (pin "1" (uuid 6e6fb537-74cd-4bb0-8b23-45eb6e8733b1))
    (pin "2" (uuid b1fc9081-518b-467c-8d06-9896a138317e))
    (instances
      (project "ACTIVATOR"
        (path "/dad1536b-7795-4ed1-9570-288544778227"
          (reference "C1") (unit 1)
        )
      )
    )
  )

  (symbol (lib_id "Device:R") (at 116.205 57.15 270) (unit 1)
    (in_bom yes) (on_board yes) (dnp no)
    (uuid c35d5de1-fb89-4e59-8e26-107b26fa8d2b)
    (property "Reference" "R3" (at 116.205 62.23 90)
      (effects (font (size 1.27 1.27)))
    )
    (property "Value" "51K" (at 116.205 59.69 90)
      (effects (font (size 1.27 1.27)))
    )
    (property "Footprint" "Resistor_SMD:R_0805_2012Metric_Pad1.20x1.40mm_HandSolder" (at 116.205 55.372 90)
      (effects (font (size 1.27 1.27)) hide)
    )
    (property "Datasheet" "~" (at 116.205 57.15 0)
      (effects (font (size 1.27 1.27)) hide)
    )
    (pin "1" (uuid 684f9667-84ef-4a25-8303-e51e20c9d0bf))
    (pin "2" (uuid 9dfa1680-036d-48ce-a43d-7cb70a185726))
    (instances
      (project "ACTIVATOR"
        (path "/dad1536b-7795-4ed1-9570-288544778227"
          (reference "R3") (unit 1)
        )
      )
    )
  )

  (symbol (lib_id "power:GND") (at 234.95 75.565 0) (unit 1)
    (in_bom yes) (on_board yes) (dnp no) (fields_autoplaced)
    (uuid c68833e4-2e65-4f22-bb49-f1636151b700)
    (property "Reference" "#PWR012" (at 234.95 81.915 0)
      (effects (font (size 1.27 1.27)) hide)
    )
    (property "Value" "GND" (at 234.95 80.645 0)
      (effects (font (size 1.27 1.27)))
    )
    (property "Footprint" "" (at 234.95 75.565 0)
      (effects (font (size 1.27 1.27)) hide)
    )
    (property "Datasheet" "" (at 234.95 75.565 0)
      (effects (font (size 1.27 1.27)) hide)
    )
    (pin "1" (uuid 3d7f8704-fa13-42ad-87c8-03de2f1cf9a6))
    (instances
      (project "ACTIVATOR"
        (path "/dad1536b-7795-4ed1-9570-288544778227"
          (reference "#PWR012") (unit 1)
        )
      )
    )
  )

  (symbol (lib_id "Device:R") (at 155.575 65.405 90) (unit 1)
    (in_bom yes) (on_board yes) (dnp no)
    (uuid cfc7af8a-b5c3-4e09-829a-b78180323530)
    (property "Reference" "R6" (at 155.575 70.485 90)
      (effects (font (size 1.27 1.27)))
    )
    (property "Value" "5.1K" (at 155.575 67.945 90)
      (effects (font (size 1.27 1.27)))
    )
    (property "Footprint" "Resistor_SMD:R_0805_2012Metric_Pad1.20x1.40mm_HandSolder" (at 155.575 67.183 90)
      (effects (font (size 1.27 1.27)) hide)
    )
    (property "Datasheet" "~" (at 155.575 65.405 0)
      (effects (font (size 1.27 1.27)) hide)
    )
    (pin "1" (uuid d9742a43-7c47-40a7-8297-dab49f4b15e2))
    (pin "2" (uuid 4f08373a-b862-4665-beb9-b441e1fd1251))
    (instances
      (project "ACTIVATOR"
        (path "/dad1536b-7795-4ed1-9570-288544778227"
          (reference "R6") (unit 1)
        )
      )
    )
  )

  (symbol (lib_id "Device:C") (at 274.32 66.04 0) (unit 1)
    (in_bom yes) (on_board yes) (dnp no) (fields_autoplaced)
    (uuid d340f896-015f-4ab2-9490-9e532d7a0897)
    (property "Reference" "C2" (at 277.495 65.405 0)
      (effects (font (size 1.27 1.27)) (justify left))
    )
    (property "Value" "100n" (at 277.495 67.945 0)
      (effects (font (size 1.27 1.27)) (justify left))
    )
    (property "Footprint" "Capacitor_SMD:C_0805_2012Metric_Pad1.18x1.45mm_HandSolder" (at 275.2852 69.85 0)
      (effects (font (size 1.27 1.27)) hide)
    )
    (property "Datasheet" "~" (at 274.32 66.04 0)
      (effects (font (size 1.27 1.27)) hide)
    )
    (pin "1" (uuid ce0952c8-3f84-4b1a-83e7-56a28f01255e))
    (pin "2" (uuid 3fb5f29d-00d6-4a73-9aa0-28ff53370a83))
    (instances
      (project "ACTIVATOR"
        (path "/dad1536b-7795-4ed1-9570-288544778227"
          (reference "C2") (unit 1)
        )
      )
    )
  )

  (symbol (lib_id "power:GND") (at 263.525 75.565 0) (unit 1)
    (in_bom yes) (on_board yes) (dnp no) (fields_autoplaced)
    (uuid d398db28-cf76-4c6c-a9e3-c789ee8fbe74)
    (property "Reference" "#PWR013" (at 263.525 81.915 0)
      (effects (font (size 1.27 1.27)) hide)
    )
    (property "Value" "GND" (at 263.525 80.645 0)
      (effects (font (size 1.27 1.27)))
    )
    (property "Footprint" "" (at 263.525 75.565 0)
      (effects (font (size 1.27 1.27)) hide)
    )
    (property "Datasheet" "" (at 263.525 75.565 0)
      (effects (font (size 1.27 1.27)) hide)
    )
    (pin "1" (uuid 52ff6a06-5143-40f4-8aa9-1aab72389da4))
    (instances
      (project "ACTIVATOR"
        (path "/dad1536b-7795-4ed1-9570-288544778227"
          (reference "#PWR013") (unit 1)
        )
      )
    )
  )

  (symbol (lib_id "power:-12V") (at 274.32 87.63 180) (unit 1)
    (in_bom yes) (on_board yes) (dnp no) (fields_autoplaced)
    (uuid d61e50bb-98a2-4c30-b618-87ec0976a8ac)
    (property "Reference" "#PWR015" (at 274.32 90.17 0)
      (effects (font (size 1.27 1.27)) hide)
    )
    (property "Value" "-12V" (at 274.32 92.075 0)
      (effects (font (size 1.27 1.27)))
    )
    (property "Footprint" "" (at 274.32 87.63 0)
      (effects (font (size 1.27 1.27)) hide)
    )
    (property "Datasheet" "" (at 274.32 87.63 0)
      (effects (font (size 1.27 1.27)) hide)
    )
    (pin "1" (uuid 88384866-d995-4366-a779-e1c145086b93))
    (instances
      (project "ACTIVATOR"
        (path "/dad1536b-7795-4ed1-9570-288544778227"
          (reference "#PWR015") (unit 1)
        )
      )
    )
  )

  (symbol (lib_id "power:GND") (at 196.215 69.85 0) (unit 1)
    (in_bom yes) (on_board yes) (dnp no) (fields_autoplaced)
    (uuid db2789e4-5dde-4573-89e1-840feba17108)
    (property "Reference" "#PWR011" (at 196.215 76.2 0)
      (effects (font (size 1.27 1.27)) hide)
    )
    (property "Value" "GND" (at 196.215 74.295 0)
      (effects (font (size 1.27 1.27)))
    )
    (property "Footprint" "" (at 196.215 69.85 0)
      (effects (font (size 1.27 1.27)) hide)
    )
    (property "Datasheet" "" (at 196.215 69.85 0)
      (effects (font (size 1.27 1.27)) hide)
    )
    (pin "1" (uuid db3ae4d4-cc13-48a5-a032-06ef9b19873e))
    (instances
      (project "ACTIVATOR"
        (path "/dad1536b-7795-4ed1-9570-288544778227"
          (reference "#PWR011") (unit 1)
        )
      )
    )
  )

  (symbol (lib_id "power:-12V") (at 245.745 87.63 180) (unit 1)
    (in_bom yes) (on_board yes) (dnp no)
    (uuid df876b99-227f-4947-a941-5ce3c25258b4)
    (property "Reference" "#PWR014" (at 245.745 90.17 0)
      (effects (font (size 1.27 1.27)) hide)
    )
    (property "Value" "-12V" (at 245.745 92.075 0)
      (effects (font (size 1.27 1.27)))
    )
    (property "Footprint" "" (at 245.745 87.63 0)
      (effects (font (size 1.27 1.27)) hide)
    )
    (property "Datasheet" "" (at 245.745 87.63 0)
      (effects (font (size 1.27 1.27)) hide)
    )
    (pin "1" (uuid 0bebe757-6cb8-4dc0-8789-24712e809353))
    (instances
      (project "ACTIVATOR"
        (path "/dad1536b-7795-4ed1-9570-288544778227"
          (reference "#PWR014") (unit 1)
        )
      )
    )
  )

  (symbol (lib_id "Device:R") (at 92.075 53.34 180) (unit 1)
    (in_bom yes) (on_board yes) (dnp no) (fields_autoplaced)
    (uuid e142a2c5-ae1c-4e58-a42d-476622d90f82)
    (property "Reference" "R2" (at 93.98 52.705 0)
      (effects (font (size 1.27 1.27)) (justify right))
    )
    (property "Value" "1M" (at 93.98 55.245 0)
      (effects (font (size 1.27 1.27)) (justify right))
    )
    (property "Footprint" "Resistor_SMD:R_0805_2012Metric_Pad1.20x1.40mm_HandSolder" (at 93.853 53.34 90)
      (effects (font (size 1.27 1.27)) hide)
    )
    (property "Datasheet" "~" (at 92.075 53.34 0)
      (effects (font (size 1.27 1.27)) hide)
    )
    (pin "1" (uuid 7776f067-c29e-4627-8fc5-1a757dfbe815))
    (pin "2" (uuid 4136e265-6089-4a49-82b7-7169a2d081eb))
    (instances
      (project "ACTIVATOR"
        (path "/dad1536b-7795-4ed1-9570-288544778227"
          (reference "R2") (unit 1)
        )
      )
    )
  )

  (symbol (lib_id "Amplifier_Operational:TL072") (at 257.175 123.825 0) (mirror y) (unit 3)
    (in_bom yes) (on_board yes) (dnp no)
    (uuid e1c0d2c6-96f7-4840-918a-0a995fdd8441)
    (property "Reference" "U1" (at 260.985 124.46 0)
      (effects (font (size 1.27 1.27)) (justify right))
    )
    (property "Value" "TL072" (at 260.985 121.92 0)
      (effects (font (size 1.27 1.27)) (justify right))
    )
    (property "Footprint" "Package_SO:SOIC-8_3.9x4.9mm_P1.27mm" (at 257.175 123.825 0)
      (effects (font (size 1.27 1.27)) hide)
    )
    (property "Datasheet" "http://www.ti.com/lit/ds/symlink/tl071.pdf" (at 257.175 123.825 0)
      (effects (font (size 1.27 1.27)) hide)
    )
    (pin "1" (uuid a563190c-e722-484c-abf0-6f9b67e5c553))
    (pin "2" (uuid 20c937a0-264e-4f0c-a66b-4b7f1006d8ac))
    (pin "3" (uuid d75ea376-0573-4186-b508-8427905c78ba))
    (pin "5" (uuid d991a865-65b4-434a-a575-903b615c8528))
    (pin "6" (uuid 29712085-8d38-4fbb-936a-ce28c39acebc))
    (pin "7" (uuid 875ce638-2982-42b4-bd1a-dba328aad613))
    (pin "4" (uuid 32f04b02-3c73-496f-97f0-5b859cf30f41))
    (pin "8" (uuid 7c128b64-3d7a-480d-b56a-818117ca9a8e))
    (instances
      (project "ACTIVATOR"
        (path "/dad1536b-7795-4ed1-9570-288544778227"
          (reference "U1") (unit 3)
        )
      )
    )
  )

  (symbol (lib_id "Connector_Audio:AudioJack2_SwitchT") (at 200.66 50.8 0) (mirror y) (unit 1)
    (in_bom yes) (on_board yes) (dnp no)
    (uuid e9c2c6ed-09ce-46d2-a9af-c412db92f626)
    (property "Reference" "J4" (at 201.295 43.18 0)
      (effects (font (size 1.27 1.27)))
    )
    (property "Value" "AudioJack2_SwitchT" (at 201.295 45.72 0)
      (effects (font (size 1.27 1.27)))
    )
    (property "Footprint" "tranxxenolab:Jack_3.5mm_QingPu_WQP-PJ398SM_Vertical_CircularHoles_closer_ground" (at 200.66 50.8 0)
      (effects (font (size 1.27 1.27)) hide)
    )
    (property "Datasheet" "~" (at 200.66 50.8 0)
      (effects (font (size 1.27 1.27)) hide)
    )
    (pin "S" (uuid a50bdf47-6aa8-4f87-a467-e13dadbdafd0))
    (pin "T" (uuid 03e69fa5-80f4-4d77-bfa8-21731d170d75))
    (pin "TN" (uuid 5ee8503c-ed91-4e0f-b92e-ed9b018d0b03))
    (instances
      (project "ACTIVATOR"
        (path "/dad1536b-7795-4ed1-9570-288544778227"
          (reference "J4") (unit 1)
        )
      )
    )
  )

  (symbol (lib_id "Amplifier_Operational:TL072") (at 115.57 48.26 0) (unit 1)
    (in_bom yes) (on_board yes) (dnp no)
    (uuid ebe55bc0-42d8-4496-9510-4b0a25fde50c)
    (property "Reference" "U1" (at 115.57 41.91 0)
      (effects (font (size 1.27 1.27)))
    )
    (property "Value" "TL072" (at 115.57 39.37 0)
      (effects (font (size 1.27 1.27)))
    )
    (property "Footprint" "Package_SO:SOIC-8_3.9x4.9mm_P1.27mm" (at 115.57 48.26 0)
      (effects (font (size 1.27 1.27)) hide)
    )
    (property "Datasheet" "http://www.ti.com/lit/ds/symlink/tl071.pdf" (at 115.57 48.26 0)
      (effects (font (size 1.27 1.27)) hide)
    )
    (pin "1" (uuid d8f7e0eb-4282-46b3-8d03-bfca675d6eb9))
    (pin "2" (uuid ad7e43bf-a81b-40f3-a72d-47eb5989f1d4))
    (pin "3" (uuid fc5ef5fc-008b-49ce-b135-88144520c63a))
    (pin "5" (uuid ef2f1816-fd77-419d-a7de-77850f627077))
    (pin "6" (uuid 00a435af-8703-4ab5-ae01-886b89f70093))
    (pin "7" (uuid e20ab70e-6bf9-4597-83df-8645fd7da119))
    (pin "4" (uuid 29be196f-9d8e-43c1-ade6-a9b906e9c915))
    (pin "8" (uuid bcf70a55-6143-4bbf-b1a1-02ab4928a86f))
    (instances
      (project "ACTIVATOR"
        (path "/dad1536b-7795-4ed1-9570-288544778227"
          (reference "U1") (unit 1)
        )
      )
    )
  )

  (symbol (lib_id "power:+12V") (at 259.715 110.49 0) (mirror y) (unit 1)
    (in_bom yes) (on_board yes) (dnp no)
    (uuid f398a66a-9818-4aea-a066-61eefe0ad980)
    (property "Reference" "#PWR016" (at 259.715 114.3 0)
      (effects (font (size 1.27 1.27)) hide)
    )
    (property "Value" "+12V" (at 259.715 107.315 0)
      (effects (font (size 1.27 1.27)))
    )
    (property "Footprint" "" (at 259.715 110.49 0)
      (effects (font (size 1.27 1.27)) hide)
    )
    (property "Datasheet" "" (at 259.715 110.49 0)
      (effects (font (size 1.27 1.27)) hide)
    )
    (pin "1" (uuid c4eb6d28-b024-4da9-95b4-dfb376c9204d))
    (instances
      (project "ACTIVATOR"
        (path "/dad1536b-7795-4ed1-9570-288544778227"
          (reference "#PWR016") (unit 1)
        )
      )
    )
  )

  (symbol (lib_id "Device:R") (at 104.14 63.5 180) (unit 1)
    (in_bom yes) (on_board yes) (dnp no) (fields_autoplaced)
    (uuid f7e75845-9d3b-40a1-bd8b-5c6d70d39d02)
    (property "Reference" "R4" (at 106.68 62.865 0)
      (effects (font (size 1.27 1.27)) (justify right))
    )
    (property "Value" "10K" (at 106.68 65.405 0)
      (effects (font (size 1.27 1.27)) (justify right))
    )
    (property "Footprint" "Resistor_SMD:R_0805_2012Metric_Pad1.20x1.40mm_HandSolder" (at 105.918 63.5 90)
      (effects (font (size 1.27 1.27)) hide)
    )
    (property "Datasheet" "~" (at 104.14 63.5 0)
      (effects (font (size 1.27 1.27)) hide)
    )
    (pin "1" (uuid b9dc9201-c290-4783-8785-fd680e33b95e))
    (pin "2" (uuid 40918aee-28f3-46f3-8173-8f159234c531))
    (instances
      (project "ACTIVATOR"
        (path "/dad1536b-7795-4ed1-9570-288544778227"
          (reference "R4") (unit 1)
        )
      )
    )
  )

  (symbol (lib_id "power:GND") (at 137.16 69.85 0) (unit 1)
    (in_bom yes) (on_board yes) (dnp no) (fields_autoplaced)
    (uuid ff19a439-a80f-437e-935e-81e630047df9)
    (property "Reference" "#PWR010" (at 137.16 76.2 0)
      (effects (font (size 1.27 1.27)) hide)
    )
    (property "Value" "GND" (at 137.16 74.295 0)
      (effects (font (size 1.27 1.27)))
    )
    (property "Footprint" "" (at 137.16 69.85 0)
      (effects (font (size 1.27 1.27)) hide)
    )
    (property "Datasheet" "" (at 137.16 69.85 0)
      (effects (font (size 1.27 1.27)) hide)
    )
    (pin "1" (uuid 8f6bd081-c591-4291-97c0-d5bc4dcfd962))
    (instances
      (project "ACTIVATOR"
        (path "/dad1536b-7795-4ed1-9570-288544778227"
          (reference "#PWR010") (unit 1)
        )
      )
    )
  )

  (sheet_instances
    (path "/" (page "1"))
  )
)
