%TF.GenerationSoftware,KiCad,Pcbnew,7.0.1*%
%TF.CreationDate,2023-06-30T13:20:40+02:00*%
%TF.ProjectId,JOINER_3xby2,4a4f494e-4552-45f3-9378-6279322e6b69,v0.1*%
%TF.SameCoordinates,Original*%
%TF.FileFunction,Copper,L1,Top*%
%TF.FilePolarity,Positive*%
%FSLAX46Y46*%
G04 Gerber Fmt 4.6, Leading zero omitted, Abs format (unit mm)*
G04 Created by KiCad (PCBNEW 7.0.1) date 2023-06-30 13:20:40*
%MOMM*%
%LPD*%
G01*
G04 APERTURE LIST*
G04 Aperture macros list*
%AMRoundRect*
0 Rectangle with rounded corners*
0 $1 Rounding radius*
0 $2 $3 $4 $5 $6 $7 $8 $9 X,Y pos of 4 corners*
0 Add a 4 corners polygon primitive as box body*
4,1,4,$2,$3,$4,$5,$6,$7,$8,$9,$2,$3,0*
0 Add four circle primitives for the rounded corners*
1,1,$1+$1,$2,$3*
1,1,$1+$1,$4,$5*
1,1,$1+$1,$6,$7*
1,1,$1+$1,$8,$9*
0 Add four rect primitives between the rounded corners*
20,1,$1+$1,$2,$3,$4,$5,0*
20,1,$1+$1,$4,$5,$6,$7,0*
20,1,$1+$1,$6,$7,$8,$9,0*
20,1,$1+$1,$8,$9,$2,$3,0*%
G04 Aperture macros list end*
%TA.AperFunction,SMDPad,CuDef*%
%ADD10RoundRect,0.250000X0.350000X0.450000X-0.350000X0.450000X-0.350000X-0.450000X0.350000X-0.450000X0*%
%TD*%
%TA.AperFunction,SMDPad,CuDef*%
%ADD11RoundRect,0.250000X0.250000X0.250000X-0.250000X0.250000X-0.250000X-0.250000X0.250000X-0.250000X0*%
%TD*%
%TA.AperFunction,ComponentPad*%
%ADD12R,1.930000X1.830000*%
%TD*%
%TA.AperFunction,ComponentPad*%
%ADD13C,2.130000*%
%TD*%
%TA.AperFunction,Conductor*%
%ADD14C,0.300000*%
%TD*%
G04 APERTURE END LIST*
D10*
%TO.P,R2,1*%
%TO.N,Net-(D4-K)*%
X91840000Y-157830000D03*
%TO.P,R2,2*%
%TO.N,GND*%
X89840000Y-157830000D03*
%TD*%
%TO.P,R1,1*%
%TO.N,Set01Joined*%
X91770000Y-95940000D03*
%TO.P,R1,2*%
%TO.N,GND*%
X89770000Y-95940000D03*
%TD*%
D11*
%TO.P,D6,1,K*%
%TO.N,Net-(D4-K)*%
X92037500Y-140520000D03*
%TO.P,D6,2,A*%
%TO.N,Net-(D6-A)*%
X89537500Y-140520000D03*
%TD*%
%TO.P,D5,1,K*%
%TO.N,Net-(D4-K)*%
X92037500Y-133610000D03*
%TO.P,D5,2,A*%
%TO.N,Net-(D5-A)*%
X89537500Y-133610000D03*
%TD*%
%TO.P,D4,1,K*%
%TO.N,Net-(D4-K)*%
X92027500Y-116310000D03*
%TO.P,D4,2,A*%
%TO.N,Net-(D4-A)*%
X89527500Y-116310000D03*
%TD*%
%TO.P,D1,1,K*%
%TO.N,Set01Joined*%
X92060000Y-54340000D03*
%TO.P,D1,2,A*%
%TO.N,Net-(D1-A)*%
X89560000Y-54340000D03*
%TD*%
%TO.P,D3,1,K*%
%TO.N,Set01Joined*%
X92080000Y-78630000D03*
%TO.P,D3,2,A*%
%TO.N,Net-(D3-A)*%
X89580000Y-78630000D03*
%TD*%
%TO.P,D2,1,K*%
%TO.N,Set01Joined*%
X92070000Y-71630000D03*
%TO.P,D2,2,A*%
%TO.N,Net-(D2-A)*%
X89570000Y-71630000D03*
%TD*%
D12*
%TO.P,J3,S*%
%TO.N,GND*%
X88340000Y-87280000D03*
D13*
%TO.P,J3,T*%
%TO.N,Net-(D3-A)*%
X88340000Y-76480000D03*
%TO.P,J3,TN*%
%TO.N,unconnected-(J3-PadTN)*%
X88340000Y-84780000D03*
%TD*%
D12*
%TO.P,J4,S*%
%TO.N,GND*%
X88340000Y-87280000D03*
D13*
%TO.P,J4,T*%
%TO.N,Set01Joined*%
X88340000Y-98080000D03*
%TO.P,J4,TN*%
%TO.N,unconnected-(J4-PadTN)*%
X88340000Y-89780000D03*
%TD*%
D12*
%TO.P,J1,S*%
%TO.N,GND*%
X88330000Y-62990000D03*
D13*
%TO.P,J1,T*%
%TO.N,Net-(D1-A)*%
X88330000Y-52190000D03*
%TO.P,J1,TN*%
%TO.N,unconnected-(J1-PadTN)*%
X88330000Y-60490000D03*
%TD*%
D12*
%TO.P,J8,S*%
%TO.N,GND*%
X88300000Y-149170000D03*
D13*
%TO.P,J8,T*%
%TO.N,Net-(D4-K)*%
X88300000Y-159970000D03*
%TO.P,J8,TN*%
%TO.N,unconnected-(J8-PadTN)*%
X88300000Y-151670000D03*
%TD*%
D12*
%TO.P,J2,S*%
%TO.N,GND*%
X88330000Y-62990000D03*
D13*
%TO.P,J2,T*%
%TO.N,Net-(D2-A)*%
X88330000Y-73790000D03*
%TO.P,J2,TN*%
%TO.N,unconnected-(J2-PadTN)*%
X88330000Y-65490000D03*
%TD*%
D12*
%TO.P,J5,S*%
%TO.N,GND*%
X88290000Y-124950000D03*
D13*
%TO.P,J5,T*%
%TO.N,Net-(D4-A)*%
X88290000Y-114150000D03*
%TO.P,J5,TN*%
%TO.N,Set01Joined*%
X88290000Y-122450000D03*
%TD*%
D12*
%TO.P,J6,S*%
%TO.N,GND*%
X88290000Y-124950000D03*
D13*
%TO.P,J6,T*%
%TO.N,Net-(D5-A)*%
X88290000Y-135750000D03*
%TO.P,J6,TN*%
%TO.N,unconnected-(J6-PadTN)*%
X88290000Y-127450000D03*
%TD*%
D12*
%TO.P,J7,S*%
%TO.N,GND*%
X88300000Y-149170000D03*
D13*
%TO.P,J7,T*%
%TO.N,Net-(D6-A)*%
X88300000Y-138370000D03*
%TO.P,J7,TN*%
%TO.N,unconnected-(J7-PadTN)*%
X88300000Y-146670000D03*
%TD*%
D14*
%TO.N,Set01Joined*%
X92080000Y-95630000D02*
X91770000Y-95940000D01*
X91280000Y-98080000D02*
X88340000Y-98080000D01*
X92060000Y-54340000D02*
X92060000Y-71620000D01*
X91770000Y-95940000D02*
X91770000Y-97590000D01*
X87100000Y-122450000D02*
X88290000Y-122450000D01*
X92080000Y-78630000D02*
X92080000Y-95630000D01*
X85400000Y-101020000D02*
X85400000Y-120750000D01*
X92070000Y-71630000D02*
X92070000Y-78620000D01*
X88340000Y-98080000D02*
X85400000Y-101020000D01*
X92060000Y-71620000D02*
X92070000Y-71630000D01*
X91770000Y-97590000D02*
X91280000Y-98080000D01*
X85400000Y-120750000D02*
X87100000Y-122450000D01*
X92070000Y-78620000D02*
X92080000Y-78630000D01*
%TO.N,Net-(D1-A)*%
X89560000Y-54340000D02*
X89560000Y-53420000D01*
X89560000Y-53420000D02*
X88330000Y-52190000D01*
%TO.N,Net-(D2-A)*%
X89570000Y-72550000D02*
X88330000Y-73790000D01*
X89570000Y-71630000D02*
X89570000Y-72550000D01*
%TO.N,Net-(D3-A)*%
X88340000Y-76480000D02*
X88340000Y-77390000D01*
X88340000Y-77390000D02*
X89580000Y-78630000D01*
%TO.N,Net-(D4-A)*%
X88290000Y-115072500D02*
X89527500Y-116310000D01*
X88290000Y-114150000D02*
X88290000Y-115072500D01*
%TO.N,Net-(D5-A)*%
X89537500Y-134502500D02*
X88290000Y-135750000D01*
X89537500Y-133610000D02*
X89537500Y-134502500D01*
%TO.N,Net-(D6-A)*%
X89537500Y-140520000D02*
X89537500Y-139607500D01*
X89537500Y-139607500D02*
X88300000Y-138370000D01*
%TO.N,GND*%
X88330000Y-62990000D02*
X86380000Y-62990000D01*
X85110000Y-147340000D02*
X86570000Y-148800000D01*
X85770000Y-94630000D02*
X87080000Y-95940000D01*
X89840000Y-157830000D02*
X85900000Y-157830000D01*
X84940000Y-156870000D02*
X84940000Y-150800000D01*
X88290000Y-124950000D02*
X85960000Y-124950000D01*
X84940000Y-150800000D02*
X86570000Y-149170000D01*
X85110000Y-125800000D02*
X85110000Y-147340000D01*
X87080000Y-95940000D02*
X89770000Y-95940000D01*
X84250000Y-124940000D02*
X84250000Y-97400000D01*
X85710000Y-95940000D02*
X87080000Y-95940000D01*
X86570000Y-148800000D02*
X86570000Y-149170000D01*
X84250000Y-97400000D02*
X85710000Y-95940000D01*
X86820000Y-87280000D02*
X88340000Y-87280000D01*
X85090000Y-85550000D02*
X86820000Y-87280000D01*
X85110000Y-125800000D02*
X84250000Y-124940000D01*
X86380000Y-62990000D02*
X85090000Y-64280000D01*
X85090000Y-64280000D02*
X85090000Y-85550000D01*
X85960000Y-124950000D02*
X85110000Y-125800000D01*
X86570000Y-149170000D02*
X88300000Y-149170000D01*
X85770000Y-89850000D02*
X85770000Y-94630000D01*
X85900000Y-157830000D02*
X84940000Y-156870000D01*
X88340000Y-87280000D02*
X85770000Y-89850000D01*
%TO.N,Net-(D4-K)*%
X92027500Y-133600000D02*
X92037500Y-133610000D01*
X92037500Y-133610000D02*
X92037500Y-140520000D01*
X91400000Y-159970000D02*
X88300000Y-159970000D01*
X91840000Y-157830000D02*
X91840000Y-159530000D01*
X92037500Y-140520000D02*
X91840000Y-140717500D01*
X91840000Y-140717500D02*
X91840000Y-157830000D01*
X92027500Y-116310000D02*
X92027500Y-133600000D01*
X91840000Y-159530000D02*
X91400000Y-159970000D01*
%TD*%
M02*
