%TF.GenerationSoftware,KiCad,Pcbnew,7.0.1*%
%TF.CreationDate,2023-06-30T13:20:40+02:00*%
%TF.ProjectId,JOINER_3xby2,4a4f494e-4552-45f3-9378-6279322e6b69,v0.1*%
%TF.SameCoordinates,Original*%
%TF.FileFunction,Copper,L2,Bot*%
%TF.FilePolarity,Positive*%
%FSLAX46Y46*%
G04 Gerber Fmt 4.6, Leading zero omitted, Abs format (unit mm)*
G04 Created by KiCad (PCBNEW 7.0.1) date 2023-06-30 13:20:40*
%MOMM*%
%LPD*%
G01*
G04 APERTURE LIST*
%TA.AperFunction,ComponentPad*%
%ADD10R,1.930000X1.830000*%
%TD*%
%TA.AperFunction,ComponentPad*%
%ADD11C,2.130000*%
%TD*%
G04 APERTURE END LIST*
D10*
%TO.P,J3,S*%
%TO.N,GND*%
X88340000Y-87280000D03*
D11*
%TO.P,J3,T*%
%TO.N,Net-(D3-A)*%
X88340000Y-76480000D03*
%TO.P,J3,TN*%
%TO.N,unconnected-(J3-PadTN)*%
X88340000Y-84780000D03*
%TD*%
D10*
%TO.P,J4,S*%
%TO.N,GND*%
X88340000Y-87280000D03*
D11*
%TO.P,J4,T*%
%TO.N,Set01Joined*%
X88340000Y-98080000D03*
%TO.P,J4,TN*%
%TO.N,unconnected-(J4-PadTN)*%
X88340000Y-89780000D03*
%TD*%
D10*
%TO.P,J1,S*%
%TO.N,GND*%
X88330000Y-62990000D03*
D11*
%TO.P,J1,T*%
%TO.N,Net-(D1-A)*%
X88330000Y-52190000D03*
%TO.P,J1,TN*%
%TO.N,unconnected-(J1-PadTN)*%
X88330000Y-60490000D03*
%TD*%
D10*
%TO.P,J8,S*%
%TO.N,GND*%
X88300000Y-149170000D03*
D11*
%TO.P,J8,T*%
%TO.N,Net-(D4-K)*%
X88300000Y-159970000D03*
%TO.P,J8,TN*%
%TO.N,unconnected-(J8-PadTN)*%
X88300000Y-151670000D03*
%TD*%
D10*
%TO.P,J2,S*%
%TO.N,GND*%
X88330000Y-62990000D03*
D11*
%TO.P,J2,T*%
%TO.N,Net-(D2-A)*%
X88330000Y-73790000D03*
%TO.P,J2,TN*%
%TO.N,unconnected-(J2-PadTN)*%
X88330000Y-65490000D03*
%TD*%
D10*
%TO.P,J5,S*%
%TO.N,GND*%
X88290000Y-124950000D03*
D11*
%TO.P,J5,T*%
%TO.N,Net-(D4-A)*%
X88290000Y-114150000D03*
%TO.P,J5,TN*%
%TO.N,Set01Joined*%
X88290000Y-122450000D03*
%TD*%
D10*
%TO.P,J6,S*%
%TO.N,GND*%
X88290000Y-124950000D03*
D11*
%TO.P,J6,T*%
%TO.N,Net-(D5-A)*%
X88290000Y-135750000D03*
%TO.P,J6,TN*%
%TO.N,unconnected-(J6-PadTN)*%
X88290000Y-127450000D03*
%TD*%
D10*
%TO.P,J7,S*%
%TO.N,GND*%
X88300000Y-149170000D03*
D11*
%TO.P,J7,T*%
%TO.N,Net-(D6-A)*%
X88300000Y-138370000D03*
%TO.P,J7,TN*%
%TO.N,unconnected-(J7-PadTN)*%
X88300000Y-146670000D03*
%TD*%
M02*
