%TF.GenerationSoftware,KiCad,Pcbnew,7.0.1*%
%TF.CreationDate,2023-06-30T13:20:40+02:00*%
%TF.ProjectId,JOINER_3xby2,4a4f494e-4552-45f3-9378-6279322e6b69,v0.1*%
%TF.SameCoordinates,Original*%
%TF.FileFunction,Soldermask,Bot*%
%TF.FilePolarity,Negative*%
%FSLAX46Y46*%
G04 Gerber Fmt 4.6, Leading zero omitted, Abs format (unit mm)*
G04 Created by KiCad (PCBNEW 7.0.1) date 2023-06-30 13:20:40*
%MOMM*%
%LPD*%
G01*
G04 APERTURE LIST*
%ADD10R,1.930000X1.830000*%
%ADD11C,2.130000*%
G04 APERTURE END LIST*
D10*
%TO.C,J3*%
X88340000Y-87280000D03*
D11*
X88340000Y-76480000D03*
X88340000Y-84780000D03*
%TD*%
D10*
%TO.C,J4*%
X88340000Y-87280000D03*
D11*
X88340000Y-98080000D03*
X88340000Y-89780000D03*
%TD*%
D10*
%TO.C,J1*%
X88330000Y-62990000D03*
D11*
X88330000Y-52190000D03*
X88330000Y-60490000D03*
%TD*%
D10*
%TO.C,J8*%
X88300000Y-149170000D03*
D11*
X88300000Y-159970000D03*
X88300000Y-151670000D03*
%TD*%
D10*
%TO.C,J2*%
X88330000Y-62990000D03*
D11*
X88330000Y-73790000D03*
X88330000Y-65490000D03*
%TD*%
D10*
%TO.C,J5*%
X88290000Y-124950000D03*
D11*
X88290000Y-114150000D03*
X88290000Y-122450000D03*
%TD*%
D10*
%TO.C,J6*%
X88290000Y-124950000D03*
D11*
X88290000Y-135750000D03*
X88290000Y-127450000D03*
%TD*%
D10*
%TO.C,J7*%
X88300000Y-149170000D03*
D11*
X88300000Y-138370000D03*
X88300000Y-146670000D03*
%TD*%
M02*
