%TF.GenerationSoftware,KiCad,Pcbnew,7.0.1*%
%TF.CreationDate,2023-07-04T00:00:26+02:00*%
%TF.ProjectId,OSCULATRIX_panel,4f534355-4c41-4545-9249-585f70616e65,rev?*%
%TF.SameCoordinates,Original*%
%TF.FileFunction,Legend,Bot*%
%TF.FilePolarity,Positive*%
%FSLAX46Y46*%
G04 Gerber Fmt 4.6, Leading zero omitted, Abs format (unit mm)*
G04 Created by KiCad (PCBNEW 7.0.1) date 2023-07-04 00:00:26*
%MOMM*%
%LPD*%
G01*
G04 APERTURE LIST*
%ADD10C,0.150000*%
G04 APERTURE END LIST*
D10*
X59961904Y-159677619D02*
X59961904Y-158677619D01*
X59485714Y-159677619D02*
X59485714Y-158677619D01*
X59485714Y-158677619D02*
X58914286Y-159677619D01*
X58914286Y-159677619D02*
X58914286Y-158677619D01*
X58438095Y-159677619D02*
X58438095Y-158677619D01*
X58438095Y-158677619D02*
X58057143Y-158677619D01*
X58057143Y-158677619D02*
X57961905Y-158725238D01*
X57961905Y-158725238D02*
X57914286Y-158772857D01*
X57914286Y-158772857D02*
X57866667Y-158868095D01*
X57866667Y-158868095D02*
X57866667Y-159010952D01*
X57866667Y-159010952D02*
X57914286Y-159106190D01*
X57914286Y-159106190D02*
X57961905Y-159153809D01*
X57961905Y-159153809D02*
X58057143Y-159201428D01*
X58057143Y-159201428D02*
X58438095Y-159201428D01*
X57438095Y-158677619D02*
X57438095Y-159487142D01*
X57438095Y-159487142D02*
X57390476Y-159582380D01*
X57390476Y-159582380D02*
X57342857Y-159630000D01*
X57342857Y-159630000D02*
X57247619Y-159677619D01*
X57247619Y-159677619D02*
X57057143Y-159677619D01*
X57057143Y-159677619D02*
X56961905Y-159630000D01*
X56961905Y-159630000D02*
X56914286Y-159582380D01*
X56914286Y-159582380D02*
X56866667Y-159487142D01*
X56866667Y-159487142D02*
X56866667Y-158677619D01*
X56533333Y-158677619D02*
X55961905Y-158677619D01*
X56247619Y-159677619D02*
X56247619Y-158677619D01*
X67671428Y-158677619D02*
X67480952Y-158677619D01*
X67480952Y-158677619D02*
X67385714Y-158725238D01*
X67385714Y-158725238D02*
X67290476Y-158820476D01*
X67290476Y-158820476D02*
X67242857Y-159010952D01*
X67242857Y-159010952D02*
X67242857Y-159344285D01*
X67242857Y-159344285D02*
X67290476Y-159534761D01*
X67290476Y-159534761D02*
X67385714Y-159630000D01*
X67385714Y-159630000D02*
X67480952Y-159677619D01*
X67480952Y-159677619D02*
X67671428Y-159677619D01*
X67671428Y-159677619D02*
X67766666Y-159630000D01*
X67766666Y-159630000D02*
X67861904Y-159534761D01*
X67861904Y-159534761D02*
X67909523Y-159344285D01*
X67909523Y-159344285D02*
X67909523Y-159010952D01*
X67909523Y-159010952D02*
X67861904Y-158820476D01*
X67861904Y-158820476D02*
X67766666Y-158725238D01*
X67766666Y-158725238D02*
X67671428Y-158677619D01*
X66814285Y-158677619D02*
X66814285Y-159487142D01*
X66814285Y-159487142D02*
X66766666Y-159582380D01*
X66766666Y-159582380D02*
X66719047Y-159630000D01*
X66719047Y-159630000D02*
X66623809Y-159677619D01*
X66623809Y-159677619D02*
X66433333Y-159677619D01*
X66433333Y-159677619D02*
X66338095Y-159630000D01*
X66338095Y-159630000D02*
X66290476Y-159582380D01*
X66290476Y-159582380D02*
X66242857Y-159487142D01*
X66242857Y-159487142D02*
X66242857Y-158677619D01*
X65909523Y-158677619D02*
X65338095Y-158677619D01*
X65623809Y-159677619D02*
X65623809Y-158677619D01*
X65004761Y-159677619D02*
X65004761Y-158677619D01*
X65004761Y-158677619D02*
X64623809Y-158677619D01*
X64623809Y-158677619D02*
X64528571Y-158725238D01*
X64528571Y-158725238D02*
X64480952Y-158772857D01*
X64480952Y-158772857D02*
X64433333Y-158868095D01*
X64433333Y-158868095D02*
X64433333Y-159010952D01*
X64433333Y-159010952D02*
X64480952Y-159106190D01*
X64480952Y-159106190D02*
X64528571Y-159153809D01*
X64528571Y-159153809D02*
X64623809Y-159201428D01*
X64623809Y-159201428D02*
X65004761Y-159201428D01*
X64004761Y-158677619D02*
X64004761Y-159487142D01*
X64004761Y-159487142D02*
X63957142Y-159582380D01*
X63957142Y-159582380D02*
X63909523Y-159630000D01*
X63909523Y-159630000D02*
X63814285Y-159677619D01*
X63814285Y-159677619D02*
X63623809Y-159677619D01*
X63623809Y-159677619D02*
X63528571Y-159630000D01*
X63528571Y-159630000D02*
X63480952Y-159582380D01*
X63480952Y-159582380D02*
X63433333Y-159487142D01*
X63433333Y-159487142D02*
X63433333Y-158677619D01*
X63099999Y-158677619D02*
X62528571Y-158677619D01*
X62814285Y-159677619D02*
X62814285Y-158677619D01*
X47961904Y-109377619D02*
X47961904Y-108377619D01*
X47485714Y-109377619D02*
X47485714Y-108377619D01*
X47485714Y-108377619D02*
X46914286Y-109377619D01*
X46914286Y-109377619D02*
X46914286Y-108377619D01*
X46438095Y-109377619D02*
X46438095Y-108377619D01*
X46438095Y-108377619D02*
X46057143Y-108377619D01*
X46057143Y-108377619D02*
X45961905Y-108425238D01*
X45961905Y-108425238D02*
X45914286Y-108472857D01*
X45914286Y-108472857D02*
X45866667Y-108568095D01*
X45866667Y-108568095D02*
X45866667Y-108710952D01*
X45866667Y-108710952D02*
X45914286Y-108806190D01*
X45914286Y-108806190D02*
X45961905Y-108853809D01*
X45961905Y-108853809D02*
X46057143Y-108901428D01*
X46057143Y-108901428D02*
X46438095Y-108901428D01*
X45438095Y-108377619D02*
X45438095Y-109187142D01*
X45438095Y-109187142D02*
X45390476Y-109282380D01*
X45390476Y-109282380D02*
X45342857Y-109330000D01*
X45342857Y-109330000D02*
X45247619Y-109377619D01*
X45247619Y-109377619D02*
X45057143Y-109377619D01*
X45057143Y-109377619D02*
X44961905Y-109330000D01*
X44961905Y-109330000D02*
X44914286Y-109282380D01*
X44914286Y-109282380D02*
X44866667Y-109187142D01*
X44866667Y-109187142D02*
X44866667Y-108377619D01*
X44533333Y-108377619D02*
X43961905Y-108377619D01*
X44247619Y-109377619D02*
X44247619Y-108377619D01*
X79771428Y-108377619D02*
X79580952Y-108377619D01*
X79580952Y-108377619D02*
X79485714Y-108425238D01*
X79485714Y-108425238D02*
X79390476Y-108520476D01*
X79390476Y-108520476D02*
X79342857Y-108710952D01*
X79342857Y-108710952D02*
X79342857Y-109044285D01*
X79342857Y-109044285D02*
X79390476Y-109234761D01*
X79390476Y-109234761D02*
X79485714Y-109330000D01*
X79485714Y-109330000D02*
X79580952Y-109377619D01*
X79580952Y-109377619D02*
X79771428Y-109377619D01*
X79771428Y-109377619D02*
X79866666Y-109330000D01*
X79866666Y-109330000D02*
X79961904Y-109234761D01*
X79961904Y-109234761D02*
X80009523Y-109044285D01*
X80009523Y-109044285D02*
X80009523Y-108710952D01*
X80009523Y-108710952D02*
X79961904Y-108520476D01*
X79961904Y-108520476D02*
X79866666Y-108425238D01*
X79866666Y-108425238D02*
X79771428Y-108377619D01*
X78914285Y-108377619D02*
X78914285Y-109187142D01*
X78914285Y-109187142D02*
X78866666Y-109282380D01*
X78866666Y-109282380D02*
X78819047Y-109330000D01*
X78819047Y-109330000D02*
X78723809Y-109377619D01*
X78723809Y-109377619D02*
X78533333Y-109377619D01*
X78533333Y-109377619D02*
X78438095Y-109330000D01*
X78438095Y-109330000D02*
X78390476Y-109282380D01*
X78390476Y-109282380D02*
X78342857Y-109187142D01*
X78342857Y-109187142D02*
X78342857Y-108377619D01*
X78009523Y-108377619D02*
X77438095Y-108377619D01*
X77723809Y-109377619D02*
X77723809Y-108377619D01*
X77104761Y-109377619D02*
X77104761Y-108377619D01*
X77104761Y-108377619D02*
X76723809Y-108377619D01*
X76723809Y-108377619D02*
X76628571Y-108425238D01*
X76628571Y-108425238D02*
X76580952Y-108472857D01*
X76580952Y-108472857D02*
X76533333Y-108568095D01*
X76533333Y-108568095D02*
X76533333Y-108710952D01*
X76533333Y-108710952D02*
X76580952Y-108806190D01*
X76580952Y-108806190D02*
X76628571Y-108853809D01*
X76628571Y-108853809D02*
X76723809Y-108901428D01*
X76723809Y-108901428D02*
X77104761Y-108901428D01*
X76104761Y-108377619D02*
X76104761Y-109187142D01*
X76104761Y-109187142D02*
X76057142Y-109282380D01*
X76057142Y-109282380D02*
X76009523Y-109330000D01*
X76009523Y-109330000D02*
X75914285Y-109377619D01*
X75914285Y-109377619D02*
X75723809Y-109377619D01*
X75723809Y-109377619D02*
X75628571Y-109330000D01*
X75628571Y-109330000D02*
X75580952Y-109282380D01*
X75580952Y-109282380D02*
X75533333Y-109187142D01*
X75533333Y-109187142D02*
X75533333Y-108377619D01*
X75199999Y-108377619D02*
X74628571Y-108377619D01*
X74914285Y-109377619D02*
X74914285Y-108377619D01*
X57861904Y-60977619D02*
X57861904Y-59977619D01*
X57385714Y-60977619D02*
X57385714Y-59977619D01*
X57385714Y-59977619D02*
X56814286Y-60977619D01*
X56814286Y-60977619D02*
X56814286Y-59977619D01*
X56338095Y-60977619D02*
X56338095Y-59977619D01*
X56338095Y-59977619D02*
X55957143Y-59977619D01*
X55957143Y-59977619D02*
X55861905Y-60025238D01*
X55861905Y-60025238D02*
X55814286Y-60072857D01*
X55814286Y-60072857D02*
X55766667Y-60168095D01*
X55766667Y-60168095D02*
X55766667Y-60310952D01*
X55766667Y-60310952D02*
X55814286Y-60406190D01*
X55814286Y-60406190D02*
X55861905Y-60453809D01*
X55861905Y-60453809D02*
X55957143Y-60501428D01*
X55957143Y-60501428D02*
X56338095Y-60501428D01*
X55338095Y-59977619D02*
X55338095Y-60787142D01*
X55338095Y-60787142D02*
X55290476Y-60882380D01*
X55290476Y-60882380D02*
X55242857Y-60930000D01*
X55242857Y-60930000D02*
X55147619Y-60977619D01*
X55147619Y-60977619D02*
X54957143Y-60977619D01*
X54957143Y-60977619D02*
X54861905Y-60930000D01*
X54861905Y-60930000D02*
X54814286Y-60882380D01*
X54814286Y-60882380D02*
X54766667Y-60787142D01*
X54766667Y-60787142D02*
X54766667Y-59977619D01*
X54433333Y-59977619D02*
X53861905Y-59977619D01*
X54147619Y-60977619D02*
X54147619Y-59977619D01*
X65671428Y-59977619D02*
X65480952Y-59977619D01*
X65480952Y-59977619D02*
X65385714Y-60025238D01*
X65385714Y-60025238D02*
X65290476Y-60120476D01*
X65290476Y-60120476D02*
X65242857Y-60310952D01*
X65242857Y-60310952D02*
X65242857Y-60644285D01*
X65242857Y-60644285D02*
X65290476Y-60834761D01*
X65290476Y-60834761D02*
X65385714Y-60930000D01*
X65385714Y-60930000D02*
X65480952Y-60977619D01*
X65480952Y-60977619D02*
X65671428Y-60977619D01*
X65671428Y-60977619D02*
X65766666Y-60930000D01*
X65766666Y-60930000D02*
X65861904Y-60834761D01*
X65861904Y-60834761D02*
X65909523Y-60644285D01*
X65909523Y-60644285D02*
X65909523Y-60310952D01*
X65909523Y-60310952D02*
X65861904Y-60120476D01*
X65861904Y-60120476D02*
X65766666Y-60025238D01*
X65766666Y-60025238D02*
X65671428Y-59977619D01*
X64814285Y-59977619D02*
X64814285Y-60787142D01*
X64814285Y-60787142D02*
X64766666Y-60882380D01*
X64766666Y-60882380D02*
X64719047Y-60930000D01*
X64719047Y-60930000D02*
X64623809Y-60977619D01*
X64623809Y-60977619D02*
X64433333Y-60977619D01*
X64433333Y-60977619D02*
X64338095Y-60930000D01*
X64338095Y-60930000D02*
X64290476Y-60882380D01*
X64290476Y-60882380D02*
X64242857Y-60787142D01*
X64242857Y-60787142D02*
X64242857Y-59977619D01*
X63909523Y-59977619D02*
X63338095Y-59977619D01*
X63623809Y-60977619D02*
X63623809Y-59977619D01*
X63004761Y-60977619D02*
X63004761Y-59977619D01*
X63004761Y-59977619D02*
X62623809Y-59977619D01*
X62623809Y-59977619D02*
X62528571Y-60025238D01*
X62528571Y-60025238D02*
X62480952Y-60072857D01*
X62480952Y-60072857D02*
X62433333Y-60168095D01*
X62433333Y-60168095D02*
X62433333Y-60310952D01*
X62433333Y-60310952D02*
X62480952Y-60406190D01*
X62480952Y-60406190D02*
X62528571Y-60453809D01*
X62528571Y-60453809D02*
X62623809Y-60501428D01*
X62623809Y-60501428D02*
X63004761Y-60501428D01*
X62004761Y-59977619D02*
X62004761Y-60787142D01*
X62004761Y-60787142D02*
X61957142Y-60882380D01*
X61957142Y-60882380D02*
X61909523Y-60930000D01*
X61909523Y-60930000D02*
X61814285Y-60977619D01*
X61814285Y-60977619D02*
X61623809Y-60977619D01*
X61623809Y-60977619D02*
X61528571Y-60930000D01*
X61528571Y-60930000D02*
X61480952Y-60882380D01*
X61480952Y-60882380D02*
X61433333Y-60787142D01*
X61433333Y-60787142D02*
X61433333Y-59977619D01*
X61099999Y-59977619D02*
X60528571Y-59977619D01*
X60814285Y-60977619D02*
X60814285Y-59977619D01*
M02*
